<?xml version="1.0" encoding="utf-8"?>
<!-- Generator: Adobe Illustrator 23.0.1, SVG Export Plug-In . SVG Version: 6.00 Build 0)  -->
<svg version="1.1" xmlns="http://www.w3.org/2000/svg" xmlns:xlink="http://www.w3.org/1999/xlink" x="0px" y="0px"
	 viewBox="0 0 21 21" style="enable-background:new 0 0 21 21;" xml:space="preserve">
<style type="text/css">
	.st0{fill:#FFFFFF;}
</style>
<g id="Layer_1">
</g>
<g id="Layer_15">
	<g>
		<path class="st0" d="M18.8,0.7c0.8,0,1.5,0.7,1.5,1.5v16.6c0,0.8-0.7,1.5-1.5,1.5H2.2c-0.8,0-1.5-0.7-1.5-1.5V2.2
			c0-0.8,0.7-1.5,1.5-1.5H18.8 M18.8,0H2.2C1,0,0,1,0,2.2v16.6C0,20,1,21,2.2,21h16.6c1.2,0,2.2-1,2.2-2.2V2.2C21,1,20,0,18.8,0
			L18.8,0z"/>
		<path class="st0" d="M10.5,4.8c3.2,0,5.7,2.6,5.7,5.7s-2.6,5.7-5.7,5.7s-5.7-2.6-5.7-5.7S7.3,4.8,10.5,4.8 M10.5,4.1
			c-3.6,0-6.4,2.9-6.4,6.4s2.9,6.4,6.4,6.4s6.4-2.9,6.4-6.4S14.1,4.1,10.5,4.1L10.5,4.1z"/>
	</g>
</g>
</svg>
