<?xml version="1.0" encoding="utf-8"?>
<!-- Generator: Adobe Illustrator 23.0.1, SVG Export Plug-In . SVG Version: 6.00 Build 0)  -->
<svg version="1.1" xmlns="http://www.w3.org/2000/svg" xmlns:xlink="http://www.w3.org/1999/xlink" x="0px" y="0px"
	 viewBox="0 0 21 21" style="enable-background:new 0 0 21 21;" xml:space="preserve">
<style type="text/css">
	.st0{fill:#FFFFFF;}
</style>
<g id="Layer_1">
</g>
<g id="Layer_15">
</g>
<g id="Isolation_Mode">
	<g>
		<path class="st0" d="M15.7,0H6.5C5.7,0,5.1,0.6,5.1,1.4V4C5.3,4,5.6,3.9,5.8,3.9V1.4c0-0.4,0.3-0.7,0.7-0.7h8.9L20.1,5v9.2v5.4
			c0,0.4-0.3,0.7-0.7,0.7H6.5c-0.4,0-0.7-0.3-0.7-0.7V6.9C5.6,7,5.3,7.1,5.1,7.2v12.4c0,0.8,0.6,1.4,1.4,1.4h12.9
			c0.8,0,1.4-0.6,1.4-1.4v-5.4V4.7L15.7,0z"/>
		<path class="st0" d="M13,11.7h0.7c0-3.7-3-6.7-6.7-6.7c-3.7,0-6.7,3-6.7,6.7h0.7c0-3.3,2.7-6,6-6C10.3,5.6,13,8.3,13,11.7z"/>
		<polygon class="st0" points="12.2,13 13.3,14.4 14.5,13 15.6,11.7 13.3,11.7 11,11.7 		"/>
	</g>
</g>
</svg>
