<?xml version="1.0" encoding="utf-8"?>
<!-- Generator: Adobe Illustrator 24.0.1, SVG Export Plug-In . SVG Version: 6.00 Build 0)  -->
<svg version="1.1" id="Layer_1" xmlns="http://www.w3.org/2000/svg" xmlns:xlink="http://www.w3.org/1999/xlink" x="0px" y="0px"
	 viewBox="0 0 21 21" style="enable-background:new 0 0 21 21;" xml:space="preserve">
<g>
	<path d="M18.9,2.8L10.5,0L2.1,2.8V13c0.7,3.4,3.7,6,8.4,8c4.7-2,7.6-4.6,8.4-8L18.9,2.8z M16,11.9h-2.4v3.4h-1.7v-3.4H9.1v3.4H7.5
		v-3.4H5V5.8c3.6-2.2,7.3-2.2,10.9,0L16,11.9z"/>
</g>
</svg>
