<?xml version="1.0" encoding="utf-8"?>
<!-- Generator: Adobe Illustrator 23.0.2, SVG Export Plug-In . SVG Version: 6.00 Build 0)  -->
<svg version="1.1" xmlns="http://www.w3.org/2000/svg" xmlns:xlink="http://www.w3.org/1999/xlink" x="0px" y="0px"
	 viewBox="0 0 21 21" style="enable-background:new 0 0 21 21;" xml:space="preserve">
<style type="text/css">
	.st0{fill:#FFFFFF;}
</style>
<g id="Layer_1">
</g>
<g id="Circled_Ics">
</g>
<g id="Add_Analysis_window">
	<g>
		<path class="st0" d="M0.3,3.1v11.5h20.5l0-11.5C13.9-1,7.1-1,0.3,3.1z"/>
		<rect x="4.8" y="14.6" class="st0" width="3.2" height="6.4"/>
		<rect x="13" y="14.6" class="st0" width="3.2" height="6.4"/>
	</g>
</g>
</svg>
