<?xml version="1.0" encoding="utf-8"?>
<!-- Generator: Adobe Illustrator 23.0.3, SVG Export Plug-In . SVG Version: 6.00 Build 0)  -->
<svg version="1.1" id="Layer_1" xmlns="http://www.w3.org/2000/svg" xmlns:xlink="http://www.w3.org/1999/xlink" x="0px" y="0px"
	 viewBox="0 0 21 21" style="enable-background:new 0 0 21 21;" xml:space="preserve">
<g>
	<polygon points="10.6,0 0.3,10.5 2.4,12.6 10.6,4.2 18.8,12.6 20.7,10.5 	"/>
	<polygon points="10.6,8.4 0.3,18.9 2.4,21 10.6,12.6 18.8,21 20.7,18.9 	"/>
</g>
</svg>
