<?xml version="1.0" encoding="utf-8"?>
<!-- Generator: Adobe Illustrator 23.0.3, SVG Export Plug-In . SVG Version: 6.00 Build 0)  -->
<svg version="1.1" xmlns="http://www.w3.org/2000/svg" xmlns:xlink="http://www.w3.org/1999/xlink" x="0px" y="0px"
	 viewBox="0 0 21 21" style="enable-background:new 0 0 21 21;" xml:space="preserve">
<style type="text/css">
	.st0{fill:#FFFFFF;}
</style>
<g id="Layer_1">
</g>
<g id="Layer_2">
	<path class="st0" d="M19.1,0H1.9C1.2,0,0.6,0.8,0.5,1.8v12.4c0,1,0.6,1.7,1.4,1.8H14l5.5,5.1l-0.5-5.1c0.8,0,1.4-0.8,1.4-1.8V1.8
		C20.4,0.8,19.8,0,19.1,0z M9.1,9.7H5.6V6.2h3.5V9.7z M14.9,9.7h-3.5V6.2h3.5V9.7z"/>
</g>
</svg>
