<?xml version="1.0" encoding="utf-8"?>
<!-- Generator: Adobe Illustrator 23.0.2, SVG Export Plug-In . SVG Version: 6.00 Build 0)  -->
<svg version="1.1" xmlns="http://www.w3.org/2000/svg" xmlns:xlink="http://www.w3.org/1999/xlink" x="0px" y="0px"
	 viewBox="0 0 9.5 10" style="enable-background:new 0 0 9.5 10;" xml:space="preserve">
<style type="text/css">
	.st0{fill:#FFFFFF;}
</style>
<g id="Layer_1">
</g>
<g id="Add_Analysis_window">
	<path class="st0" d="M9.5,6.9L7.8,3.1C7.6,2.2,6.8,1.4,5.9,1.3V0H4.3v1.3C3.2,1.5,2.4,2.4,2.4,3.5H1.5C0.7,3.5,0,4.2,0,5v2.2h1V5
		c0-0.3,0.2-0.5,0.5-0.5h0.9v2c0,1.1,0.9,2.1,2,2.2V10h1.5V8.7c1.1-0.1,2-1.1,2-2.2v-2L9,7.1L9.5,6.9z M7.3,6.5c0,1-0.8,1.8-1.8,1.8
		H4.6c-1,0-1.8-0.8-1.8-1.8V3.5c0-1,0.8-1.8,1.8-1.8h0.9c1,0,1.8,0.8,1.8,1.8V6.5z"/>
</g>
</svg>
