<?xml version="1.0" encoding="utf-8"?>
<!-- Generator: Adobe Illustrator 23.0.3, SVG Export Plug-In . SVG Version: 6.00 Build 0)  -->
<svg version="1.1" id="Layer_1" xmlns="http://www.w3.org/2000/svg" xmlns:xlink="http://www.w3.org/1999/xlink" x="0px" y="0px"
	 viewBox="0 0 21 21" style="enable-background:new 0 0 21 21;" xml:space="preserve">
<style type="text/css">
	.st0{fill:#FFFFFF;}
</style>
<g>
	<polygon class="st0" points="18.4,11.2 18.4,20.1 0.7,20.1 0.7,2.3 15.2,2.3 16,1.6 0,1.6 0,20.8 19.1,20.8 19.1,10.6 	"/>
	<polygon class="st0" points="9.2,11.3 4.6,7.3 5,6.8 9.2,10.4 20.5,0.2 21,0.7 	"/>
	<polygon class="st0" points="9.2,16.8 4.6,12.8 5,12.2 9.2,15.8 20.5,5.7 21,6.2 	"/>
</g>
</svg>
