<?xml version="1.0" encoding="utf-8"?>
<!-- Generator: Adobe Illustrator 23.0.3, SVG Export Plug-In . SVG Version: 6.00 Build 0)  -->
<svg version="1.1" xmlns="http://www.w3.org/2000/svg" xmlns:xlink="http://www.w3.org/1999/xlink" x="0px" y="0px"
	 viewBox="0 0 21 21" style="enable-background:new 0 0 21 21;" xml:space="preserve">
<style type="text/css">
	
</style>
<g id="Layer_1">
</g>
<g id="Layer_95">
	<g>
		<path  d="M10.5,13.3c1.8,0,3.3-1.5,3.3-3.3V3.3c0-1.8-1.5-3.3-3.3-3.3S7.2,1.5,7.2,3.3v6.6
			C7.2,11.8,8.7,13.3,10.5,13.3z"/>
		<path  d="M16,9.9c0,3.1-2.5,5.5-5.5,5.5S5,13,5,9.9H2.8c0,3.9,2.9,7.1,6.6,7.6V21h2.2v-3.4c3.7-0.5,6.6-3.7,6.6-7.6H16
			z"/>
	</g>
</g>
</svg>
