<?xml version="1.0" encoding="utf-8"?>
<!-- Generator: Adobe Illustrator 23.0.3, SVG Export Plug-In . SVG Version: 6.00 Build 0)  -->
<svg version="1.1" id="Layer_1" xmlns="http://www.w3.org/2000/svg" xmlns:xlink="http://www.w3.org/1999/xlink" x="0px" y="0px"
	 viewBox="0 0 21 21" style="enable-background:new 0 0 21 21;" xml:space="preserve">
<style type="text/css">
	.st0{fill:#FFFFFF;}
</style>
<path class="st0" d="M21,4.8V3H5.9H0v1.8v11.4V18h5.9H21v-1.8H5.9v-2.5l1.3,0c0.1,0,0.2,0,0.3,0c1.6,0,2.6-1.1,3.3-1.9
	c0.7-0.8,1-1.1,1.5-1.1c0.5,0,0.8,0.3,1.5,1c0.8,0.9,2,2,4.1,2c1.5,0,2.4-0.6,3.2-1.2V7.9c-0.7,0.4-1.3,1-1.7,1.4
	c-0.7,0.7-0.9,1-1.5,1c-0.6,0-0.9-0.3-1.7-1c-0.8-0.8-1.9-2-3.9-2c-2.1,0-3.3,1.4-4.1,2.3C8,9.8,7.6,10.3,7.4,10.3l-0.1,0l-1.4,0
	V4.8H21z"/>
</svg>
