<?xml version="1.0" encoding="utf-8"?>
<!-- Generator: Adobe Illustrator 24.0.1, SVG Export Plug-In . SVG Version: 6.00 Build 0)  -->
<svg version="1.1" id="Layer_1" xmlns="http://www.w3.org/2000/svg" xmlns:xlink="http://www.w3.org/1999/xlink" x="0px" y="0px"
	 viewBox="0 0 21 21" style="enable-background:new 0 0 21 21;" xml:space="preserve">
<path d="M20.8,3.1C13.9-1,7.1-1,0.2,3.1v3.3h0v4.2v4.2h0v3.3c6.9,4.1,13.7,4.1,20.6,0l0-7.4L20.8,3.1z M16.7,12.6h-4.1v4.1H8.4v-4.1
	H4.3V8.4h4.1V4.3h4.2v4.1h4.1V12.6z"/>
</svg>
