<?xml version="1.0" encoding="utf-8"?>
<!-- Generator: Adobe Illustrator 23.0.2, SVG Export Plug-In . SVG Version: 6.00 Build 0)  -->
<svg version="1.1" xmlns="http://www.w3.org/2000/svg" xmlns:xlink="http://www.w3.org/1999/xlink" x="0px" y="0px"
	 viewBox="0 0 21 21" style="enable-background:new 0 0 21 21;" xml:space="preserve">
<style type="text/css">
	.st0{fill:#FFFFFF;}
</style>
<g id="Layer_1">
</g>
<g id="Circled_Ics">
</g>
<g id="Add_Analysis_window">
	<path class="st0" d="M17.8,4.4h-2V4.3c0-2.1-1.7-3.8-3.8-3.8H9.2c-2.1,0-3.8,1.7-3.8,3.8v0.1H3.2C1.5,4.4,0,5.9,0,7.7v9.6
		c0,1.8,1.5,3.2,3.2,3.2h14.5c1.8,0,3.2-1.5,3.2-3.2V7.7C21,5.9,19.5,4.4,17.8,4.4z M6.9,4.3C6.9,3,7.9,2,9.2,2h2.7
		c1.3,0,2.3,1,2.3,2.3v0.1H6.9V4.3z M14.2,13.5h-2.6v2.6H9.4v-2.6H6.8v-2.1h2.6V8.8h2.1v2.6h2.6V13.5z"/>
</g>
</svg>
