<?xml version="1.0" encoding="utf-8"?>
<!-- Generator: Adobe Illustrator 23.0.2, SVG Export Plug-In . SVG Version: 6.00 Build 0)  -->
<svg version="1.1" xmlns="http://www.w3.org/2000/svg" xmlns:xlink="http://www.w3.org/1999/xlink" x="0px" y="0px"
	 viewBox="0 0 21 21" style="enable-background:new 0 0 21 21;" xml:space="preserve">
<style type="text/css">
	.st0{fill:#FFFFFF;}
</style>
<g id="Layer_1">
	<g>
		<path class="st0" d="M18.6,19.4v-8.7H5.7l-2-2.5H2.4v2.5v8.7H0.2V21h20.6v-1.6H18.6z M14.5,14.4c1.1,0,2.1,0.9,2.1,2.1
			c0,1.1-0.9,2.1-2.1,2.1c-1.1,0-2.1-0.9-2.1-2.1C12.4,15.4,13.3,14.4,14.5,14.4z"/>
		<polygon class="st0" points="14.3,0 10.1,0 8.3,8.1 16.2,8.1 		"/>
	</g>
</g>
<g id="Circled_Ics">
</g>
<g id="Add_Analysis_window">
</g>
</svg>
