<?xml version="1.0" encoding="utf-8"?>
<!-- Generator: Adobe Illustrator 23.0.1, SVG Export Plug-In . SVG Version: 6.00 Build 0)  -->
<svg version="1.1" xmlns="http://www.w3.org/2000/svg" xmlns:xlink="http://www.w3.org/1999/xlink" x="0px" y="0px"
	 viewBox="0 0 21 17" style="enable-background:new 0 0 21 17;" xml:space="preserve">
<style type="text/css">
	.st0{fill:none;stroke:#FFFFFF;stroke-width:0.7;stroke-miterlimit:10;}
</style>
<g id="Layer_1">
</g>
<g id="Left_Right_Pane_Toggle">
	<g>
		<line class="st0" x1="0" y1="0" x2="21" y2="0"/>
		<line class="st0" x1="0" y1="8.5" x2="21" y2="8.5"/>
		<line class="st0" x1="0" y1="17" x2="21" y2="17"/>
	</g>
</g>
</svg>
