<?xml version="1.0" encoding="utf-8"?>
<!-- Generator: Adobe Illustrator 24.3.0, SVG Export Plug-In . SVG Version: 6.00 Build 0)  -->
<svg version="1.1" id="Layer_1" xmlns="http://www.w3.org/2000/svg" xmlns:xlink="http://www.w3.org/1999/xlink" x="0px" y="0px"
	 viewBox="0 0 21 21" style="enable-background:new 0 0 21 21;" xml:space="preserve">
<style type="text/css">
	.st0{fill:#FFFFFF;}
</style>
<g>
	<path class="st0" d="M19.8,1.4V6H1.2V1.4H19.8 M21,0.2H0v7h21V0.2L21,0.2z"/>
	<g>
		<path class="st0" d="M17.2,16.2c-0.1,0-0.2,0-0.3-0.1l-6.7-4.7l-6.1,4.7c-0.3,0.2-0.6,0.2-0.8-0.1c-0.2-0.3-0.2-0.6,0.1-0.8
			l6.8-5.3l7.4,5.3c0.3,0.2,0.3,0.6,0.1,0.8C17.6,16.1,17.4,16.2,17.2,16.2z"/>
		<path class="st0" d="M17.2,20.8c-0.1,0-0.2,0-0.3-0.1l-6.7-4.7l-6.1,4.7c-0.3,0.2-0.6,0.2-0.8-0.1c-0.2-0.3-0.2-0.6,0.1-0.8
			l6.8-5.3l7.4,5.3c0.3,0.2,0.3,0.6,0.1,0.8C17.6,20.7,17.4,20.8,17.2,20.8z"/>
	</g>
</g>
</svg>
