<?xml version="1.0" encoding="utf-8"?>
<!-- Generator: Adobe Illustrator 23.0.1, SVG Export Plug-In . SVG Version: 6.00 Build 0)  -->
<svg version="1.1" id="Add_Analysis_window" xmlns="http://www.w3.org/2000/svg" xmlns:xlink="http://www.w3.org/1999/xlink"
	 x="0px" y="0px" viewBox="0 0 21 21" style="enable-background:new 0 0 21 21;" xml:space="preserve">
<style type="text/css">
	.st1{fill:#8C8C8C;}
</style>
<g>
	<path class="st1" d="M14.4,7.92l-3.38,2.82c-0.2-0.14-0.43-0.24-0.7-0.24c-0.68,0-1.24,0.55-1.24,1.24c0,0.08,0.03,0.14,0.04,0.22
		l-1.74,1.45l0.18,0.21h0l0.22,0.27l0.4,0.48l1.76-1.47c0.12,0.04,0.23,0.07,0.36,0.07c0.68,0,1.24-0.55,1.24-1.24
		c0-0.16-0.04-0.32-0.09-0.46l3.38-2.82L14.4,7.92z"/>
	<path class="st1" d="M20.15,7.17v1.68l-2.58,0c-1.06-2.72-3.65-4.68-6.71-4.82v-1.5h1.26v-0.7H8.9v0.7h1.27v1.5
		C7.13,4.17,4.55,6.1,3.48,8.79H0.85V7.11h-0.7v1.68v5.66v1.74h0.7v-1.74H3.5c1.13,2.76,3.85,4.71,7.01,4.71
		c3.14,0,5.84-1.92,6.99-4.65h2.65v1.74h0.7v-1.74V8.85V7.17H20.15z M0.85,13.76V9.49h2.26c-0.27,1.35-0.27,2.78,0.01,4.26H0.85z
		 M10.51,18.47c-3.79,0-6.88-3.09-6.88-6.88c0-3.79,3.09-6.88,6.88-6.88c3.52,0,6.43,2.66,6.83,6.08c0.04,0.51,0.04,1.03,0.01,1.56
		C16.97,15.79,14.05,18.47,10.51,18.47z M17.88,13.82c0.14-0.75,0.21-1.48,0.21-2.19c0-0.01,0-0.03,0-0.04
		c0-0.26-0.01-0.52-0.04-0.78c-0.03-0.43-0.08-0.85-0.16-1.26l2.26,0v4.27H17.88z"/>
</g>
</svg>
