<?xml version="1.0" encoding="utf-8"?>
<!-- Generator: Adobe Illustrator 23.0.1, SVG Export Plug-In . SVG Version: 6.00 Build 0)  -->
<svg version="1.1" id="Add_Analysis_window" xmlns="http://www.w3.org/2000/svg" xmlns:xlink="http://www.w3.org/1999/xlink"
	 x="0px" y="0px" viewBox="0 0 21 21" style="enable-background:new 0 0 21 21;" xml:space="preserve">
<style type="text/css">
	.st0{fill:#FFFFFF;}
</style>
<g>
	<path class="st0" d="M13.96,11.79c2.37,0,4.3-1.91,4.3-4.26s-1.93-4.26-4.3-4.26s-4.3,1.91-4.3,4.26S11.59,11.79,13.96,11.79z
		 M13.96,3.97c1.98,0,3.6,1.6,3.6,3.56c0,1.96-1.61,3.56-3.6,3.56s-3.6-1.6-3.6-3.56C10.36,5.57,11.98,3.97,13.96,3.97z"/>
	<path class="st0" d="M20.94,17.4c-0.11-2.76-1.18-4.86-3.19-6.24l-0.21-0.14l-0.2,0.15c-2.28,1.68-4.47,1.68-6.68,0l-0.2-0.15
		l-0.21,0.14c-2.09,1.38-3.18,3.48-3.24,6.25l0,0.14l0.1,0.11c1.58,1.67,4.03,2.64,6.7,2.67c0.04,0,0.07,0,0.11,0
		c2.73,0,5.24-0.97,6.91-2.66l0.11-0.11L20.94,17.4z M13.92,19.62c-0.03,0-0.07,0-0.1,0c-2.43-0.02-4.64-0.88-6.1-2.35
		c0.09-2.4,0.98-4.17,2.72-5.4c2.33,1.67,4.72,1.67,7.11,0c1.68,1.24,2.55,3.01,2.68,5.4C18.69,18.77,16.41,19.62,13.92,19.62z"/>
	<polygon class="st0" points="4.96,13.25 3.07,13.25 3.07,17.06 0.75,17.06 0.75,3.17 3.6,1.73 9.7,3.2 9.86,2.52 3.52,0.98 
		0.05,2.74 0.05,17.76 4.96,17.76 4.96,17.06 4.96,17.06 	"/>
	<rect x="3.07" y="5.73" class="st0" width="1.89" height="1.89"/>
	<rect x="6.51" y="5.73" class="st0" width="1.89" height="1.89"/>
	<rect x="3.07" y="9.02" class="st0" width="1.89" height="1.89"/>
	<rect x="6.51" y="9.02" class="st0" width="1.89" height="1.89"/>
</g>
</svg>
