<?xml version="1.0" encoding="utf-8"?>
<!-- Generator: Adobe Illustrator 23.0.1, SVG Export Plug-In . SVG Version: 6.00 Build 0)  -->
<svg version="1.1" id="Layer_2" xmlns="http://www.w3.org/2000/svg" xmlns:xlink="http://www.w3.org/1999/xlink" x="0px" y="0px"
	 viewBox="0 0 21 21" style="enable-background:new 0 0 21 21;" xml:space="preserve">
<style type="text/css">
	.st0{fill:#FFFFFF;}
</style>
<g>
	<path class="st0" d="M19.59,0.03H1.41C0.63,0.03,0,0.66,0,1.43v7.66v5.51v4.97c0,0.78,0.63,1.41,1.41,1.41h18.19
		c0.78,0,1.41-0.63,1.41-1.41v-7.8V2.62V1.43C21,0.66,20.37,0.03,19.59,0.03z M20.3,2.62v9.15v7.8c0,0.39-0.32,0.71-0.71,0.71H1.41
		c-0.39,0-0.71-0.32-0.71-0.71V14.6V9.09V1.43c0-0.39,0.32-0.71,0.71-0.71h18.19c0.39,0,0.71,0.32,0.71,0.71V2.62z"/>
	<path class="st0" d="M16.58,5.08c-0.58,0-1.06,0.47-1.06,1.06c0,0.25,0.1,0.47,0.24,0.65l-4.09,6.86l-2.86-2.81
		c0.06-0.13,0.09-0.27,0.09-0.42c0-0.58-0.47-1.06-1.06-1.06c-0.58,0-1.06,0.47-1.06,1.06c0,0.21,0.08,0.39,0.18,0.56l-2.51,3.96
		c-0.07-0.02-0.14-0.04-0.22-0.04c-0.58,0-1.06,0.47-1.06,1.06C3.2,16.53,3.67,17,4.25,17c0.58,0,1.06-0.47,1.06-1.06
		c0-0.25-0.1-0.47-0.24-0.65l2.47-3.89c0.1,0.03,0.21,0.06,0.32,0.06c0.18,0,0.34-0.05,0.48-0.13l3.49,3.42l4.54-7.62
		c0.07,0.02,0.14,0.04,0.22,0.04c0.58,0,1.06-0.47,1.06-1.06C17.64,5.55,17.17,5.08,16.58,5.08z"/>
</g>
</svg>
