<?xml version="1.0" encoding="utf-8"?>
<!-- Generator: Adobe Illustrator 24.3.0, SVG Export Plug-In . SVG Version: 6.00 Build 0)  -->
<svg version="1.1" id="Layer_1" xmlns="http://www.w3.org/2000/svg" xmlns:xlink="http://www.w3.org/1999/xlink" x="0px" y="0px"
	 viewBox="0 0 21 21" style="enable-background:new 0 0 21 21;" xml:space="preserve">
<style type="text/css">
	.st0{fill:#FFFFFF;}
</style>
<g>
	<g>
		<path class="st0" d="M10.5,1.2c2.1,0,3.9,1.7,3.9,3.8s-1.7,3.8-3.9,3.8S6.6,7.1,6.6,5S8.3,1.2,10.5,1.2 M10.5,0
			C7.7,0,5.4,2.2,5.4,5s2.3,5,5.1,5s5.1-2.2,5.1-5S13.3,0,10.5,0L10.5,0z"/>
		<path class="st0" d="M6,11.5c1.5,0.9,3,1.4,4.5,1.4c1.5,0,3.1-0.5,4.6-1.4c1.6,1.4,2.5,3.2,2.7,5.7c-1.8,1.6-4.5,2.6-7.3,2.6
			c-2.8,0-5.4-0.9-7.2-2.6C3.4,14.8,4.3,12.9,6,11.5 M15.1,10c-1.5,1.1-3.1,1.7-4.6,1.7c-1.5,0-3-0.6-4.5-1.7
			c-2.6,1.7-3.9,4.3-4,7.7c2.1,2.2,5.2,3.3,8.4,3.3c3.2,0,6.4-1.1,8.6-3.3C18.9,14.3,17.6,11.7,15.1,10L15.1,10z"/>
	</g>
</g>
</svg>
