<?xml version="1.0" encoding="utf-8"?>
<!-- Generator: Adobe Illustrator 23.0.2, SVG Export Plug-In . SVG Version: 6.00 Build 0)  -->
<svg version="1.1" xmlns="http://www.w3.org/2000/svg" xmlns:xlink="http://www.w3.org/1999/xlink" x="0px" y="0px"
	 viewBox="0 0 21 21" style="enable-background:new 0 0 21 21;" xml:space="preserve">
<style type="text/css">
	.st0{fill:#FFFFFF;}
</style>
<g id="Layer_1">
</g>
<g id="Circled_Ics">
</g>
<g id="Add_Analysis_window">
	<g>
		<path class="st0" d="M2.6,12.3c-1.4,0-2.6,1.2-2.6,2.6c0,1.4,1.2,2.6,2.6,2.6c1.4,0,2.6-1.2,2.6-2.6C5.2,13.4,4,12.3,2.6,12.3z"/>
		<path class="st0" d="M16.2,12.3c-1.4,0-2.6,1.2-2.6,2.6c0,1.4,1.2,2.6,2.6,2.6c1.4,0,2.6-1.2,2.6-2.6
			C18.8,13.4,17.6,12.3,16.2,12.3z"/>
		<path class="st0" d="M17.3,3.6h-5.8v9.3H8.1c-0.8-2.3-2.9-3.9-5.4-3.9C1.8,8.9,1,9.1,0.2,9.5l0.6,1.3c0.6-0.3,1.2-0.5,1.9-0.5
			c1.9,0,3.6,1.3,4.1,3.1C6.9,13.8,7,14.2,7,14.6h1.4c0-0.2-0.1-0.4-0.1-0.6h3.3c0.4-2.1,2.3-3.8,4.5-3.8s4.1,1.6,4.5,3.8H21v-0.2
			V13V9.5L17.3,3.6z"/>
	</g>
</g>
</svg>
