<svg version="1.1" id="Layer_1" xmlns="http://www.w3.org/2000/svg" xmlns:xlink="http://www.w3.org/1999/xlink" x="0px" y="0px"
	 viewBox="0 0 10 10" style="enable-background:new 0 0 10 10;" xml:space="preserve">
<style type="text/css">
	.st0{fill:#FFFFFF;}
	.st1{fill:none;stroke:#010101;stroke-width:0.5;stroke-miterlimit:10;}
	.st2{fill:#010101;}
</style>
<g>
	
	<g>
		<polyline class="st1" points="4.8,8.4 2.9,8.4 2.9,2.3 4.2,1.6 7.1,2.4 7.1,8.4 4.8,8.4 		"/>
		<rect x="4" y="6.6" class="st2" width="0.8" height="1.7"/>
		<rect x="4" y="3.5" class="st2" width="0.8" height="0.8"/>
		<rect x="5.4" y="3.5" class="st2" width="0.8" height="0.8"/>
		<rect x="4" y="4.8" class="st2" width="0.8" height="0.8"/>
		<rect x="5.4" y="4.8" class="st2" width="0.8" height="0.8"/>
	</g>
</g>
</svg>