<?xml version="1.0" encoding="utf-8"?>
<!-- Generator: Adobe Illustrator 23.0.3, SVG Export Plug-In . SVG Version: 6.00 Build 0)  -->
<svg version="1.1" xmlns="http://www.w3.org/2000/svg" xmlns:xlink="http://www.w3.org/1999/xlink" x="0px" y="0px"
	 viewBox="0 0 21 21" style="enable-background:new 0 0 21 21;" xml:space="preserve">
<style type="text/css">
	.st0{fill:#FFFFFF;}
</style>
<g id="Layer_1">
</g>
<g id="Isolation_Mode">
	<g>
		<rect x="11.6" y="5.9" class="st0" width="5.1" height="0.7"/>
		<rect x="11.6" y="14.4" class="st0" width="5.1" height="0.7"/>
		<rect x="13.4" y="10.2" class="st0" width="3.3" height="0.7"/>
		<polygon class="st0" points="7.2,1.9 7.2,8.8 7.9,8.6 7.9,2.6 20.3,2.6 20.3,18.4 7.9,18.4 7.9,15.5 7.2,15.8 7.2,19.1 21,19.1 
			21,1.9 		"/>
		<path class="st0" d="M5.3,6c0.1,0,0.2,0,0.3,0.3l0,4.4l0,1l0.9-0.3l3.8-1.2c0,0,0.1,0,0.1,0c0.5,0,0.8,0.2,0.9,0.6
			c0.1,0.3,0.1,0.8-0.3,1.3l-5,1.9L5.7,14l-0.1,0.4c-0.2,1-0.7,1.4-1.7,1.4l-2.4-0.5c-0.2,0-0.6-0.1-0.8-1.2V9.7
			C0.8,9.3,1,8.9,1.4,8.6L5.3,6 M5.3,5.3c-0.1,0-0.1,0-0.2,0L1,8.1C0.4,8.4,0.1,9,0,9.7v4.6c0.2,1,0.6,1.6,1.4,1.8l2.5,0.5
			c0,0,0,0,0,0c1.4,0,2.1-0.7,2.4-2l5.2-1.9c1.4-1.2,0.7-3.2-1-3.2c-0.1,0-0.2,0-0.3,0l-3.9,1.2l0-4.5C6.2,5.6,5.9,5.3,5.3,5.3
			L5.3,5.3z"/>
	</g>
</g>
</svg>
