<?xml version="1.0" encoding="utf-8"?>
<!-- Generator: Adobe Illustrator 23.0.3, SVG Export Plug-In . SVG Version: 6.00 Build 0)  -->
<svg version="1.1" xmlns="http://www.w3.org/2000/svg" xmlns:xlink="http://www.w3.org/1999/xlink" x="0px" y="0px"
	 viewBox="0 0 21 21" style="enable-background:new 0 0 21 21;" xml:space="preserve">
<g id="Layer_1">
</g>
<g id="Isolation_Mode">
	<g>
		<path d="M16.7,4.1l-0.5,0.5c1.9,1.6,3.2,4.1,3.2,6.8c0,4.9-4,8.9-8.9,8.9c-4.9,0-8.9-4-8.9-8.9s4-8.9,8.9-8.9c1,0,1.9,0.2,2.7,0.4
			l-2,1l0.3,0.6l3.1-1.6L12.7,0l-0.6,0.4l1.2,1.8c-0.9-0.3-1.9-0.5-2.9-0.5c-5.3,0-9.6,4.3-9.6,9.6S5.2,21,10.5,21
			c5.3,0,9.6-4.3,9.6-9.6C20.1,8.4,18.8,5.8,16.7,4.1z"/>
		<g>
			<path d="M9.9,17.2L9.9,17.2C9.9,17.2,9.9,17.2,9.9,17.2c0.8,0.2,1.5,0.3,2.2,0.3c4,0,5.2-3.7,5.6-7.3c-3,1.4-8.2,0.5-8,6.6
				c-0.8,0.2-1.4,0.1-1.9-0.2l0,0.8c0.7,0.1,1.3,0,1.9-0.2l0,0C9.7,17.2,9.8,17.2,9.9,17.2z M16.8,11.2c-0.6,3.9-2.1,5.7-4.8,5.7
				c-0.4,0-0.9-0.1-1.3-0.1c2-1.3,4.4-3.4,6-5.5C16.8,11.2,16.8,11.2,16.8,11.2z M15.2,11.6c0.5-0.1,1-0.2,1.5-0.4
				c-2.1,2-4.5,4-6.4,5.2C10.3,12.7,12.6,12.2,15.2,11.6z"/>
			<path d="M7,16.5c5.3-4.1,2-7.8-1.4-10.7C6.9,9.3,0.5,13,7,16.5z M6.4,7.3c1.5,1.4,2.8,3,2.7,4.7c0,1-0.5,1.9-1.4,2.9
				c1-2.1,0.7-3.7-1-5c0.6,2.4-1.6,3.3-0.7,5.2C4,13.5,4.7,11.9,5.5,10C5.9,9.1,6.3,8.2,6.4,7.3z"/>
		</g>
	</g>
</g>
</svg>
