<?xml version="1.0" encoding="utf-8"?>
<!-- Generator: Adobe Illustrator 23.0.2, SVG Export Plug-In . SVG Version: 6.00 Build 0)  -->
<svg version="1.1" xmlns="http://www.w3.org/2000/svg" xmlns:xlink="http://www.w3.org/1999/xlink" x="0px" y="0px"
	 viewBox="0 0 21 21" style="enable-background:new 0 0 21 21;" xml:space="preserve">
<style type="text/css">
	.st0{fill:#FFFFFF;}
	.st1{fill:#010101;}
</style>
<g id="Layer_1">
</g>
<g id="Add_Analysis_window">
	<g>
		<circle class="st0" cx="10.5" cy="10.5" r="10.2"/>
		<path class="st1" d="M10.5,20.9c-5.8,0-10.4-4.7-10.4-10.4c0-5.8,4.7-10.4,10.4-10.4c5.8,0,10.4,4.7,10.4,10.4
			C20.9,16.3,16.3,20.9,10.5,20.9z M10.5,0.6C5,0.6,0.6,5,0.6,10.5s4.5,9.9,9.9,9.9s9.9-4.5,9.9-9.9S16,0.6,10.5,0.6z"/>
		<g>
			<g>
				<g>
					<path class="st1" d="M10.5,13.1c-1.4,0-2.6-1.2-2.6-2.6c0-1.4,1.2-2.6,2.6-2.6s2.6,1.2,2.6,2.6C13.1,11.9,11.9,13.1,10.5,13.1z
						 M10.5,8.4c-1.2,0-2.1,0.9-2.1,2.1c0,1.2,1,2.1,2.1,2.1s2.1-0.9,2.1-2.1C12.6,9.3,11.7,8.4,10.5,8.4z"/>
					<path class="st1" d="M10.5,18.2C10.5,18.2,10.4,18.2,10.5,18.2c-1.7,0-3.2-0.6-4.1-1.6l-0.1-0.1l0-0.1c0-1.7,0.7-3,2-3.8
						l0.1-0.1l0.1,0.1c1.3,1,2.6,1,4,0l0.1-0.1l0.1,0.1c1.2,0.8,1.9,2.1,1.9,3.8l0,0.1l-0.1,0.1C13.6,17.6,12.1,18.2,10.5,18.2z
						 M6.8,16.3c0.9,0.9,2.2,1.4,3.6,1.4c1.5,0,2.9-0.5,3.8-1.4c-0.1-1.4-0.6-2.4-1.6-3.2c-1.4,1-2.9,1-4.3,0
						C7.4,13.9,6.8,14.9,6.8,16.3z"/>
				</g>
			</g>
			<g>
				<g>
					<path class="st1" d="M16.4,9.3c-0.9,0-1.7-0.7-1.7-1.6c0-0.9,0.7-1.7,1.7-1.7S18,6.8,18,7.7C18,8.6,17.3,9.3,16.4,9.3z
						 M16.4,6.5c-0.6,0-1.2,0.5-1.2,1.2s0.5,1.1,1.2,1.1s1.2-0.5,1.2-1.1S17,6.5,16.4,6.5z"/>
					<path class="st1" d="M16.3,12.7C16.3,12.7,16.3,12.7,16.3,12.7c-1,0-1.9-0.4-2.5-1l-0.1-0.1l0-0.1c0-1,0.4-1.8,1.2-2.3l0.1-0.1
						l0.1,0.1c0.7,0.6,1.5,0.6,2.2,0l0.1-0.1l0.1,0.1c0.8,0.5,1.2,1.3,1.2,2.3l0,0.1l-0.1,0.1C18.3,12.4,17.4,12.7,16.3,12.7z
						 M14.2,11.5c0.5,0.5,1.2,0.8,2.1,0.8c0.8,0,1.6-0.3,2.2-0.8c-0.1-0.8-0.3-1.3-0.8-1.7c-0.8,0.6-1.7,0.6-2.5,0
						C14.6,10.1,14.3,10.7,14.2,11.5z"/>
				</g>
			</g>
			<g>
				<g>
					<path class="st1" d="M4.8,9.3c-0.9,0-1.7-0.7-1.7-1.6C3.1,6.8,3.9,6,4.8,6s1.7,0.7,1.7,1.7C6.4,8.6,5.7,9.3,4.8,9.3z M4.8,6.5
						c-0.6,0-1.2,0.5-1.2,1.2s0.5,1.1,1.2,1.1s1.2-0.5,1.2-1.1S5.4,6.5,4.8,6.5z"/>
					<path class="st1" d="M4.8,12.7C4.8,12.7,4.7,12.7,4.8,12.7c-1,0-1.9-0.4-2.5-1l-0.1-0.1l0-0.1c0-1,0.4-1.8,1.2-2.3l0.1-0.1
						l0.1,0.1c0.7,0.6,1.5,0.6,2.2,0l0.1-0.1l0.1,0.1c0.8,0.5,1.2,1.3,1.2,2.3l0,0.1l-0.1,0.1C6.7,12.4,5.8,12.7,4.8,12.7z
						 M2.7,11.5c0.5,0.5,1.2,0.8,2.1,0.8c0.8,0,1.6-0.3,2.2-0.8c-0.1-0.8-0.3-1.3-0.8-1.7c-0.9,0.6-1.7,0.6-2.5,0
						C3,10.1,2.7,10.7,2.7,11.5z"/>
				</g>
			</g>
		</g>
	</g>
</g>
</svg>
