<?xml version="1.0" encoding="utf-8"?>
<!-- Generator: Adobe Illustrator 23.0.3, SVG Export Plug-In . SVG Version: 6.00 Build 0)  -->
<svg version="1.1" xmlns="http://www.w3.org/2000/svg" xmlns:xlink="http://www.w3.org/1999/xlink" x="0px" y="0px"
	 viewBox="0 0 10 10" style="enable-background:new 0 0 10 10;" xml:space="preserve">
<style type="text/css">
	.st0{fill:#FFFFFF;}
</style>
<g id="Layer_1">
</g>
<g id="Add_Analysis_window">
	<g>
		<path class="st0" d="M7.3,3.3c0,0.2,0,0.4-0.1,0.6c0.6-0.4,0.9-1,0.9-1.7c0-1.2-1-2.1-2.1-2.1C5.8,0,5.5,0.1,5.2,0.2
			C6.5,0.7,7.3,1.9,7.3,3.3z"/>
		<path class="st0" d="M8.7,8.1C9.1,8,9.4,7.7,9.6,7.5C9.6,6,9,4.9,8,4.2C7.7,4.5,7.4,4.6,7.1,4.7C8,5.6,8.6,6.8,8.7,8.1z"/>
		<g>
			<g>
				<g>
					<ellipse class="st0" cx="3.9" cy="3.3" rx="2.1" ry="2.1"/>
					<path class="st0" d="M2,5.4c1.3,1,2.6,0.9,3.8,0c1,0.7,1.6,1.8,1.6,3.2c-1.8,1.8-5.4,1.9-7.2,0C0.4,7.2,0.9,6.1,2,5.4z"/>
				</g>
			</g>
		</g>
	</g>
</g>
</svg>
