<?xml version="1.0" encoding="utf-8"?>
<!-- Generator: Adobe Illustrator 23.0.3, SVG Export Plug-In . SVG Version: 6.00 Build 0)  -->
<svg version="1.1" xmlns="http://www.w3.org/2000/svg" xmlns:xlink="http://www.w3.org/1999/xlink" x="0px" y="0px"
	 viewBox="0 0 10 10" style="enable-background:new 0 0 10 10;" xml:space="preserve">
<style type="text/css">
	.st0{fill:#FFFFFF;}
</style>
<g id="Layer_1">
</g>
<g id="Add_Analysis_window">
	<g>
		<g>
			<g>
				<ellipse class="st0" cx="5" cy="2.4" rx="2.4" ry="2.4"/>
				<path class="st0" d="M2.8,4.8c1.4,1.1,2.9,1.1,4.3,0C8.4,5.6,9,6.8,9,8.4C7,10.5,3,10.5,1,8.4C1,6.8,1.6,5.6,2.8,4.8z"/>
			</g>
		</g>
	</g>
</g>
</svg>
