<?xml version="1.0" encoding="utf-8"?>
<!-- Generator: Adobe Illustrator 23.0.1, SVG Export Plug-In . SVG Version: 6.00 Build 0)  -->
<svg version="1.1" xmlns="http://www.w3.org/2000/svg" xmlns:xlink="http://www.w3.org/1999/xlink" x="0px" y="0px"
	 viewBox="0 0 21 21" style="enable-background:new 0 0 21 21;" xml:space="preserve">
<style type="text/css">
	.st0{fill:#FFFFFF;}
</style>
<g id="Layer_1">
</g>
<g id="Isolation_Mode">
	<g>
		<path class="st0" d="M12.3,5.7v0.7c3.8,0.3,6,1.3,6,2c0,0.7-1.7,1.5-4.7,1.9L13,11.1c2.3-0.2,4.3-0.7,5.4-1.5v3.6
			c-0.1,1.1-2.9,2-6.7,2.2c-4.8,0.2-8.8-0.7-9-2.2V9.6c1,0.8,3.1,1.3,5.4,1.5l-0.7-0.8c-3-0.4-4.7-1.2-4.7-1.9c0-0.7,2.2-1.7,6-2
			V5.7C5.1,6,1.9,6.9,1.9,8.4c0,0,0,0,0,0.1h0l0,4.8c0,0,0,0,0,0.1h0l0,4.8c0.3,2,4.3,2.8,8.2,2.8c0.5,0,1,0,1.5,0
			c3.5-0.2,7.2-1,7.4-2.9v-4.7h0c0,0,0-0.1,0-0.1V8.5h0c0,0,0,0,0-0.1C19.1,6.9,15.9,6,12.3,5.7z M18.4,18c-0.1,1.1-2.9,2-6.7,2.2
			c-4.8,0.2-8.8-0.7-9-2.2v-3.7c1.4,1.2,4.4,1.7,7.6,1.7c0.5,0,1,0,1.5,0c2.6-0.1,5.4-0.6,6.7-1.7V18z"/>
		<path class="st0" d="M8.5,9.3l1,1.2l1,1.2l1-1.2l1-1.2h-1.7V4.5c0-2.1,1.7-3.8,3.8-3.8s3.8,1.7,3.8,3.8h0.7c0-2.5-2-4.5-4.5-4.5
			s-4.5,2-4.5,4.5v4.8H8.5z"/>
	</g>
</g>
</svg>
