<?xml version="1.0" encoding="utf-8"?>
<!-- Generator: Adobe Illustrator 23.0.1, SVG Export Plug-In . SVG Version: 6.00 Build 0)  -->
<svg version="1.1" id="Add_Analysis_window" xmlns="http://www.w3.org/2000/svg" xmlns:xlink="http://www.w3.org/1999/xlink"
	 x="0px" y="0px" viewBox="0 0 21 21" style="enable-background:new 0 0 21 21;" xml:space="preserve">
<style type="text/css">
	.st1{fill:#8C8C8C;}
</style>
<g>
	<g>
		<path class="st1" d="M5.5,20.1H2.8c-0.9,0-1.6-0.7-1.6-1.6V1.6C1.2,0.7,1.9,0,2.8,0h8.6l3.3,3l-0.5,0.5l-3.1-2.8H2.8
			c-0.5,0-1,0.4-1,1v16.8c0,0.5,0.4,1,1,1h2.7V20.1z"/>
	</g>
	<g>
		<path class="st1" d="M13.9,21l-1.2-1.8c-0.3,0-0.7,0-1,0L10.5,21l-0.2-0.1c-0.9-0.2-1.8-0.7-2.6-1.2l-0.2-0.1l0.7-2.1
			c-0.2-0.2-0.5-0.5-0.7-0.8l-2.2,0.2l-0.1-0.2c-0.4-0.9-0.6-1.8-0.7-2.8l0-0.2l2-0.8c0-0.4,0.1-0.8,0.2-1.1l-1.5-1.6l0.1-0.2
			c0.5-0.9,1-1.6,1.8-2.2l0.2-0.2l1.8,1.1c0.3-0.2,0.7-0.4,1.1-0.5l0.3-2.2l0.2,0c1-0.2,1.9-0.2,2.8,0l0.2,0l0.3,2.2
			c0.4,0.1,0.7,0.3,1.1,0.5L17,7.5l0.2,0.2C17.9,8.3,18.5,9,19,9.9l0.1,0.2l-1.5,1.6c0.1,0.4,0.2,0.7,0.2,1.1l2,0.8l0,0.2
			c0,1-0.3,1.9-0.7,2.8l-0.1,0.2l-2.2-0.2c-0.2,0.3-0.4,0.6-0.7,0.8l0.7,2.1l-0.2,0.1c-0.8,0.6-1.7,1-2.6,1.2L13.9,21z M8.3,19.3
			c0.6,0.4,1.2,0.7,1.9,0.9l1.1-1.8l0.2,0c0.4,0.1,0.9,0.1,1.3,0l0.2,0l1.1,1.8c0.7-0.2,1.3-0.5,1.9-0.9l-0.7-2l0.2-0.1
			c0.3-0.3,0.6-0.6,0.8-1l0.1-0.2l2.1,0.2c0.3-0.7,0.4-1.4,0.5-2.1l-2-0.7l0-0.2c0-0.5-0.1-0.9-0.3-1.4l-0.1-0.2l1.5-1.5
			c-0.4-0.6-0.8-1.2-1.3-1.7l-1.8,1.1L15,9.3c-0.4-0.3-0.8-0.5-1.3-0.6l-0.2-0.1l-0.3-2.1c-0.7-0.1-1.4-0.1-2.1,0l-0.3,2.1l-0.2,0.1
			C10.2,8.8,9.8,9,9.4,9.3L9.2,9.4L7.4,8.3c-0.5,0.5-0.9,1-1.3,1.7l1.5,1.5l-0.1,0.2c-0.2,0.4-0.3,0.9-0.3,1.4l0,0.2L5.3,14
			c0.1,0.7,0.2,1.4,0.5,2.1l2.1-0.2L8,16.1c0.2,0.4,0.5,0.7,0.8,1l0.2,0.1L8.3,19.3z"/>
		<circle class="st1" cx="12.2" cy="13.3" r="1.7"/>
	</g>
</g>
</svg>
