<?xml version="1.0" encoding="utf-8"?>
<!-- Generator: Adobe Illustrator 23.0.1, SVG Export Plug-In . SVG Version: 6.00 Build 0)  -->
<svg version="1.1" xmlns="http://www.w3.org/2000/svg" xmlns:xlink="http://www.w3.org/1999/xlink" x="0px" y="0px"
	 viewBox="0 0 21 21" style="enable-background:new 0 0 21 21;" xml:space="preserve">
<style type="text/css">
	.st0{fill:#FFFFFF;}
</style>
<g id="Layer_1">
</g>
<g id="Add_Analysis_window">
	<g>
		<path class="st0" d="M10.3,5.6V3.3c4.4,0,8,3.6,8,8c0,3.7-2.5,6.8-5.9,7.7c1-1.1,1.7-2.6,1.7-4.2c0-3.4-2.8-6.2-6.2-6.2
			s-6.2,2.8-6.2,6.2S4.5,21,7.9,21c1.1,0,2-0.3,2.9-0.8c4.8-0.2,8.5-4.1,8.5-8.9c0-4.9-4-9-9-9V0L8.6,1.4L6.8,2.8l1.7,1.4L10.3,5.6z
			 M2.7,14.8C2.7,12,5,9.6,7.9,9.6s5.2,2.3,5.2,5.2c0,2.9-2.3,5.2-5.2,5.2S2.7,17.7,2.7,14.8z"/>
	</g>
</g>
</svg>
