<?xml version="1.0" encoding="utf-8"?>
<!-- Generator: Adobe Illustrator 23.0.1, SVG Export Plug-In . SVG Version: 6.00 Build 0)  -->
<svg version="1.1" xmlns="http://www.w3.org/2000/svg" xmlns:xlink="http://www.w3.org/1999/xlink" x="0px" y="0px"
	 viewBox="0 0 21 21" style="enable-background:new 0 0 21 21;" xml:space="preserve">
<style type="text/css">
	.st0{fill:#FFFFFF;}
</style>
<g id="Layer_1">
</g>
<g id="Add_Analysis_window">
	<g>
		<path class="st0" d="M20.5,8.3c-0.5-0.7-1.3-1.1-2.1-1.1c-0.5,0-1,0.1-1.5,0.5c-0.7,0.5-1,1.2-1.1,1.9l0-0.2l-6.2,0
			C9.6,8.9,9.4,8.5,9.1,8.1C8.7,7.4,8,7,7.3,6.8c-0.8-0.1-1.5,0-2.2,0.5C4.4,7.7,4,8.4,3.9,9.2c-0.1,0.8,0,1.5,0.5,2.2
			c0.6,0.8,1.5,1.3,2.4,1.3c0.6,0,1.1-0.2,1.7-0.5c0.7-0.5,1.1-1.3,1.2-2.1l6.2,0l0-0.1c0,0.4,0.2,0.9,0.4,1.3
			c0.5,0.7,1.3,1.1,2.1,1.1c0.5,0,1-0.1,1.5-0.5C21.1,11.1,21.4,9.5,20.5,8.3z M8,11.5C7,12.2,5.6,12,4.9,11
			c-0.3-0.5-0.5-1.1-0.4-1.7C4.6,8.7,5,8.2,5.5,7.9c0.4-0.3,0.8-0.4,1.3-0.4c0.1,0,0.3,0,0.4,0C7.7,7.6,8.2,8,8.6,8.5
			C9.3,9.5,9,10.9,8,11.5z M20.3,10.1c-0.1,0.5-0.4,0.9-0.8,1.2c-0.3,0.2-0.7,0.3-1.1,0.3c-0.6,0-1.2-0.3-1.5-0.8
			c-0.3-0.4-0.4-0.9-0.3-1.4c0.1-0.5,0.4-0.9,0.8-1.2C17.7,8,18,7.9,18.4,7.9c0.6,0,1.2,0.3,1.5,0.8C20.3,9.1,20.4,9.6,20.3,10.1z"
			/>
		<path class="st0" d="M13.2,12.5c-0.6,2.4-2.6,4.3-6.2,5.9c-3.6-1.6-5.7-3.6-6.2-5.9V4.6l6.2-2.1l6.2,2.1v3.6l0.7,0l0-4.1L6.9,1.8
			L0,4.1v8.4c0.6,2.8,3.1,5,6.9,6.6c3.9-1.7,6.3-3.8,6.9-6.6v-1.3l-0.7,0V12.5z"/>
	</g>
</g>
</svg>
