<?xml version="1.0" encoding="utf-8"?>
<!-- Generator: Adobe Illustrator 23.0.1, SVG Export Plug-In . SVG Version: 6.00 Build 0)  -->
<svg version="1.1" id="Add_Analysis_window" xmlns="http://www.w3.org/2000/svg" xmlns:xlink="http://www.w3.org/1999/xlink"
	 x="0px" y="0px" viewBox="0 0 21 21" style="enable-background:new 0 0 21 21;" xml:space="preserve">
<style type="text/css">
	.st0{fill:#FFFFFF;}
</style>
<g>
	<g>
		<rect x="8.9" y="1.7" class="st0" width="11.5" height="0.7"/>
		<polygon class="st0" points="2.3,4.2 0.6,2.2 1.1,1.8 2.2,3.1 4.5,0.1 5.1,0.5 		"/>
	</g>
	<g>
		<rect x="8.9" y="10.1" class="st0" width="11.5" height="0.7"/>
		<polygon class="st0" points="2.3,12.7 0.6,10.7 1.1,10.3 2.2,11.6 4.5,8.6 5.1,9 		"/>
	</g>
	<g>
		<rect x="8.9" y="18.6" class="st0" width="11.5" height="0.7"/>
		<polygon class="st0" points="2.3,21.1 0.6,19.1 1.1,18.7 2.2,20.1 4.5,17 5.1,17.4 		"/>
	</g>
</g>
</svg>
