<?xml version="1.0" encoding="utf-8"?>
<!-- Generator: Adobe Illustrator 23.0.1, SVG Export Plug-In . SVG Version: 6.00 Build 0)  -->
<svg version="1.1" id="Add_Analysis_window" xmlns="http://www.w3.org/2000/svg" xmlns:xlink="http://www.w3.org/1999/xlink"
	 x="0px" y="0px" viewBox="0 0 21 21" style="enable-background:new 0 0 21 21;" xml:space="preserve">
<style type="text/css">
	.st0{fill:#FFFFFF;}
</style>
<path class="st0" d="M18.32,9.05c-0.77,0-1.46,0.33-1.95,0.85l-4.41-3.16c0.2-0.38,0.33-0.8,0.33-1.26c0-1.48-1.2-2.68-2.68-2.68
	S6.91,4,6.91,5.49c0,0.79,0.35,1.49,0.89,1.98L3.9,13.14c-0.37-0.19-0.78-0.3-1.22-0.3C1.2,12.83,0,14.03,0,15.51
	s1.2,2.68,2.68,2.68c1.48,0,2.68-1.2,2.68-2.68c0-0.79-0.35-1.49-0.89-1.98l3.91-5.67c0.37,0.19,0.78,0.3,1.22,0.3
	c0.77,0,1.46-0.33,1.95-0.85l4.41,3.16c-0.2,0.38-0.33,0.8-0.33,1.26c0,1.48,1.2,2.68,2.68,2.68c1.48,0,2.68-1.2,2.68-2.68
	C21,10.25,19.8,9.05,18.32,9.05z M4.67,15.51c0,1.09-0.89,1.98-1.98,1.98c-1.09,0-1.98-0.89-1.98-1.98s0.89-1.98,1.98-1.98
	C3.78,13.53,4.67,14.42,4.67,15.51z M9.6,7.47c-1.09,0-1.98-0.89-1.98-1.98C7.61,4.39,8.5,3.5,9.6,3.5s1.98,0.89,1.98,1.98
	C11.58,6.58,10.69,7.47,9.6,7.47z M18.32,13.72c-1.09,0-1.98-0.89-1.98-1.98c0-1.09,0.89-1.98,1.98-1.98c1.09,0,1.98,0.89,1.98,1.98
	C20.3,12.83,19.41,13.72,18.32,13.72z"/>
</svg>
