<?xml version="1.0" encoding="utf-8"?>
<!-- Generator: Adobe Illustrator 23.0.1, SVG Export Plug-In . SVG Version: 6.00 Build 0)  -->
<svg version="1.1" xmlns="http://www.w3.org/2000/svg" xmlns:xlink="http://www.w3.org/1999/xlink" x="0px" y="0px"
	 viewBox="0 0 16.8 21" style="enable-background:new 0 0 16.8 21;" xml:space="preserve">
<style type="text/css">
	.st0{fill:#ED2224;}
	.st1{fill:#FFFFFF;}
</style>
<g id="Layer_1">
</g>
<g id="Isolation_Mode">
	<g>
		<path class="st0" d="M8.4,0l8.4,2.8l0,10.2c-0.7,3.4-3.7,6-8.4,8c-4.7-2-7.6-4.6-8.4-8L0,2.8L8.4,0z"/>
		<polygon class="st1" points="7.5,14.2 3.5,9.5 5.1,8.2 7.4,11 11.8,5.2 13.4,6.4 		"/>
	</g>
</g>
</svg>
