<?xml version="1.0" encoding="utf-8"?>
<!-- Generator: Adobe Illustrator 25.0.0, SVG Export Plug-In . SVG Version: 6.00 Build 0)  -->
<svg version="1.1" id="Layer_1" xmlns="http://www.w3.org/2000/svg" xmlns:xlink="http://www.w3.org/1999/xlink" x="0px" y="0px"
	 viewBox="0 0 21 21" style="enable-background:new 0 0 21 21;" xml:space="preserve">
<style type="text/css">
	.st0{fill:#FFFFFF;}
</style>
<g>
	<path class="st0" d="M10.5,1.6l1.9,1.6l0.4,0.3l0.5,0l2.5-0.2l0.6,2.4l0.1,0.5l0.4,0.3L19,7.7L18,10l-0.2,0.5L18,11l1,2.3l-2.1,1.3
		l-0.4,0.3l-0.1,0.5l-0.6,2.4l-2.5-0.2l-0.5,0l-0.4,0.3l-1.9,1.6l-1.9-1.6l-0.4-0.3l-0.5,0l-2.5,0.2l-0.6-2.4l-0.1-0.5l-0.4-0.3
		L2,13.3L3,11l0.2-0.5L3,10L2,7.7l2.1-1.3l0.4-0.3l0.1-0.5l0.6-2.4l2.5,0.2l0.5,0l0.4-0.3L10.5,1.6 M10.5,0L7.8,2.3L4.3,2L3.5,5.4
		l-3,1.8l1.4,3.2l-1.4,3.2l3,1.8L4.3,19l3.5-0.3l2.7,2.3l2.7-2.3l3.5,0.3l0.8-3.4l3-1.8l-1.4-3.2l1.4-3.2l-3-1.8L16.7,2l-3.5,0.3
		L10.5,0L10.5,0z"/>
	<path class="st0" d="M9.5,14.7L6,10.6c-0.2-0.3-0.2-0.6,0.1-0.8C6.4,9.5,6.8,9.6,7,9.8l2.5,3l4.5-6c0.2-0.3,0.6-0.3,0.8-0.1
		c0.3,0.2,0.3,0.6,0.1,0.8L9.5,14.7z"/>
</g>
</svg>
