<?xml version="1.0" encoding="utf-8"?>
<!-- Generator: Adobe Illustrator 25.0.0, SVG Export Plug-In . SVG Version: 6.00 Build 0)  -->
<svg version="1.1" id="Layer_1" xmlns="http://www.w3.org/2000/svg" xmlns:xlink="http://www.w3.org/1999/xlink" x="0px" y="0px"
	 viewBox="0 0 21 21" style="enable-background:new 0 0 21 21;" xml:space="preserve">
<style type="text/css">
	.st0{fill:#FFFFFF;}
</style>
<g>
	<path class="st0" d="M7,2.6l0.9,2.6L8.2,6h0.9h10.7v12.4H1.2V2.6H7 M7.9,1.4H0v18.2h21V4.8H9.1L7.9,1.4L7.9,1.4z"/>
	<g>
		<path class="st0" d="M6.1,11.5H4.9c-0.3,0-0.6-0.3-0.6-0.6s0.3-0.6,0.6-0.6h1.3c0.3,0,0.6,0.3,0.6,0.6S6.5,11.5,6.1,11.5z"/>
		<path class="st0" d="M16.1,11.5H9.1c-0.3,0-0.6-0.3-0.6-0.6s0.3-0.6,0.6-0.6h7.1c0.3,0,0.6,0.3,0.6,0.6S16.5,11.5,16.1,11.5z"/>
	</g>
	<g>
		<path class="st0" d="M6.1,14.6H4.9c-0.3,0-0.6-0.3-0.6-0.6s0.3-0.6,0.6-0.6h1.3c0.3,0,0.6,0.3,0.6,0.6S6.5,14.6,6.1,14.6z"/>
		<path class="st0" d="M16.1,14.6H9.1c-0.3,0-0.6-0.3-0.6-0.6s0.3-0.6,0.6-0.6h7.1c0.3,0,0.6,0.3,0.6,0.6S16.5,14.6,16.1,14.6z"/>
	</g>
</g>
</svg>
