<?xml version="1.0" encoding="utf-8"?>
<!-- Generator: Adobe Illustrator 24.3.0, SVG Export Plug-In . SVG Version: 6.00 Build 0)  -->
<svg version="1.1" id="Layer_1" xmlns="http://www.w3.org/2000/svg" xmlns:xlink="http://www.w3.org/1999/xlink" x="0px" y="0px"
	 viewBox="0 0 21 21" style="enable-background:new 0 0 21 21;" xml:space="preserve">
<g>
	<g>
		<polygon points="17.1,4.2 17.1,18.9 6.2,18.9 6.2,21 19.6,21 19.6,4.2 		"/>
	</g>
	<g>
		<path d="M1.4,0v16.8h13.4V0H1.4z M4.8,7.7h6.6v1.4H4.8V7.7z M11.4,13.3H4.9v-1.4h6.6V13.3z M11.4,5H4.9V3.5h6.6V5z"/>
	</g>
</g>
</svg>
