<?xml version="1.0" encoding="utf-8"?>
<!-- Generator: Adobe Illustrator 25.0.0, SVG Export Plug-In . SVG Version: 6.00 Build 0)  -->
<svg version="1.1" id="Layer_1" xmlns="http://www.w3.org/2000/svg" xmlns:xlink="http://www.w3.org/1999/xlink" x="0px" y="0px"
	 viewBox="0 0 21 21" style="enable-background:new 0 0 21 21;" xml:space="preserve">
<style type="text/css">
	.st0{fill:#FFFFFF;}
</style>
<path class="st0" d="M19.8,18.8h-3.3v-13c0-3.2-2.6-5.8-5.8-5.8h-0.5C7.1,0,4.4,2.6,4.4,5.8v13H1.2c-0.6,0-1.1,0.5-1.1,1.1
	C0,20.5,0.5,21,1.2,21h18.7c0.6,0,1.1-0.5,1.1-1.1C21,19.3,20.5,18.8,19.8,18.8z M5.7,5.8c0-2.5,2.1-4.6,4.6-4.6h0.5
	c2.5,0,4.6,2.1,4.6,4.6v13H5.7V5.8z"/>
</svg>
