<?xml version="1.0" encoding="utf-8"?>
<!-- Generator: Adobe Illustrator 24.3.0, SVG Export Plug-In . SVG Version: 6.00 Build 0)  -->
<svg version="1.1" id="Layer_1" xmlns="http://www.w3.org/2000/svg" xmlns:xlink="http://www.w3.org/1999/xlink" x="0px" y="0px"
	 viewBox="0 0 21 21" style="enable-background:new 0 0 21 21;" xml:space="preserve">
<path d="M17.7,5.2L7.2,0.6v0C6.8,0.5,6.4,0.4,5.9,0.4c-1.8,0-3.3,1.5-3.3,3.3c0,1.3,0.7,2.4,1.8,2.9v0l3.6,2l-4.5,1.9v0l0,0
	C1.5,11.2,0,13.1,0,15.4c0,2.9,2.4,5.2,5.2,5.2c1.1,0,2.2-0.4,3.1-1l0,0l10.6-6.9l0.1-0.1c1.2-0.7,2-2,2-3.5
	C21,7.2,19.6,5.5,17.7,5.2z M7.3,6.6L5.2,5.4L4.9,5.3C4.3,5,4,4.3,4,3.6c0-1.1,0.9-2,2-2c0.3,0,0.5,0.1,0.8,0.2l2.4,1l6.1,2.6
	L9.6,7.9L7.3,6.6z M1.3,15.4c0-2.2,1.8-3.9,3.9-3.9c2.2,0,3.9,1.8,3.9,3.9s-1.8,3.9-3.9,3.9C3.1,19.3,1.3,17.6,1.3,15.4z M18.3,11.6
	L18.3,11.6l-2.3,1.5l-5.7,3.7c0.1-0.4,0.2-0.9,0.2-1.4c0-2.3-1.5-4.3-3.6-5l0,0l2.6-1.1L11,8.7l2.2-0.9l2.5-1l0.1,0l0.2-0.1v0
	c0.3-0.1,0.7-0.2,1.1-0.2c0.1,0,0.3,0,0.4,0h0c0.5,0.1,1,0.3,1.3,0.6l0,0c0.6,0.5,1,1.3,1,2.1C19.7,10.2,19.1,11.1,18.3,11.6z"/>
</svg>
