<?xml version="1.0" encoding="utf-8"?>
<!-- Generator: Adobe Illustrator 23.0.3, SVG Export Plug-In . SVG Version: 6.00 Build 0)  -->
<svg version="1.1" id="Layer_1" xmlns="http://www.w3.org/2000/svg" xmlns:xlink="http://www.w3.org/1999/xlink" x="0px" y="0px"
	 viewBox="0 0 25.6 15.2" style="enable-background:new 0 0 25.6 15.2;" xml:space="preserve">
<style type="text/css">
	.st0{fill:#7C7C7C;}
</style>
<g>
	<path class="st0" d="M24.4,0H1.2C0.5,0,0,0.5,0,1.2V14c0,0.7,0.5,1.2,1.2,1.2h23.2c0.7,0,1.2-0.5,1.2-1.2V1.2C25.6,0.5,25,0,24.4,0
		z M25.1,14c0,0.4-0.3,0.7-0.7,0.7H1.2c-0.4,0-0.7-0.3-0.7-0.7V1.2c0-0.4,0.3-0.7,0.7-0.7h23.2c0.4,0,0.7,0.3,0.7,0.7V14z"/>
	<rect x="2.6" y="2.6" class="st0" width="2.6" height="1"/>
	<rect x="20.3" y="2.6" class="st0" width="2.6" height="1"/>
	<rect x="15.9" y="2.6" class="st0" width="2.6" height="1"/>
	<rect x="11.5" y="2.6" class="st0" width="2.6" height="1"/>
	<rect x="7.1" y="2.6" class="st0" width="2.6" height="1"/>
	<rect x="2.6" y="5.6" class="st0" width="2.6" height="1"/>
	<rect x="20.3" y="5.6" class="st0" width="2.6" height="1"/>
	<rect x="15.9" y="5.6" class="st0" width="2.6" height="1"/>
	<rect x="11.5" y="5.6" class="st0" width="2.6" height="1"/>
	<rect x="7.1" y="5.6" class="st0" width="2.6" height="1"/>
	<rect x="2.6" y="8.6" class="st0" width="2.6" height="1"/>
	<rect x="20.3" y="8.6" class="st0" width="2.6" height="1"/>
	<rect x="15.9" y="8.6" class="st0" width="2.6" height="1"/>
	<rect x="11.5" y="8.6" class="st0" width="2.6" height="1"/>
	<rect x="7.1" y="8.6" class="st0" width="2.6" height="1"/>
	<rect x="2.6" y="11.6" class="st0" width="2.6" height="1"/>
	<rect x="20.3" y="11.6" class="st0" width="2.6" height="1"/>
	<rect x="7.1" y="11.6" class="st0" width="11.5" height="1"/>
</g>
</svg>
