{
  "controller": {
    "host": "theater202002032228485.saas.appdynamics.com",
    "port": 443,
    "account": "theater202002032228485",
    "password": "jh6wwf5p1gyl",
    "ssl": "true",
    "enable_tls12" :"true"
  },
  "application": {
    "name": "EnergyApp"
  }
}
