{
  "dependencies": {
    "debug": "registry:npm/debug#2.0.0+20170504163145"
  },
  "globalDependencies": {
    "d3": "github:DefinitelyTyped/DefinitelyTyped/d3/d3.d.ts#1c05872e7811235f43780b8b596bfd26fe8e7760",
    "mocha": "registry:dt/mocha#2.2.5+20170311011848"
  }
}
