﻿<svg xmlns="http://www.w3.org/2000/svg" x="0px" y="0px"
     width="40" height="40"
     viewBox="0 0 252 252"
     style="fill:#ffffff;">
  <g fill="none" fill-rule="nonzero" stroke="none" stroke-width="1" stroke-linecap="butt" stroke-linejoin="miter" stroke-miterlimit="10" stroke-dasharray="" stroke-dashoffset="0" font-family="none" font-weight="none" font-size="none" text-anchor="none" style="mix-blend-mode: normal">
    <path d="M0,252v-252h252v252z" fill="none"></path>
    <path d="M126,252c-69.58788,0 -126,-56.41212 -126,-126v0c0,-69.58788 56.41212,-126 126,-126v0c69.58788,0 126,56.41212 126,126v0c0,69.58788 -56.41212,126 -126,126z" fill="#2980b9"></path>
    <g fill="#ffffff">
      <path d="M126,27.72562c-12.52692,0 -22.68,10.15308 -22.68,22.68v90.72c0,12.52692 10.15308,22.68 22.68,22.68c12.52692,0 22.68,-10.15308 22.68,-22.68v-90.72c0,-12.52692 -10.15308,-22.68 -22.68,-22.68zM80.52188,103.22226c-4.16946,0.06518 -7.49897,3.49378 -7.44187,7.66336v30.24c0,26.56582 19.78774,48.61665 45.36,52.31461v15.72539h-22.68c-2.72641,-0.03856 -5.26238,1.39388 -6.63683,3.7488c-1.37446,2.35492 -1.37446,5.26748 0,7.6224c1.37446,2.35492 3.91042,3.78736 6.63683,3.7488h28.97015c0.81642,0.13494 1.64945,0.13494 2.46586,0h29.04399c2.72641,0.03856 5.26238,-1.39388 6.63683,-3.7488c1.37446,-2.35492 1.37446,-5.26748 0,-7.6224c-1.37446,-2.35492 -3.91042,-3.78736 -6.63683,-3.7488h-22.68v-15.72539c25.57226,-3.69796 45.36,-25.74879 45.36,-52.31461v-30.24c0.03856,-2.72641 -1.39388,-5.26238 -3.7488,-6.63683c-2.35492,-1.37446 -5.26748,-1.37446 -7.6224,0c-2.35492,1.37446 -3.78736,3.91042 -3.7488,6.63683v30.24c0,20.67986 -16.37862,37.30045 -36.9436,37.75571c-0.32323,-0.04066 -0.64875,-0.06039 -0.97453,-0.05907c-0.2765,0.00455 -0.55254,0.02427 -0.82688,0.05907c-20.52321,-0.50124 -36.855,-17.10567 -36.855,-37.75571v-30.24c0.02798,-2.04347 -0.77246,-4.01124 -2.21893,-5.45493c-1.44648,-1.4437 -3.41578,-2.24035 -5.45919,-2.20843z"></path>
    </g>
  </g>
</svg>