<?xml version="1.0" encoding="utf-8"?>
<!-- Generator: Adobe Illustrator 22.1.0, SVG Export Plug-In . SVG Version: 6.00 Build 0)  -->
<svg version="1.1" id="Layer_1" xmlns="http://www.w3.org/2000/svg" xmlns:xlink="http://www.w3.org/1999/xlink" x="0px" y="0px"
	 viewBox="0 0 38.8 35" style="enable-background:new 0 0 38.8 35;" xml:space="preserve">
<style type="text/css">
	.st0{fill:#ffffff;}
</style>
<path class="st0" d="M19.4,34.9L2.7,18.2v-0.1c-1.6-1.9-2.4-4.3-2.4-6.9c0-6.1,4.9-11,11-11c3.1,0,6.1,1.3,8.1,3.6
	c2-2.3,5.1-3.6,8.2-3.6c6,0,10.9,4.9,10.9,11c0,2.5-0.9,5-2.4,6.9v0.1L19.4,34.9z M3.7,17.8l15.7,15.7l15.7-15.7v-0.1l0.1-0.1
	c1.5-1.7,2.3-4.1,2.3-6.4c0-5.5-4.4-10-9.9-10c-3,0-6,1.4-7.8,3.7l-0.4,0.5L19,4.9c-1.9-2.4-4.7-3.7-7.7-3.7c-5.5,0-10,4.5-10,10
	c0,2.4,0.8,4.6,2.3,6.4L3.7,17.8z"/>
</svg>
