<?xml version="1.0" encoding="utf-8"?>
<!-- Generator: Adobe Illustrator 22.1.0, SVG Export Plug-In . SVG Version: 6.00 Build 0)  -->
<svg version="1.1" id="Layer_1" xmlns="http://www.w3.org/2000/svg" xmlns:xlink="http://www.w3.org/1999/xlink" x="0px" y="0px"
	 viewBox="0 0 22.4 22.4" style="enable-background:new 0 0 22.4 22.4;" xml:space="preserve">
<style type="text/css">
	.st0{fill:#FFFFFF;}
</style>
<path class="st0" d="M22.1,10.9c-1.8-6.3-9-7.8-10.3-8L11.5,0L0,8.2l12.8,5.9l-0.3-3.7c1.3-0.3,4.1-0.7,6,1.6
	c1.8,2.2,1.6,5.4-3.3,10.3C15.2,22.4,24.1,17.9,22.1,10.9z"/>
</svg>
