<?xml version="1.0" encoding="utf-8"?>
<!-- Generator: Adobe Illustrator 22.1.0, SVG Export Plug-In . SVG Version: 6.00 Build 0)  -->
<svg version="1.1" id="Layer_1" xmlns="http://www.w3.org/2000/svg" xmlns:xlink="http://www.w3.org/1999/xlink" x="0px" y="0px"
	 viewBox="0 0 7.2 7.2" style="enable-background:new 0 0 7.2 7.2;" xml:space="preserve">
<style type="text/css">
	.st0{fill:#368ED4;}
	.st1{fill:#FFFFFF;}
</style>
<g>
	<circle class="st0" cx="3.6" cy="3.6" r="3.6"/>
	<polygon class="st1" points="5.3,4.7 4.2,3.6 5.3,2.5 4.7,1.9 3.6,3 2.5,1.9 1.9,2.5 3,3.6 1.9,4.7 2.5,5.3 3.6,4.2 4.7,5.3 	"/>
</g>
</svg>
