<?xml version="1.0" encoding="utf-8"?>
<!-- Generator: Adobe Illustrator 22.0.1, SVG Export Plug-In . SVG Version: 6.00 Build 0)  -->
<svg version="1.1" xmlns="http://www.w3.org/2000/svg" xmlns:xlink="http://www.w3.org/1999/xlink" x="0px" y="0px"
	 viewBox="0 0 93.7 93.7" style="enable-background:new 0 0 93.7 93.7;" xml:space="preserve">
<style type="text/css">
	.st0{fill:#FFFFFF;}
</style>
<g id="Layer_2">
	<circle class="st0" cx="46.8" cy="46.8" r="46.5"/>
</g>
<g id="Layer_1">
	<path d="M46.8,93.7C21,93.7,0,72.7,0,46.8C0,21,21,0,46.8,0c25.8,0,46.8,21,46.8,46.8C93.7,72.7,72.7,93.7,46.8,93.7z M46.8,0.7
		C21.4,0.7,0.7,21.4,0.7,46.8S21.4,93,46.8,93C72.3,93,93,72.3,93,46.8S72.3,0.7,46.8,0.7z"/>
</g>
<g id="Layer_3">
	<path d="M77.2,54.4L77.2,54.4L77.2,54.4l-6-11.8H59.7l-2.9,3.7L54,45.1c2.7-3.6,5.5-7.4,6.8-9.4c1.7-2.6,2.6-5.6,2.6-8.9
		c0-9.1-7.4-16.5-16.5-16.5s-16.5,7.4-16.5,16.5c0,3.3,1,6.3,2.6,8.9c1.6,2.5,5.6,7.8,8.9,12.1l-12.9,5.9l-6.1-3l2-4h12.2l-3.5-4.2
		H22.3L9.9,67.3h73.8L77.2,54.4z M76.9,63.1H56.1L73.3,56L76.9,63.1z M68.6,46.7l2.6,5.2l-13.2-5.2H68.6z M38,26.9
		c0-4.9,4-8.8,8.8-8.8c4.9,0,8.8,4,8.8,8.8c0,4.9-4,8.8-8.8,8.8C41.9,35.8,38,31.8,38,26.9z M43.1,49.5c2.2,2.8,3.8,4.9,3.8,4.9
		s2.7-3.5,5.8-7.6l19.1,7.6l-21.1,8.7h-2.9l-16.6-8.2L43.1,49.5z M26.6,54.9l-7.5,3.4l2.8-5.7L26.6,54.9z M17.7,61.2L28.9,56
		l14.4,7.1H16.7L17.7,61.2z"/>
</g>
</svg>
