<?xml version="1.0" encoding="utf-8"?>
<!-- Generator: Adobe Illustrator 22.1.0, SVG Export Plug-In . SVG Version: 6.00 Build 0)  -->
<svg version="1.1" id="Layer_1" xmlns="http://www.w3.org/2000/svg" xmlns:xlink="http://www.w3.org/1999/xlink" x="0px" y="0px"
	 viewBox="0 0 1440 864" style="enable-background:new 0 0 1440 864;" xml:space="preserve">
<style type="text/css">
	.st0{fill:#FFFFFF;}
</style>
<g id="Layer_1_1_">
	<circle class="st0" cx="720.7" cy="432.3" r="11.6"/>
</g>
<g id="Layer_2_1_">
	<path d="M720.7,444c-6.4,0-11.7-5.2-11.7-11.7c0-6.4,5.3-11.7,11.7-11.7c6.5,0,11.7,5.3,11.7,11.7C732.4,438.8,727.2,444,720.7,444
		z M720.7,420.8c-6.4,0-11.5,5.1-11.5,11.5c0,6.4,5.2,11.5,11.5,11.5c6.4,0,11.5-5.2,11.5-11.5C732.2,426,727.1,420.8,720.7,420.8z"
		/>
</g>
<g>
	<rect x="711.8" y="428.9" width="17.8" height="0.5"/>
	<path d="M711.8,435.7h4.8v-5.4h-4.8V435.7z M712.3,430.7h3.9v4.5h-3.9V430.7z"/>
	<path d="M718,437h5.1v-6.7H718V437z M718.5,430.7h4.1v5.8h-4.1V430.7z"/>
	<path d="M724.5,434.4h4.8v-4.1h-4.8V434.4z M724.9,430.7h3.8v3.2h-3.8V430.7z"/>
</g>
</svg>
