<?xml version="1.0" encoding="utf-8"?>
<!-- Generator: Adobe Illustrator 22.1.0, SVG Export Plug-In . SVG Version: 6.00 Build 0)  -->
<svg version="1.1" id="Layer_1" xmlns="http://www.w3.org/2000/svg" xmlns:xlink="http://www.w3.org/1999/xlink" x="0px" y="0px"
	 viewBox="0 0 35 31.5" style="enable-background:new 0 0 35 31.5;" xml:space="preserve">
<style type="text/css">
	.st0{fill:#FFFFFF;}
</style>
<g>
	<g>
		<g>
			<g>
				<path class="st0" d="M27.3,18.2c-2.6,0-4.8-2.1-4.8-4.7s2.2-4.7,4.8-4.7s4.8,2.1,4.8,4.7S29.9,18.2,27.3,18.2z M27.3,9.8
					c-2.1,0-3.8,1.7-3.8,3.7s1.7,3.7,3.8,3.7s3.8-1.7,3.8-3.7S29.4,9.8,27.3,9.8z"/>
				<path class="st0" d="M27.3,28.5c-3,0-5.8-1.1-7.6-2.9l-0.1-0.2l0-0.2c0.1-3.1,1.3-5.4,3.6-6.9l0.3-0.2l0.3,0.2
					c2.4,1.8,4.7,1.8,7.1,0l0.3-0.2l0.3,0.2c2.2,1.5,3.4,3.8,3.5,6.9l0,0.2l-0.1,0.2C33,27.4,30.3,28.5,27.3,28.5z M20.6,25
					c1.6,1.6,4,2.5,6.7,2.5s5.1-0.9,6.7-2.5c-0.1-2.5-1.1-4.4-2.8-5.7c-2.6,1.8-5.1,1.8-7.7,0C21.7,20.6,20.7,22.5,20.6,25z"/>
			</g>
		</g>
		<g>
			<g>
				<path class="st0" d="M11.3,21.2c-2.6,0-4.8-2.1-4.8-4.7s2.2-4.7,4.8-4.7c2.6,0,4.8,2.1,4.8,4.7S13.9,21.2,11.3,21.2z M11.3,12.8
					c-2.1,0-3.8,1.7-3.8,3.7c0,2,1.7,3.7,3.8,3.7c2.1,0,3.8-1.7,3.8-3.7C15.1,14.5,13.4,12.8,11.3,12.8z"/>
				<path class="st0" d="M11.3,31.5c-3,0-5.7-1.1-7.6-2.9l-0.1-0.2l0-0.2c0.1-3.1,1.3-5.4,3.6-6.9l0.3-0.2l0.3,0.2
					c2.4,1.8,4.7,1.8,7.1,0l0.3-0.2l0.3,0.2c2.2,1.5,3.4,3.8,3.5,6.9l0,0.2l-0.1,0.2C17,30.4,14.3,31.5,11.3,31.5z M4.6,28
					c1.6,1.6,4,2.5,6.7,2.5c2.6,0,5.1-0.9,6.7-2.5c-0.1-2.5-1.1-4.4-2.8-5.7c-2.6,1.8-5.1,1.8-7.7,0C5.7,23.6,4.7,25.5,4.6,28z"/>
			</g>
		</g>
	</g>
	<polygon class="st0" points="1,28 0,28 0,0 27.8,0 27.8,7.2 26.8,7.2 26.8,1 1,1 	"/>
	<path class="st0" d="M9.3,9.1H3.7V3.5h5.5V9.1z M4.5,8.3h4v-4h-4V8.3z"/>
	<path class="st0" d="M16.3,9.1h-5.5V3.5h5.5V9.1z M11.5,8.3h4v-4h-4V8.3z"/>
	<path class="st0" d="M23.3,9.1h-5.6V3.5h5.6V9.1z M18.5,8.3h4.1v-4h-4.1V8.3z"/>
</g>
</svg>
