<?xml version="1.0" encoding="utf-8"?>
<!-- Generator: Adobe Illustrator 22.1.0, SVG Export Plug-In . SVG Version: 6.00 Build 0)  -->
<svg version="1.1" id="Layer_1" xmlns="http://www.w3.org/2000/svg" xmlns:xlink="http://www.w3.org/1999/xlink" x="0px" y="0px"
	 viewBox="0 0 30.9 30.8" style="enable-background:new 0 0 30.9 30.8;" xml:space="preserve">
<style type="text/css">
	.st0{fill:#FFFFFF;}
	.st1{display:none;}
	.st2{display:inline;}
	.st3{fill:none;stroke:#FFFFFF;stroke-miterlimit:10;}
</style>
<g>
	<path class="st0" d="M28.4,0H2.5C1.1,0,0,1.1,0,2.5v25.8c0,1.4,1.1,2.5,2.5,2.5h25.9c1.4,0,2.5-1.1,2.5-2.5V2.5
		C30.9,1.1,29.8,0,28.4,0z M29.9,28.3c0,0.8-0.7,1.5-1.5,1.5H2.5c-0.8,0-1.5-0.7-1.5-1.5V2.5C1,1.7,1.7,1,2.5,1h25.9
		c0.8,0,1.5,0.7,1.5,1.5V28.3z"/>
	<rect x="6.9" y="8.7" class="st0" width="1" height="16.5"/>
	<rect x="12.2" y="14.9" class="st0" width="1" height="10.3"/>
	<rect x="17.5" y="5.2" class="st0" width="1" height="20"/>
	<rect x="22.8" y="11.3" class="st0" width="1" height="13.9"/>
</g>
<g id="Hover_6_" class="st1">
	<g class="st2">
		<g>
			<path class="st3" d="M201-100.2h-25.9c-1.1,0-2-0.9-2-2V-128c0-1.1,0.9-2,2-2H201c1.1,0,2,0.9,2,2v25.8
				C203-101.1,202.1-100.2,201-100.2z"/>
			<line class="st3" x1="180" y1="-121.8" x2="180" y2="-105.3"/>
			<line class="st3" x1="185.3" y1="-115.6" x2="185.3" y2="-105.3"/>
			<line class="st3" x1="190.6" y1="-125.3" x2="190.6" y2="-105.3"/>
			<line class="st3" x1="195.9" y1="-119.2" x2="195.9" y2="-105.3"/>
		</g>
	</g>
</g>
<g id="Hover_9_" class="st1">
	<g class="st2">
		<g>
			<path class="st3" d="M201-100.2h-25.9c-1.1,0-2-0.9-2-2V-128c0-1.1,0.9-2,2-2H201c1.1,0,2,0.9,2,2v25.8
				C203-101.1,202.1-100.2,201-100.2z"/>
			<line class="st3" x1="180" y1="-121.8" x2="180" y2="-105.3"/>
			<line class="st3" x1="185.3" y1="-115.6" x2="185.3" y2="-105.3"/>
			<line class="st3" x1="190.6" y1="-125.3" x2="190.6" y2="-105.3"/>
			<line class="st3" x1="195.9" y1="-119.2" x2="195.9" y2="-105.3"/>
		</g>
	</g>
</g>
</svg>
