<?xml version="1.0" encoding="utf-8"?>
<!-- Generator: Adobe Illustrator 22.1.0, SVG Export Plug-In . SVG Version: 6.00 Build 0)  -->
<svg version="1.1" xmlns="http://www.w3.org/2000/svg" xmlns:xlink="http://www.w3.org/1999/xlink" x="0px" y="0px"
	 viewBox="0 0 70.3 70.3" style="enable-background:new 0 0 70.3 70.3;" xml:space="preserve">
<style type="text/css">
	.st0{fill:#FFFFFF;}
</style>
<g id="Layer_2">
	<circle class="st0" cx="35.1" cy="35.1" r="34.8"/>
</g>
<g id="Layer_1">
	<path d="M35.1,70.3C15.8,70.3,0,54.5,0,35.1S15.8,0,35.1,0s35.1,15.8,35.1,35.1S54.5,70.3,35.1,70.3z M35.1,0.6
		C16.1,0.6,0.6,16.1,0.6,35.1c0,19.1,15.5,34.6,34.6,34.6c19.1,0,34.6-15.5,34.6-34.6C69.7,16.1,54.2,0.6,35.1,0.6z"/>
</g>
<g id="Layer_3">
	<polygon points="48.3,42.4 42.6,32.9 38.4,38.1 11.8,16.7 11.8,51.5 13.7,51.5 13.7,20.6 37.3,39.6 33.1,44.7 43.5,48.3 54,51.9 	
		"/>
	<rect x="53.8" y="17.1" width="2" height="34.8"/>
</g>
</svg>
