<?xml version="1.0" encoding="utf-8"?>
<!-- Generator: Adobe Illustrator 22.1.0, SVG Export Plug-In . SVG Version: 6.00 Build 0)  -->
<svg version="1.1" id="Layer_3" xmlns="http://www.w3.org/2000/svg" xmlns:xlink="http://www.w3.org/1999/xlink" x="0px" y="0px"
	 viewBox="0 0 46.6 40.5" style="enable-background:new 0 0 46.6 40.5;" xml:space="preserve">
<style type="text/css">
	.st0{fill:#FFFFFF;}
</style>
<g id="Idle_31_">
	<path class="st0" d="M44.8,40.5L31.2,30.4H4c-2.2,0-3.8-1.6-4-4l0-22.6C-0.1,1.7,1.7,0,3.8,0h39c2.1,0,3.9,1.7,3.9,3.9v22.7
		c0,1.9-1.3,3.4-3.1,3.8L44.8,40.5z M3.8,1.4c-1.5,0-2.5,1.3-2.5,2.5v22.5C1.4,28,2.5,29,4,29h27.8L43,37.4L42,29h0.8
		c1.5,0,2.5-1.3,2.5-2.5V3.9c0-1.5-1.3-2.5-2.5-2.5H3.8z"/>
	<rect x="9.7" y="10" class="st0" width="25.4" height="1.4"/>
	<rect x="9.7" y="19.2" class="st0" width="25.4" height="1.4"/>
</g>
</svg>
