<?xml version="1.0" encoding="utf-8"?>
<!-- Generator: Adobe Illustrator 23.0.2, SVG Export Plug-In . SVG Version: 6.00 Build 0)  -->
<svg version="1.1" xmlns="http://www.w3.org/2000/svg" xmlns:xlink="http://www.w3.org/1999/xlink" x="0px" y="0px"
	 viewBox="0 0 21 21" style="enable-background:new 0 0 21 21;" xml:space="preserve">
<style type="text/css">
	.st0{fill:#FFFFFF;}
</style>
<g id="Layer_1">
</g>
<g id="Isolation_Mode">
	<path class="st0" d="M15.1,15.7v-2.9v-1h-1h-2.9v-2c2.4-0.4,4.3-2.4,4.3-4.9c0-2.8-2.2-5-5-5s-5,2.2-5,5c0,2.5,1.9,4.6,4.3,4.9v2
		H6.9h-1v1v1.5v1.4H0.6v1.4h5.3V20v1h1h7.2h1v-1v-2.9h5.3v-1.4H15.1z M7,5C7,3,8.6,1.4,10.5,1.4S14,3,14,5s-1.6,3.5-3.5,3.5
		S7,6.9,7,5z M14.1,12.8V14h-2.5l0,3.8H9.2l0-3.8H6.9v-1.2H14.1z M6.9,20V15h1.3l0,3.8h4.4l0-3.8h1.5V20H6.9z"/>
</g>
</svg>
