<?xml version="1.0" encoding="utf-8"?>
<!-- Generator: Adobe Illustrator 22.1.0, SVG Export Plug-In . SVG Version: 6.00 Build 0)  -->
<svg version="1.1" id="GroupView_Button" xmlns="http://www.w3.org/2000/svg" xmlns:xlink="http://www.w3.org/1999/xlink" x="0px"
	 y="0px" viewBox="0 0 27.8 27.8" style="enable-background:new 0 0 27.8 27.8;" xml:space="preserve">
<style type="text/css">
	.st0{fill:#FFFFFF;}
</style>
<title>FDC_GroupView_Icon_Idle</title>
<path class="st0" d="M25.5,0H2.3C1,0,0,1,0,2.3v23.2c0,1.3,1,2.3,2.3,2.3h23.2c1.3,0,2.3-1,2.3-2.3V2.3C27.8,1,26.7,0,25.5,0z
	 M26.8,2.3V13H14.4V1h11.1C26.2,1,26.8,1.6,26.8,2.3z M2.3,1h11.1v12H1V2.3C1,1.6,1.6,1,2.3,1z M1,25.5V14h12.4v12.8H2.3
	C1.6,26.8,1,26.2,1,25.5z M25.5,26.8H14.4V14h12.4v11.5C26.8,26.2,26.2,26.8,25.5,26.8z"/>
</svg>
