<?xml version="1.0" encoding="utf-8"?>
<!-- Generator: Adobe Illustrator 22.1.0, SVG Export Plug-In . SVG Version: 6.00 Build 0)  -->
<svg version="1.1" id="Layer_1" xmlns="http://www.w3.org/2000/svg" xmlns:xlink="http://www.w3.org/1999/xlink" x="0px" y="0px"
	 viewBox="0 0 20.4 27" style="enable-background:new 0 0 20.4 27;" xml:space="preserve">
<style type="text/css">
	.st0{fill:#FFFFFF;}
</style>
<g>
	<path class="st0" d="M13.8,0H2.2C1,0,0,1,0,2.2v22.5C0,26,1,27,2.2,27h15.9c1.2,0,2.2-1,2.2-2.2V6.1L13.8,0z M13.6,1.2l5,4.6h-5
		V1.2z M18.2,26H2.2C1.5,26,1,25.5,1,24.8V2.2C1,1.5,1.5,1,2.2,1h10.4v5.8h6.8v17.9C19.4,25.5,18.8,26,18.2,26z"/>
	<rect x="4" y="20.9" class="st0" width="12.6" height="1"/>
	<rect x="4" y="15.5" class="st0" width="12.6" height="1"/>
	<rect x="4" y="4.6" class="st0" width="6" height="1"/>
	<rect x="4" y="10" class="st0" width="12.6" height="1"/>
</g>
</svg>
