<?xml version="1.0" encoding="utf-8"?>
<!-- Generator: Adobe Illustrator 22.1.0, SVG Export Plug-In . SVG Version: 6.00 Build 0)  -->
<svg version="1.1" id="SingleView_Button" xmlns="http://www.w3.org/2000/svg" xmlns:xlink="http://www.w3.org/1999/xlink" x="0px"
	 y="0px" viewBox="0 0 27.8 27.8" style="enable-background:new 0 0 27.8 27.8;" xml:space="preserve">
<style type="text/css">
	.st0{fill:#FFFFFF;}
</style>
<path class="st0" d="M25.5,27.8H2.3c-1.3,0-2.3-1-2.3-2.3V2.3C0,1,1,0,2.3,0h23.2c1.3,0,2.3,1,2.3,2.3v23.2
	C27.8,26.7,26.7,27.8,25.5,27.8z M2.3,1C1.6,1,1,1.6,1,2.3v23.2c0,0.7,0.6,1.3,1.3,1.3h23.2c0.7,0,1.3-0.6,1.3-1.3V2.3
	c0-0.7-0.6-1.3-1.3-1.3H2.3z"/>
</svg>
