<?xml version="1.0" encoding="utf-8"?>
<!-- Generator: Adobe Illustrator 23.0.2, SVG Export Plug-In . SVG Version: 6.00 Build 0)  -->
<svg version="1.1" xmlns="http://www.w3.org/2000/svg" xmlns:xlink="http://www.w3.org/1999/xlink" x="0px" y="0px"
	 viewBox="0 0 21 21" style="enable-background:new 0 0 21 21;" xml:space="preserve">
<style type="text/css">
	.st0{fill-rule:evenodd;clip-rule:evenodd;fill:#FFFFFF;}
</style>
<g id="Layer_1">
</g>
<g id="Isolation_Mode">
	<g>
		<path class="st0" d="M5.7,11.6c-1.1,0-2.1,0.9-2.1,2.1s0.9,2.1,2.1,2.1c1.1,0,2.1-0.9,2.1-2.1S6.8,11.6,5.7,11.6z M5.7,15.1
			c-0.8,0-1.4-0.6-1.4-1.4s0.6-1.4,1.4-1.4c0.8,0,1.4,0.6,1.4,1.4S6.4,15.1,5.7,15.1z"/>
		<path class="st0" d="M5.7,9.3c1.1,0,2.1-0.9,2.1-2.1c0-1.1-0.9-2.1-2.1-2.1C4.5,5.1,3.6,6,3.6,7.2C3.6,8.3,4.5,9.3,5.7,9.3z
			 M5.7,5.8c0.8,0,1.4,0.6,1.4,1.4c0,0.8-0.6,1.4-1.4,1.4c-0.8,0-1.4-0.6-1.4-1.4C4.3,6.4,4.9,5.8,5.7,5.8z"/>
		<path class="st0" d="M2.1,8.3C0.9,8.3,0,9.3,0,10.4c0,1.1,0.9,2.1,2.1,2.1s2.1-0.9,2.1-2.1C4.2,9.3,3.2,8.3,2.1,8.3z M2.1,11.8
			c-0.8,0-1.4-0.6-1.4-1.4C0.7,9.7,1.3,9,2.1,9s1.4,0.6,1.4,1.4C3.5,11.2,2.8,11.8,2.1,11.8z"/>
		<path class="st0" d="M10.4,5.1v5H4.9v0.7h5.4v5H21V5.1H10.4z M20.3,15.1h-9.2v-4.3h2.2v1.4l1.5-0.9l1.5-0.9l-1.5-0.9l-1.5-0.9v1.4
			h-2.2V5.8h9.2V15.1z"/>
	</g>
</g>
</svg>
