<?xml version="1.0" encoding="utf-8"?>
<!-- Generator: Adobe Illustrator 22.1.0, SVG Export Plug-In . SVG Version: 6.00 Build 0)  -->
<svg version="1.1" id="SingleView_Button" xmlns="http://www.w3.org/2000/svg" xmlns:xlink="http://www.w3.org/1999/xlink" x="0px"
	 y="0px" viewBox="0 0 27.8 27.8" style="enable-background:new 0 0 27.8 27.8;" xml:space="preserve">
<style type="text/css">
	.st0{fill:#FFFFFF;}
</style>
<path class="st0" d="M25.5,27.8H2.3c-1.3,0-2.3-1-2.3-2.3V2.3C0,1,1,0,2.3,0h23.2c1.3,0,2.3,1,2.3,2.3v23.2
	C27.8,26.7,26.7,27.8,25.5,27.8z M2.3,1C1.6,1,1,1.6,1,2.3v23.2c0,0.7,0.6,1.3,1.3,1.3h23.2c0.7,0,1.3-0.6,1.3-1.3V2.3
	c0-0.7-0.6-1.3-1.3-1.3H2.3z"/>
<g>
	<path class="st0" d="M14.9,6.5l-0.3-0.1l-0.1,0.3c-2,4-4.6,8-7.7,11.8L6.3,19l0.6,0.2c1.8,0.5,3.3,1.4,4.3,2.6l0.4,0.5l0.3-0.5
		c2.4-4.7,5-8.5,7.7-11.8l0.2-0.3l-0.2-0.3C18.4,7.9,16.8,6.9,14.9,6.5z M11.4,20.8c-1-1-2.2-1.8-3.7-2.3c2.9-3.6,5.4-7.4,7.3-11.2
		c1.5,0.4,2.7,1.2,3.7,2.3C16.2,12.8,13.8,16.5,11.4,20.8z"/>
	<path class="st0" d="M21.8,6c-1.2-1.4-2.8-2.4-4.7-2.9l-0.3-0.1L14.9,6l0.5,0.2c1.8,0.5,3.2,1.4,4.3,2.6l0.3,0.4L22,6.3L21.8,6z
		 M19.9,7.9c-1-1-2.3-1.8-3.8-2.3l1-1.5c1.5,0.4,2.8,1.2,3.8,2.3L19.9,7.9z"/>
	<path class="st0" d="M9.1,20.6c-0.6-0.4-2-1.2-2.8-0.8C6.1,19.9,6,20.1,6,20.3l-0.1,2.8c0,0.6,0.2,1.1,0.6,1.4
		c0.2,0.1,0.4,0.2,0.7,0.2c0.3,0,0.6-0.1,0.9-0.2l2.6-1.3c0.2-0.1,0.4-0.3,0.4-0.6C11,21.9,9.6,21,9.1,20.6z M7.7,23.8
		C7.4,24,7.1,24,6.9,23.9c-0.2-0.1-0.3-0.4-0.3-0.7l0.1-2.7c0.2,0,0.9,0.2,1.9,0.8c1,0.6,1.4,1.1,1.5,1.3L7.7,23.8z"/>
</g>
</svg>
