<?xml version="1.0" encoding="utf-8"?>
<!-- Generator: Adobe Illustrator 22.1.0, SVG Export Plug-In . SVG Version: 6.00 Build 0)  -->
<svg version="1.1" xmlns="http://www.w3.org/2000/svg" xmlns:xlink="http://www.w3.org/1999/xlink" x="0px" y="0px"
	 viewBox="0 0 93.7 93.7" style="enable-background:new 0 0 93.7 93.7;" xml:space="preserve">
<style type="text/css">
	.st0{fill:#FFFFFF;}
</style>
<g id="Layer_2">
	<circle class="st0" cx="46.8" cy="46.8" r="46.5"/>
</g>
<g id="Layer_1">
	<path d="M46.8,93.7C21,93.7,0,72.7,0,46.8C0,21,21,0,46.8,0c25.8,0,46.8,21,46.8,46.8C93.7,72.7,72.7,93.7,46.8,93.7z M46.8,0.7
		C21.4,0.7,0.7,21.4,0.7,46.8S21.4,93,46.8,93C72.3,93,93,72.3,93,46.8S72.3,0.7,46.8,0.7z"/>
</g>
<g id="Layer_3">
	<path d="M17.2,73.7V20.1l2.1,1.3c23.6,14.9,43.1,18.7,61.5,11.9l1.8-0.7v28.5l-1.8-0.7c-18.1-6.7-37.6-2.9-61.5,11.9L17.2,73.7z
		 M19.8,25v43.9c22.9-13.8,42.1-17.5,60-11.6V36.5C61.7,42.5,42.5,38.8,19.8,25z"/>
</g>
</svg>
