<?xml version="1.0" encoding="utf-8"?>
<!-- Generator: Adobe Illustrator 22.1.0, SVG Export Plug-In . SVG Version: 6.00 Build 0)  -->
<svg version="1.1" id="Layer_1" xmlns="http://www.w3.org/2000/svg" xmlns:xlink="http://www.w3.org/1999/xlink" x="0px" y="0px"
	 viewBox="0 0 35 35" style="enable-background:new 0 0 35 35;" xml:space="preserve">
<style type="text/css">
	.st0{fill:#FF0000;}
</style>
<path class="st0" d="M0.5,34.5l3.8-2l4.8-1l-1.9-1.9l3.6-3.6l0.8-0.8c1.1,0.8,2.4,1.4,3.9,1.6l0,6.2l2.5,0l0-6.2
	c1.4-0.2,2.8-0.8,3.9-1.6l4.4,4.4l1.8-1.8l-4.4-4.4c0.8-1.1,1.4-2.4,1.6-3.9l6.2,0l0-2.5l-6.2,0c-0.2-1.4-0.8-2.8-1.6-3.9l0.8-0.8
	l3.6-3.6l6.3-6.3l-1.8-1.8l-6.3,6.3l-3.6,3.6L22,11.2c-1.1-0.8-2.4-1.4-3.9-1.6l0-6.2l-2.5,0l0,6.2c-1.4,0.2-2.8,0.8-3.9,1.6
	L7.3,6.8L5.5,8.6L9.9,13c-0.8,1.1-1.4,2.4-1.6,3.9l-6.2,0l0,2.5l6.2,0c0.2,1.4,0.8,2.8,1.6,3.9l-0.8,0.8l-3.6,3.6l-1.9-1.9l-1.1,4.8
	L0.5,34.5z M20.3,12.9l-8.7,8.7c-1.6-2.4-1.3-5.7,0.8-7.9S17.8,11.3,20.3,12.9z M13.4,23.4l8.7-8.7c1.6,2.4,1.3,5.7-0.8,7.9
	S15.8,25,13.4,23.4z"/>
</svg>
