<?xml version="1.0" encoding="utf-8"?>
<!-- Generator: Adobe Illustrator 22.1.0, SVG Export Plug-In . SVG Version: 6.00 Build 0)  -->
<svg version="1.1" id="Layer_1" xmlns="http://www.w3.org/2000/svg" xmlns:xlink="http://www.w3.org/1999/xlink" x="0px" y="0px"
	 viewBox="0 0 35 35" style="enable-background:new 0 0 35 35;" xml:space="preserve">
<style type="text/css">
	.st0{fill:#FF0000;}
</style>
<path class="st0" d="M34.5,19V16h-7.2c-0.2-1.6-0.8-3.1-1.8-4.5l5.1-5.1l-2.1-2.1l-5.1,5.1c-1.3-1-2.9-1.6-4.5-1.8V0.5H16v7.2
	c-1.6,0.2-3.1,0.8-4.5,1.8L6.5,4.4L4.4,6.5l5.1,5.1c-1,1.3-1.6,2.9-1.8,4.5H0.5V19h7.2c0.2,1.6,0.8,3.1,1.8,4.5l-5.1,5.1l2.1,2.1
	l5.1-5.1c1.3,1,2.9,1.6,4.5,1.8v7.2H19v-7.2c1.6-0.2,3.1-0.8,4.5-1.8l5.1,5.1l2.1-2.1l-5.1-5.1c1-1.3,1.6-2.9,1.8-4.5H34.5z"/>
</svg>
