<?xml version="1.0" encoding="utf-8"?>
<!-- Generator: Adobe Illustrator 22.0.1, SVG Export Plug-In . SVG Version: 6.00 Build 0)  -->
<svg version="1.1" id="Layer_2" xmlns="http://www.w3.org/2000/svg" xmlns:xlink="http://www.w3.org/1999/xlink" x="0px" y="0px"
	 viewBox="0 0 11.7 11.7" style="enable-background:new 0 0 11.7 11.7;" xml:space="preserve">
<style type="text/css">
	.st0{fill:#FF0000;}
</style>
<g>
	<title>GasInjection_Icon</title>
	<path id="GAs_Injection_1_" class="st0" d="M8.5,3.8l3.2-3.2L11,0L7.9,3.1c-0.5-0.3-1-0.6-1.5-0.6V0.2H5.4v2.3
		C4.9,2.6,4.3,2.8,3.9,3.1L2.3,1.5L1.6,2.2l1.6,1.6c-0.3,0.5-0.6,1-0.6,1.5H0.3v0.9h2.3c0.1,0.6,0.3,1.1,0.6,1.5L1.6,9.4l-0.6-1
		L0.7,9.9L0.3,11l-0.1,0.2l0,0L0,11.7L1.8,11l1.5-0.4l-1-0.5l1.6-1.6c0.5,0.3,1,0.6,1.5,0.6v2.3h0.9V9.1C6.9,9,7.5,8.8,7.9,8.5
		l1.6,1.6l0.6-0.6L8.6,7.8c0.3-0.5,0.6-1,0.6-1.5h2.3V5.4H9.2C9.1,4.8,8.9,4.3,8.5,3.8z M5.9,8.2c-1.3,0-2.4-1.1-2.4-2.4
		c0-1.3,1.1-2.4,2.4-2.4c1.3,0,2.4,1.1,2.4,2.4C8.3,7.1,7.2,8.2,5.9,8.2z"/>
</g>
</svg>
