<?xml version="1.0" encoding="utf-8"?>
<!-- Generator: Adobe Illustrator 23.0.2, SVG Export Plug-In . SVG Version: 6.00 Build 0)  -->
<svg version="1.1" xmlns="http://www.w3.org/2000/svg" xmlns:xlink="http://www.w3.org/1999/xlink" x="0px" y="0px"
	 viewBox="0 0 21 21" style="enable-background:new 0 0 21 21;" xml:space="preserve">
<style type="text/css">
	.st0{fill:#FFFFFF;}
	.st1{fill:#ED2224;}
</style>
<g id="Layer_1">
</g>
<g id="Circled_Ics">
	<path class="st0" d="M21,3.9c0-2.2-5.4-3.3-10.5-3.3C5.4,0.5,0,1.7,0,3.9c0,0,0,0.1,0,0.1h0v5.8h0l0,6.1c0.4,2.4,5.2,3.4,10.1,3.4
		c0.6,0,1.2,0,1.9,0c4.3-0.2,8.9-1.2,9-3.4v-6V8.6V3.9L21,3.9C21,3.9,21,3.9,21,3.9z M10.5,1.2c5.8,0,9.8,1.4,9.8,2.7
		c0,1.3-4,2.7-9.8,2.7c-5.8,0-9.8-1.4-9.8-2.7C0.7,2.6,4.7,1.2,10.5,1.2z M20.3,9.8v6c-0.1,1.4-3.6,2.5-8.4,2.8
		c-5.2,0.3-10.9-0.6-11.3-2.8v-6V8.9V5.1c1.6,1.4,5.8,2.1,9.8,2.1c4,0,8.2-0.7,9.8-2.1v3.5V9.8z"/>
	<path class="st1" d="M3.7,17.2l1.4-0.4l1.7,0L6.3,16L7.8,15l0.3-0.2c0.3,0.4,0.7,0.6,1.2,0.8l-0.4,2.1l0.9,0.2l0.4-2.1
		c0.5,0,1-0.1,1.4-0.3l1.2,1.8l0.7-0.5l-1.2-1.8c0.4-0.3,0.6-0.7,0.8-1.2l2.1,0.4l0.2-0.9l-2.1-0.4c0-0.5-0.1-1-0.3-1.4l0.3-0.2
		l1.5-0.9l2.6-1.7l-0.5-0.7l-2.6,1.7l-1.5,0.9l-0.3,0.2c-0.3-0.4-0.7-0.6-1.2-0.8L11.8,8l-0.9-0.2l-0.4,2.1c-0.5,0-1,0.1-1.4,0.3
		L7.9,8.4L7.2,8.9l1.2,1.8C8,11,7.7,11.4,7.5,11.8l-2.1-0.4l-0.2,0.9l2.1,0.4c0,0.5,0.1,1,0.3,1.4l-0.3,0.2l-1.5,0.9l-0.5-0.8
		L4.6,16L3.7,17.2z M11.8,11.4l-3.5,2.3c-0.4-0.9,0-2,0.8-2.6S11.1,10.7,11.8,11.4z M8.8,14.4l3.5-2.3c0.4,0.9,0,2-0.8,2.6
		S9.5,15.1,8.8,14.4z"/>
</g>
</svg>
