<?xml version="1.0" encoding="utf-8"?>
<!-- Generator: Adobe Illustrator 22.0.1, SVG Export Plug-In . SVG Version: 6.00 Build 0)  -->
<svg version="1.1" xmlns="http://www.w3.org/2000/svg" xmlns:xlink="http://www.w3.org/1999/xlink" x="0px" y="0px"
	 viewBox="0 0 58.5 58.5" style="enable-background:new 0 0 58.5 58.5;" xml:space="preserve">
<style type="text/css">
	.st0{fill:#FFFFFF;}
</style>
<g id="Layer_2">
	<circle class="st0" cx="29.3" cy="29.3" r="29.1"/>
</g>
<g id="Layer_1">
	<path d="M29.3,58.6C13.1,58.6,0,45.4,0,29.3C0,13.1,13.1,0,29.3,0c16.2,0,29.3,13.2,29.3,29.3C58.6,45.4,45.4,58.6,29.3,58.6z
		 M29.3,0.4c-15.9,0-28.9,13-28.9,28.9s13,28.9,28.9,28.9c15.9,0,28.9-13,28.9-28.9S45.2,0.4,29.3,0.4z"/>
</g>
<g id="Layer_3">
	<g>
		<path d="M27.7,19.1c2.9,0,5.3-2.4,5.3-5.3c0-2.9-2.4-5.3-5.3-5.3c-2.9,0-5.3,2.4-5.3,5.3C22.4,16.8,24.8,19.1,27.7,19.1z
			 M25.5,17.1l2.2-2.4l2.4,2.2c-0.7,0.5-1.5,0.8-2.4,0.8C26.9,17.8,26.1,17.6,25.5,17.1z M31.6,13.9c0,0.8-0.2,1.5-0.6,2.2l-2.4-2.2
			l2.2-2.3C31.3,12.1,31.6,13,31.6,13.9z M29.9,10.6l-2.2,2.3l-2.3-2.2c0.7-0.5,1.5-0.8,2.3-0.8C28.5,9.9,29.2,10.2,29.9,10.6z
			 M24.4,11.7l2.3,2.2l-2.2,2.4c-0.5-0.7-0.8-1.5-0.8-2.3C23.8,13.1,24,12.3,24.4,11.7z"/>
		<path d="M40.6,10.3h-8.1l0.3,0.5c1.4,2.2,1,4.7-0.1,6l-0.4,0.5h8.3V10.3z M39.9,16.8h-6.4c0.9-1.5,1.2-3.6,0.1-5.7h6.3V16.8z"/>
		<path d="M14.3,23.1h3.8c0.9,0,1.7-0.7,1.7-1.7s-0.7-1.7-1.7-1.7h-3.8c-0.9,0-1.7,0.7-1.7,1.7S13.3,23.1,14.3,23.1z M14.3,20.5h3.8
			c0.6,0,1,0.4,1,1s-0.4,1-1,1h-3.8c-0.6,0-1-0.4-1-1S13.7,20.5,14.3,20.5z"/>
		<path d="M18.5,23.4h-4.7v1.8h4.7V23.4z M17.9,24.6h-3.4v-0.5h3.4V24.6z"/>
		<path d="M15,19.4h3.4c0.5,0,1.1,0.3,1.4,0.7l0.4,0.7l0.2-0.8c0.2-0.8,1.4-2,2.5-2.3l0.5-0.1L23,17.2c-0.7-0.9-1.1-2-1.2-3.1v0
			c0-0.5,0-1,0.2-1.5l0.1-0.6l-0.6,0.2c-3.2,0.9-5.7,3.3-7.2,6.8l-0.2,0.5l0.7,0C14.9,19.4,15,19.4,15,19.4z M21.3,13
			c-0.1,0.4-0.1,0.8-0.1,1.1c0,1.1,0.4,2.2,1,3.1c-0.9,0.4-1.8,1.3-2.3,2.1c-0.4-0.4-1.1-0.6-1.5-0.6h-3.2
			C16.6,15.9,18.7,13.9,21.3,13z"/>
		<path d="M27.7,31.7c2.9,0,5.3-2.4,5.3-5.3c0-2.9-2.4-5.3-5.3-5.3c-2.9,0-5.3,2.4-5.3,5.3C22.4,29.3,24.8,31.7,27.7,31.7z
			 M25.5,29.7l2.2-2.4l2.4,2.2c-0.7,0.5-1.5,0.8-2.4,0.8C26.9,30.4,26.1,30.1,25.5,29.7z M31.6,26.4c0,0.8-0.2,1.5-0.6,2.2l-2.4-2.2
			l2.2-2.3C31.3,24.7,31.6,25.5,31.6,26.4z M29.9,23.1l-2.2,2.3l-2.3-2.2c0.7-0.5,1.5-0.8,2.3-0.8C28.5,22.5,29.2,22.7,29.9,23.1z
			 M24.4,24.2l2.3,2.2l-2.2,2.4c-0.5-0.7-0.8-1.5-0.8-2.3C23.8,25.6,24,24.8,24.4,24.2z"/>
		<path d="M40.6,22.9h-8.1l0.3,0.5c1.4,2.2,1,4.7-0.1,6L32.2,30h8.3V22.9z M39.9,29.3h-6.4c0.9-1.5,1.2-3.6,0.1-5.7h6.3V29.3z"/>
		<path d="M14.3,35.7h3.8c0.9,0,1.7-0.7,1.7-1.7c0-0.9-0.7-1.7-1.7-1.7h-3.8c-0.9,0-1.7,0.7-1.7,1.7C12.6,34.9,13.3,35.7,14.3,35.7z
			 M14.3,33h3.8c0.6,0,1,0.4,1,1c0,0.6-0.4,1-1,1h-3.8c-0.6,0-1-0.4-1-1C13.3,33.4,13.7,33,14.3,33z"/>
		<path d="M13.8,37.8h4.7V36h-4.7V37.8z M14.5,36.6h3.4v0.5h-3.4V36.6z"/>
		<path d="M15,31.9h3.4c0.5,0,1.1,0.3,1.4,0.7l0.4,0.7l0.2-0.8c0.2-0.8,1.4-2,2.5-2.3l0.5-0.1L23,29.7c-0.7-0.9-1.1-2-1.2-3.1v0
			c0-0.5,0-1,0.2-1.5l0.1-0.6l-0.6,0.2c-3.2,0.9-5.7,3.3-7.2,6.8l-0.2,0.5l0.7,0C14.9,31.9,14.9,31.9,15,31.9z M21.3,25.5
			c-0.1,0.4-0.1,0.8-0.1,1.1c0,1.1,0.4,2.2,1,3.1c-0.9,0.4-1.8,1.3-2.3,2.1c-0.4-0.4-1.1-0.6-1.5-0.6h-3.2
			C16.6,28.4,18.7,26.4,21.3,25.5z"/>
		<path d="M27.7,44.2c2.9,0,5.3-2.4,5.3-5.3c0-2.9-2.4-5.3-5.3-5.3c-2.9,0-5.3,2.4-5.3,5.3C22.4,41.9,24.8,44.2,27.7,44.2z
			 M25.5,42.2l2.2-2.4l2.4,2.2c-0.7,0.5-1.5,0.8-2.4,0.8C26.9,42.9,26.1,42.7,25.5,42.2z M31.6,39c0,0.8-0.2,1.5-0.6,2.2l-2.4-2.2
			l2.2-2.3C31.3,37.2,31.6,38.1,31.6,39z M29.9,35.7L27.7,38l-2.3-2.2c0.7-0.5,1.5-0.8,2.3-0.8C28.5,35,29.2,35.2,29.9,35.7z
			 M24.4,36.8l2.3,2.2l-2.2,2.4c-0.5-0.7-0.8-1.5-0.8-2.3C23.8,38.1,24,37.4,24.4,36.8z"/>
		<path d="M40.6,35.4h-8.1l0.3,0.5c1.4,2.2,1,4.7-0.1,6l-0.4,0.5h8.3V35.4z M39.9,41.8h-6.4c0.9-1.5,1.2-3.6,0.1-5.7h6.3V41.8z"/>
		<path d="M18.1,44.9h-3.8c-0.9,0-1.7,0.7-1.7,1.7s0.7,1.7,1.7,1.7h3.8c0.9,0,1.7-0.7,1.7-1.7S19,44.9,18.1,44.9z M18.1,47.5h-3.8
			c-0.6,0-1-0.4-1-1s0.4-1,1-1h3.8c0.6,0,1,0.4,1,1S18.6,47.5,18.1,47.5z"/>
		<path d="M13.8,50.3h4.7v-1.8h-4.7V50.3z M14.5,49.2h3.4v0.5h-3.4V49.2z"/>
		<path d="M23,42.2c-0.7-0.9-1.1-1.9-1.2-3.1c0-0.5,0-1,0.2-1.5l0.1-0.6l-0.6,0.2c-3.2,0.9-5.7,3.3-7.2,6.8l-0.2,0.5l0.7,0
			c0,0,0.1,0,0.1,0h3.4c0.5,0,1.1,0.3,1.4,0.7l0.4,0.7l0.2-0.8c0.2-0.7,1.3-2,2.5-2.3l0.5-0.1L23,42.2z M20,44.4
			c-0.4-0.4-1.1-0.6-1.5-0.6h-3.2c1.4-2.8,3.4-4.8,6.1-5.7c-0.1,0.4-0.1,0.8-0.1,1.1c0,1.1,0.4,2.2,1,3.1
			C21.3,42.7,20.4,43.6,20,44.4z"/>
		<path d="M41.8,6.9c-1.3,0-2.4,1.1-2.4,2.4v0.6h1.7v8h-1.7v4.5h1.7v8h-1.7v4.5H41v8h-1.5v2.6l-13.6,2.2l-2.8,1.6v0.9h21.1V50v-2.2
			V9.3C44.2,8,43.1,6.9,41.8,6.9z"/>
	</g>
</g>
</svg>
