<?xml version="1.0" encoding="utf-8"?>
<!-- Generator: Adobe Illustrator 23.0.2, SVG Export Plug-In . SVG Version: 6.00 Build 0)  -->
<svg version="1.1" xmlns="http://www.w3.org/2000/svg" xmlns:xlink="http://www.w3.org/1999/xlink" x="0px" y="0px"
	 viewBox="0 0 21 21" style="enable-background:new 0 0 21 21;" xml:space="preserve">
<style type="text/css">
	.st0{fill:#FFFFFF;}
</style>
<g id="Layer_1">
</g>
<g id="Isolation_Mode">
	<path class="st0" d="M10.5,0C6,0,2.4,3.6,2.4,8.1c0,1.6,0.5,3.1,1.3,4.4C4,13,4.5,13.8,5.2,14.6l0,0l5.3,6.4l4.9-5.7
		c0.8-1.1,1.6-2.2,2-2.8c0.8-1.3,1.3-2.8,1.3-4.4C18.6,3.6,15,0,10.5,0z M10.4,12.5C8,12.5,6.1,10.6,6.1,8.2c0-2.4,2-4.3,4.3-4.3
		c2.4,0,4.3,2,4.3,4.3C14.8,10.6,12.8,12.5,10.4,12.5z"/>
</g>
</svg>
