<?xml version="1.0" encoding="utf-8"?>
<!-- Generator: Adobe Illustrator 22.1.0, SVG Export Plug-In . SVG Version: 6.00 Build 0)  -->
<svg version="1.1" xmlns="http://www.w3.org/2000/svg" xmlns:xlink="http://www.w3.org/1999/xlink" x="0px" y="0px"
	 viewBox="0 0 93.7 93.7" style="enable-background:new 0 0 93.7 93.7;" xml:space="preserve">
<style type="text/css">
	.st0{fill:#FFFFFF;}
</style>
<g id="Layer_2">
	<circle class="st0" cx="46.8" cy="46.8" r="46.5"/>
</g>
<g id="Layer_1">
	<path d="M46.8,93.7C21,93.7,0,72.7,0,46.8C0,21,21,0,46.8,0c25.8,0,46.8,21,46.8,46.8C93.7,72.7,72.7,93.7,46.8,93.7z M46.8,0.7
		C21.4,0.7,0.7,21.4,0.7,46.8S21.4,93,46.8,93C72.3,93,93,72.3,93,46.8S72.3,0.7,46.8,0.7z"/>
</g>
<g id="Layer_3">
	<g>
		<path d="M78,67.6H56V53.1h-8.1V42.2h15.2V8.8H29.8v33.4h15.3v10.9h-7.9v14.5H15.7c-0.8,0-1.4,0.6-1.4,1.4c0,0.8,0.6,1.4,1.4,1.4
			h21.5v14.4H56V70.5h22c0.8,0,1.4-0.6,1.4-1.4C79.4,68.3,78.8,67.6,78,67.6z M32.6,11.7h27.7v27.7H32.6V11.7z M53.2,82H40V56h13.1
			V82z"/>
		<path d="M41.5,74.9c0,2.8,2.2,5,5,5c2.7,0,5-2.3,5-5c0-1.9-2.2-4.6-3.5-5.9c1.3-1.4,3.5-3.9,3.5-5.9c0-2.8-2.2-5-5-5s-5,2.2-5,5
			c0,1.9,2.2,4.6,3.5,5.9C43.7,70.4,41.5,73,41.5,74.9z M46.5,77.8c-1.6,0-2.9-1.3-2.9-2.9c0-1,1.5-3,2.9-4.4
			c1.4,1.5,2.9,3.5,2.9,4.4C49.4,76.5,48.1,77.8,46.5,77.8z M46.5,60.3c1.6,0,2.9,1.3,2.9,2.9c0,1-1.5,3-2.9,4.4
			c-1.4-1.5-2.9-3.5-2.9-4.4C43.6,61.6,44.9,60.3,46.5,60.3z"/>
		<path d="M35.7,36.4h21.4v-8.2H35.7V36.4z M37.9,30.3H55v4H37.9V30.3z"/>
	</g>
</g>
</svg>
