<?xml version="1.0" encoding="utf-8"?>
<!-- Generator: Adobe Illustrator 22.1.0, SVG Export Plug-In . SVG Version: 6.00 Build 0)  -->
<svg version="1.1" xmlns="http://www.w3.org/2000/svg" xmlns:xlink="http://www.w3.org/1999/xlink" x="0px" y="0px"
	 viewBox="0 0 93.7 93.7" style="enable-background:new 0 0 93.7 93.7;" xml:space="preserve">
<style type="text/css">
	.st0{fill:#FFFFFF;}
</style>
<g id="Layer_2">
	<circle class="st0" cx="46.8" cy="46.8" r="46.5"/>
</g>
<g id="Layer_1">
	<path d="M46.8,93.7C21,93.7,0,72.7,0,46.8C0,21,21,0,46.8,0c25.8,0,46.8,21,46.8,46.8C93.7,72.7,72.7,93.7,46.8,93.7z M46.8,0.7
		C21.4,0.7,0.7,21.4,0.7,46.8S21.4,93,46.8,93C72.3,93,93,72.3,93,46.8S72.3,0.7,46.8,0.7z"/>
</g>
<g id="Layer_3">
	<g>
		<path d="M40.9,62.8c-0.9,0-1.6,0.7-1.6,1.6v4.9h-23c-0.9,0-1.6,0.7-1.6,1.6s0.7,1.6,1.6,1.6h23v4.7c0,0.9,0.7,1.6,1.6,1.6
			c0.9,0,1.6-0.7,1.6-1.6V64.4C42.4,63.5,41.7,62.8,40.9,62.8z"/>
		<path d="M76.8,69.2H53.9v-4.9c0-0.9-0.7-1.6-1.6-1.6c-0.9,0-1.6,0.7-1.6,1.6v12.7c0,0.9,0.7,1.6,1.6,1.6c0.9,0,1.6-0.7,1.6-1.6
			v-4.7h22.9c0.9,0,1.6-0.7,1.6-1.6S77.7,69.2,76.8,69.2z"/>
		<path d="M65.1,48.5v-37h-37v37h17.1v11.3c0,0.9,0.7,1.6,1.6,1.6c0.9,0,1.6-0.7,1.6-1.6V48.5H65.1z M31.2,14.6H62v30.8H31.2V14.6z"
			/>
		<path d="M34.7,42.1h23.8v-9.1H34.7V42.1z M37,35.3h19.1v4.4H37V35.3z"/>
		<path d="M46.6,64.5c-0.9,0-1.6,0.7-1.6,1.6v9.4c0,0.9,0.7,1.6,1.6,1.6c0.9,0,1.6-0.7,1.6-1.6v-9.4C48.2,65.2,47.5,64.5,46.6,64.5z
			"/>
	</g>
</g>
</svg>
