<?xml version="1.0" encoding="utf-8"?>
<!-- Generator: Adobe Illustrator 23.0.2, SVG Export Plug-In . SVG Version: 6.00 Build 0)  -->
<svg version="1.1" xmlns="http://www.w3.org/2000/svg" xmlns:xlink="http://www.w3.org/1999/xlink" x="0px" y="0px"
	 viewBox="0 0 21 21" style="enable-background:new 0 0 21 21;" xml:space="preserve">
<style type="text/css">
	.st0{fill:#FFFFFF;}
</style>
<g id="Layer_1">
</g>
<g id="Oiljack">
	<g>
		<path class="st0" d="M13.9,5.7c0-1-3.1-1.8-7-1.8C3.1,4,0,4.8,0,5.7h0C1.9,7.4,11.1,7.7,13.9,5.7z"/>
		<path class="st0" d="M20.9,10.6c0.4-3.3-0.6-6-3.1-7.7L17,3.9c0.8,0.6,1.5,1.3,1.9,2.2L8.3,9.9l0.5,1.3L9.5,11v4.8H8.2v1.4h12.4
			v-1.4h-2.4l-2.4-7.1l3.6-1.3c0.2,0.9,0.3,1.9,0.2,3.1L20.9,10.6z M10.1,10.7l3.8-1.4l-1.8,6.5h-2V10.7z M13.5,15.8l1.5-5.2
			l1.8,5.2H13.5z"/>
		<path class="st0" d="M6.4,8.1C3.3,8,0.3,7.2,0,5.7v9.6c0,0.8,0.4,1.5,1.2,1.7c1.7,0.7,3.5,1,5.2,1.1v-5.8v-1.9V8.1z"/>
	</g>
</g>
</svg>
