<?xml version="1.0" encoding="utf-8"?>
<!-- Generator: Adobe Illustrator 23.0.2, SVG Export Plug-In . SVG Version: 6.00 Build 0)  -->
<svg version="1.1" xmlns="http://www.w3.org/2000/svg" xmlns:xlink="http://www.w3.org/1999/xlink" x="0px" y="0px"
	 viewBox="0 0 21 21" style="enable-background:new 0 0 21 21;" xml:space="preserve">
<style type="text/css">
	.st0{fill:#FFFFFF;}
</style>
<g id="Layer_1">
</g>
<g id="Oiljack">
	<path class="st0" d="M11.9,8.3L18.3,6c0.5,1.6,0.7,3.4,0.4,5.3l1,0.1c0.6-4.8-0.9-8.6-4.5-11.2L14.7,1c1.5,1.1,2.6,2.4,3.3,4
		L1.4,11l0.4,1L3,11.5v8.4H1.1v1h18.7v-1h-4L11.9,8.3z M14.7,19.9H8.4l2.8-10.2L14.7,19.9z M4,11.2l6.5-2.4L7.4,19.9H4V11.2z"/>
</g>
</svg>
