<?xml version="1.0" encoding="utf-8"?>
<!-- Generator: Adobe Illustrator 22.0.1, SVG Export Plug-In . SVG Version: 6.00 Build 0)  -->
<svg version="1.1" xmlns="http://www.w3.org/2000/svg" xmlns:xlink="http://www.w3.org/1999/xlink" x="0px" y="0px"
	 viewBox="0 0 35.1 35.1" style="enable-background:new 0 0 35.1 35.1;" xml:space="preserve">
<style type="text/css">
	.st0{fill:#FFFFFF;}
</style>
<g id="Layer_2">
	<circle class="st0" cx="17.6" cy="17.6" r="17.5"/>
</g>
<g id="Layer_1">
	<path d="M17.6,35.1C7.9,35.1,0,27.3,0,17.6C0,7.9,7.9,0,17.6,0c9.7,0,17.6,7.9,17.6,17.6C35.1,27.3,27.3,35.1,17.6,35.1z M17.6,0.2
		C8,0.2,0.2,8,0.2,17.6S8,34.9,17.6,34.9c9.5,0,17.3-7.8,17.3-17.3S27.1,0.2,17.6,0.2z"/>
</g>
<g id="Layer_3">
	<g>
		<path d="M17.6,8c-3.1,0-5.5,2.5-5.5,5.5s2.5,5.5,5.5,5.5c3.1,0,5.5-2.5,5.5-5.5S20.6,8,17.6,8z M18.8,13.4l1.9-2
			c0.4,0.6,0.6,1.3,0.6,2.1c0,0.7-0.2,1.3-0.5,1.8L18.8,13.4z M19.4,10.2l-1.9,2l-2-1.9c0.6-0.4,1.3-0.6,2-0.6
			C18.2,9.7,18.8,9.9,19.4,10.2z M14.4,15.5c-0.4-0.6-0.6-1.3-0.6-2c0-0.7,0.2-1.3,0.5-1.9l2,1.9L14.4,15.5z M15.7,16.7l1.9-2l2,1.9
			c-0.6,0.4-1.3,0.6-2.1,0.6C16.9,17.3,16.3,17.1,15.7,16.7z"/>
		<path d="M7.9,19.6H4c-0.9,0-1.6,0.7-1.6,1.6c0,0.9,0.7,1.6,1.6,1.6h3.8c0.9,0,1.6-0.7,1.6-1.6C9.4,20.3,8.7,19.6,7.9,19.6z
			 M7.9,22.3H4c-0.6,0-1.1-0.5-1.1-1.1S3.4,20,4,20h3.8C8.5,20,9,20.5,9,21.1S8.5,22.3,7.9,22.3z"/>
		<path d="M3.7,24.9h4.5v-1.6H3.7V24.9z M4.1,23.7h3.7v0.7H4.1V23.7z"/>
		<path d="M11.6,13.7L11.6,13.7c0-0.5,0-1,0.2-1.6l0.1-0.4l-0.4,0.1c-3.2,0.9-5.7,3.3-7.2,6.8L4.1,19l0.5,0c0.1,0,0.1,0,0.2,0h3.4
			c0.5,0,1.2,0.3,1.5,0.8l0.3,0.5l0.1-0.5c0.2-0.8,1.5-2.1,2.6-2.4l0.3-0.1l-0.2-0.3C12,16,11.6,14.9,11.6,13.7z M9.8,19.1
			c-0.4-0.4-1.1-0.7-1.6-0.7H4.8c1.4-3.1,3.6-5.1,6.4-6.1c-0.1,0.5-0.1,0.9-0.1,1.3c0,1.1,0.4,2.2,1.1,3.2
			C11.2,17.3,10.2,18.3,9.8,19.1z"/>
		<path d="M31.1,19.6h-3.8c-0.9,0-1.6,0.7-1.6,1.6c0,0.4,0.2,0.8,0.5,1.1c0.3,0.3,0.7,0.5,1.1,0.5h3.8c0.9,0,1.6-0.7,1.6-1.6
			C32.7,20.3,32,19.6,31.1,19.6z M31.1,22.3h-3.8c-0.3,0-0.6-0.1-0.8-0.3c-0.2-0.2-0.3-0.5-0.3-0.8c0-0.6,0.5-1.1,1.1-1.1h3.8
			c0.6,0,1.1,0.5,1.1,1.1S31.7,22.3,31.1,22.3z"/>
		<path d="M26.9,24.9h4.5v-1.6h-4.5V24.9z M27.4,23.7H31v0.7h-3.7V23.7z"/>
		<path d="M26.9,18.9h3.4c0.1,0,0.1,0,0.2,0H31l-0.1-0.3c-1.5-3.5-4-5.8-7.2-6.8l-0.4-0.1l0.1,0.4c0.1,0.6,0.2,1.1,0.2,1.6
			c0,1.2-0.4,2.3-1.2,3.2l-0.2,0.3l0.3,0.1c1.1,0.3,2.3,1.6,2.6,2.4l0.1,0.5l0.3-0.5C25.7,19.2,26.4,18.9,26.9,18.9z M25.3,19.1
			c-0.4-0.8-1.4-1.8-2.4-2.2c0.7-0.9,1-2,1.1-3.2c0-0.4,0-0.9-0.1-1.3c2.8,0.9,5,3,6.4,6.1h-3.4C26.4,18.5,25.8,18.7,25.3,19.1z"/>
	</g>
</g>
</svg>
