<?xml version="1.0" encoding="utf-8"?>
<!-- Generator: Adobe Illustrator 22.1.0, SVG Export Plug-In . SVG Version: 6.00 Build 0)  -->
<svg version="1.1" id="Layer_1" xmlns="http://www.w3.org/2000/svg" xmlns:xlink="http://www.w3.org/1999/xlink" x="0px" y="0px"
	 viewBox="0 0 23.4 23.4" style="enable-background:new 0 0 23.4 23.4;" xml:space="preserve">
<style type="text/css">
	.st0{fill:#FFFFFF;}
	.st1{fill:none;stroke:#000000;stroke-width:0.75;stroke-miterlimit:10;}
</style>
<g id="Layer_1_1_">
	<circle class="st0" cx="11.7" cy="11.7" r="11.6"/>
</g>
<g id="Layer_2_1_">
	<path d="M11.7,23.4C5.3,23.4,0,18.2,0,11.7C0,5.3,5.3,0,11.7,0c6.5,0,11.7,5.3,11.7,11.7C23.4,18.2,18.2,23.4,11.7,23.4z M11.7,0.2
		C5.3,0.2,0.2,5.3,0.2,11.7s5.2,11.5,11.5,11.5c6.4,0,11.5-5.2,11.5-11.5S18.1,0.2,11.7,0.2z"/>
</g>
<g id="Layer_3_copy">
	<g>
		<path class="st1" d="M8.6,12c-0.5-0.8-1.2-1.3-2.2-1.5c0.6-0.3,1-0.9,1-1.6c0-0.9-0.8-1.7-1.7-1.7S4.1,8,4.1,9
			c0,0.7,0.4,1.3,1,1.6c-1.5,0.3-2.6,1.6-2.6,3.2h4.3"/>
		<path class="st1" d="M12.7,11.8c1-0.4,1.7-1.4,1.7-2.5c0-1.5-1.2-2.7-2.7-2.7S9,7.8,9,9.3c0,1.1,0.7,2.1,1.7,2.5
			c-2.4,0.5-4.2,2.6-4.2,5.1h10.4C16.9,14.4,15.1,12.3,12.7,11.8z"/>
		<path class="st1" d="M16.6,13.8h4.3c0-1.6-1.1-2.9-2.6-3.2c0.6-0.3,1-0.9,1-1.6c0-0.9-0.8-1.7-1.7-1.7c-0.9,0-1.7,0.8-1.7,1.7
			c0,0.7,0.4,1.3,1,1.6c-0.9,0.2-1.7,0.7-2.2,1.5"/>
	</g>
</g>
</svg>
