<?xml version="1.0" encoding="utf-8"?>
<!-- Generator: Adobe Illustrator 22.1.0, SVG Export Plug-In . SVG Version: 6.00 Build 0)  -->
<svg version="1.1" id="Layer_1" xmlns="http://www.w3.org/2000/svg" xmlns:xlink="http://www.w3.org/1999/xlink" x="0px" y="0px"
	 viewBox="0 0 170.5 26.5" style="enable-background:new 0 0 170.5 26.5;" xml:space="preserve">
<style type="text/css">
	.st0{fill:#3872B9;}
	.st1{fill:#FFFFFF;}
	.st2{font-family:'Roboto-Light';}
	.st3{font-size:16px;}
</style>
<g>
	<g>
		<path class="st0" d="M168.3,26.3H2.3c-1.1,0-2-0.9-2-2v-22c0-1.1,0.9-2,2-2h166c1.1,0,2,0.9,2,2v22
			C170.3,25.4,169.4,26.3,168.3,26.3z"/>
		<path d="M168.3,26.5H2.3c-1.2,0-2.3-1-2.3-2.3v-22C0,1,1,0,2.3,0h166c1.2,0,2.3,1,2.3,2.3v22C170.5,25.5,169.5,26.5,168.3,26.5z
			 M2.3,0.5c-1,0-1.8,0.8-1.8,1.8v22c0,1,0.8,1.8,1.8,1.8h166c1,0,1.8-0.8,1.8-1.8v-22c0-1-0.8-1.8-1.8-1.8H2.3z"/>
	</g>
	<text transform="matrix(1 0 0 1 30.8594 17.9463)" class="st1 st2 st3">Strapping Table</text>
</g>
</svg>
