<?xml version="1.0" encoding="utf-8"?>
<!-- Generator: Adobe Illustrator 23.0.0, SVG Export Plug-In . SVG Version: 6.00 Build 0)  -->
<svg version="1.1" id="Layer_1" xmlns="http://www.w3.org/2000/svg" xmlns:xlink="http://www.w3.org/1999/xlink" x="0px" y="0px"
	 viewBox="0 0 74.2 83.72" style="enable-background:new 0 0 74.2 83.72;" xml:space="preserve">
<style type="text/css">
	.st0{fill:#3DB54A;}
</style>
<path class="st0" d="M61.24,18.48l9.02-16.41L66.49,0l-8.7,15.83c-5.91-3.99-13.03-6.32-20.68-6.32C16.64,9.52,0,26.16,0,46.62
	c0,20.46,16.64,37.1,37.1,37.1s37.1-16.64,37.1-37.1C74.2,35.37,69.16,25.29,61.24,18.48z M37.1,79.42
	c-18.09,0-32.8-14.71-32.8-32.8c0-18.08,14.71-32.8,32.8-32.8c6.9,0,13.31,2.15,18.6,5.81l-20.89,38L24.13,35.7l-3.87,1.88
	l14.32,29.39l24.53-44.64c6.62,6,10.78,14.67,10.78,24.29C69.9,64.7,55.18,79.42,37.1,79.42z"/>
</svg>
