<?xml version="1.0" encoding="utf-8"?>
<!-- Generator: Adobe Illustrator 22.0.1, SVG Export Plug-In . SVG Version: 6.00 Build 0)  -->
<svg version="1.1" xmlns="http://www.w3.org/2000/svg" xmlns:xlink="http://www.w3.org/1999/xlink" x="0px" y="0px"
	 viewBox="0 0 93.7 93.7" style="enable-background:new 0 0 93.7 93.7;" xml:space="preserve">
<style type="text/css">
	.st0{fill:#ffffff;}
	.st1{fill:#000000;}
	.cls-w{fill:#ffffff;}
</style>
<g id="Layer_2">
	<circle  class="cls-w" cx="46.8" cy="46.8" r="46.5"/>
</g>
<g id="Layer_1">
	<path d="M46.8,93.7C21,93.7,0,72.7,0,46.8C0,21,21,0,46.8,0c25.8,0,46.8,21,46.8,46.8C93.7,72.7,72.7,93.7,46.8,93.7z M46.8,0.7
		C21.4,0.7,0.7,21.4,0.7,46.8S21.4,93,46.8,93C72.3,93,93,72.3,93,46.8S72.3,0.7,46.8,0.7z"/>
</g>
<g id="Layer_3" class="st1" >
	<g>
		<path d="M74,66.9c-1.7,0-3.1,1.4-3.1,3.1s1.4,3.1,3.1,3.1s3.1-1.4,3.1-3.1S75.7,66.9,74,66.9z M74,71.2c-0.6,0-1.1-0.5-1.1-1.1
			s0.5-1.1,1.1-1.1s1.1,0.5,1.1,1.1S74.6,71.2,74,71.2z"/>
		<path d="M76.7,54.7c0.1-0.4-1.6-2.3-2.4-2.9c-0.8-0.6-4.8-2-4.8-2c-0.5,0-0.9,0.4-0.9,0.9v4.3h7.8C76.6,54.9,76.7,54.8,76.7,54.7z
			"/>
		<path d="M61.6,66.2h-2.9v-0.6H14.7h-3.1v1.5h4v0.8H19c-0.5,0.6-0.9,1.3-0.9,2.1c0,1.7,1.4,3.1,3.1,3.1c1.7,0,3.1-1.4,3.1-3.1
			c0,1.7,1.4,3.1,3.1,3.1c1.7,0,3.1-1.4,3.1-3.1c0-0.8-0.3-1.6-0.9-2.1h2c-0.7,0.6-1.1,1.4-1.1,2.4c0,1.7,1.4,3.1,3.1,3.1
			S37,72,37,70.3c0-1-0.5-1.8-1.1-2.4h1.7v3.6h11.8v-3.6h0.4v2.3H51c0.1,1.6,1.5,3,3.1,3s3-1.3,3.1-3h0.9v1.2h10.1v-3.8l-6.7,0V66.2
			z M33.9,71.4c-0.6,0-1.1-0.5-1.1-1.1s0.5-1.1,1.1-1.1s1.1,0.5,1.1,1.1S34.5,71.4,33.9,71.4z M21.3,71.2c-0.6,0-1.1-0.5-1.1-1.1
			s0.5-1.1,1.1-1.1s1.1,0.5,1.1,1.1S22,71.2,21.3,71.2z M27.6,71.2c-0.6,0-1.1-0.5-1.1-1.1s0.5-1.1,1.1-1.1s1.1,0.5,1.1,1.1
			S28.2,71.2,27.6,71.2z M24.5,70c0-0.8-0.3-1.5-0.9-2.1h1.7C24.8,68.4,24.5,69.2,24.5,70z M54.1,71.2c-0.6,0-1.1-0.5-1.1-1.1
			s0.5-1.1,1.1-1.1s1.1,0.5,1.1,1.1S54.7,71.2,54.1,71.2z"/>
		<path d="M76.2,65.1c1.5,0.2,2.3,1.2,2.9,2.5h3c0.9-0.8,1-1.8,0.2-2.9l-0.2-4.1l-2.4-5.3h-11v1.1h-0.6v-3.6h-0.5
			c0-1.2-0.5-2-1.5-2.3v0.6c0.7,0.1,1,0.7,1,1.7h-0.8v11.6h0.5c0.1,1.3,0.6,2.1,1.7,2.5v4.3h1.6c0-6.1,7.5-6.3,7.5,0h4l0.3-2.7h-3.6
			c-0.2-1.5-1.1-2.4-2.6-2.6h-7.2v0.5c-0.8-0.5-1.1-1-1.1-1.9h0.6v-1.3h0.6v2H76.2z M74.6,56.1H79l2.3,4.6v1h0l-6.7-0.8V56.1z
			 M70.2,56.1h3.7v4.4h-3.7V56.1z M68.1,62.7v-5.8h0.6v5.8H68.1z"/>
		<path d="M62.1,64.8c1.9-1.6,3-4.3,3.1-7.3c0-3.2-1.1-6.1-3-7.8l-0.1-0.1H11.2l-0.1,0.1c-1.9,1.9-2.9,4.9-2.9,8.1
			c0.1,2.9,1.1,5.5,2.9,7l0.1,0.1h50.7L62.1,64.8z M64.1,57.5c0,2.6-0.9,4.8-2.4,6.2v-13C63.3,52.3,64.2,54.8,64.1,57.5z M12.5,50.5
			h48.3v13.4H12.5V50.5z M9.2,57.7c-0.1-2.7,0.8-5.4,2.3-7v13.1C10.1,62.4,9.3,60.2,9.2,57.7z"/>
		<path d="M32.7,28.1v19.6h23.4V28.1L55.9,28c-7.3-3.6-15-3.6-22.9,0L32.7,28.1z M33.7,46.7V29.5h21.4v17.3H33.7z M54.6,28.5H34.4
			C41.3,25.5,48.1,25.5,54.6,28.5z"/>
		<rect x="16.4" y="21.4" width="0" height="0.7"/>
		<path d="M32,44.3l0-16.8l0.5-0.2c4-1.8,7.9-2.8,11.8-2.7v-2.5H16.4v22.2H32z"/>
		<path d="M44.3,21c-8.7-4.3-18-4.6-27.9,0v0.4h27.9V21z"/>
	</g>
</g>
</svg>
