<?xml version="1.0" encoding="utf-8"?>
<!-- Generator: Adobe Illustrator 23.0.2, SVG Export Plug-In . SVG Version: 6.00 Build 0)  -->
<svg version="1.1" xmlns="http://www.w3.org/2000/svg" xmlns:xlink="http://www.w3.org/1999/xlink" x="0px" y="0px"
	 viewBox="0 0 21 21" style="enable-background:new 0 0 21 21;" xml:space="preserve">
<style type="text/css">
	.st0{fill:#FFFFFF;}
</style>
<g id="Layer_1">
</g>
<g id="Circled_Ics">
</g>
<g id="Ic_Truck_5">
	<g>
		<path class="st0" d="M4.9,15.8c-1.2,0-2.2-1-2.2-2.2s1-2.2,2.2-2.2s2.2,1,2.2,2.2S6.2,15.8,4.9,15.8z M4.9,12.3
			c-0.7,0-1.2,0.6-1.2,1.2c0,0.7,0.6,1.2,1.2,1.2c0.7,0,1.2-0.6,1.2-1.2C6.2,12.9,5.6,12.3,4.9,12.3z"/>
		<path class="st0" d="M16.7,15.8c-1.2,0-2.2-1-2.2-2.2s1-2.2,2.2-2.2s2.2,1,2.2,2.2S18,15.8,16.7,15.8z M16.7,12.3
			c-0.7,0-1.2,0.6-1.2,1.2c0,0.7,0.6,1.2,1.2,1.2s1.2-0.6,1.2-1.2C18,12.9,17.4,12.3,16.7,12.3z"/>
		<path class="st0" d="M21,13.9h-1.3v-1H20v-2.8c0-0.1-0.1-0.3-0.2-0.4L17.1,7c-0.1-0.1-0.2-0.1-0.4-0.1h-2.4
			c-0.3,0-0.5,0.2-0.5,0.5v6l0,0.5h-1V7.4c0-0.8,0.7-1.5,1.5-1.5h2.4c0.4,0,0.8,0.2,1.1,0.4L20.5,9c0.3,0.3,0.5,0.7,0.5,1.1V13.9z"
			/>
		<path class="st0" d="M11.8,13.9H7.8v-1h2.9V7.3c0-0.6-0.5-1.1-1.1-1.1H2.3C1.6,6.2,1,6.8,1,7.5v4.5c0,0.5,0.4,1,1,1v1
			c-1.1,0-2-0.9-2-2V7.5c0-1.3,1-2.3,2.3-2.3h7.4c1.2,0,2.1,0.9,2.1,2.1V13.9z"/>
	</g>
</g>
</svg>
