<svg id="entry_field_---" data-name="entry field ---" xmlns="http://www.w3.org/2000/svg" viewBox="0 0 338 56">
  <defs>
    <style>.cls-1{fill:#fff;opacity:0.8;}.cls-2{fill:#8aa0bf;}.cls-3{opacity:0.39;font-size:25px;font-family:Myriad Pro;}</style>
  </defs>
  <title>Entry field Veryfication Code</title>
  <rect class="cls-1" width="338" height="56" rx="4" ry="4"/>
  <rect class="cls-2" width="338" height="56" rx="4" ry="4"/>
  <text class="cls-3" transform="translate(73.01 36)">
  </text>
</svg>