<?xml version="1.0" encoding="utf-8"?>
<!-- Generator: Adobe Illustrator 23.0.2, SVG Export Plug-In . SVG Version: 6.00 Build 0)  -->
<svg version="1.1" xmlns="http://www.w3.org/2000/svg" xmlns:xlink="http://www.w3.org/1999/xlink" x="0px" y="0px"
	 viewBox="0 0 21 21" style="enable-background:new 0 0 21 21;" xml:space="preserve">
<style type="text/css">
	.liveChatGrey{fill:#848484;}
</style>
<g id="Layer_1">
</g>
<g id="Live_Chat">
	<path class="liveChatGrey" d="M1.8,0v17.3h13.5l3.8,3.7v-3.7v-1.3V0H1.8z M5.1,3.3h10.8v2.2H5.1V3.3z M5.1,7.6h10.8v2.2H5.1V7.6z M11.6,14.1
		H5.1v-2.2h6.5V14.1z"/>
</g>
</svg>
