<?xml version="1.0" encoding="utf-8"?>
<!-- Generator: Adobe Illustrator 22.0.1, SVG Export Plug-In . SVG Version: 6.00 Build 0)  -->
<svg version="1.1" id="Layer_1" xmlns="http://www.w3.org/2000/svg" xmlns:xlink="http://www.w3.org/1999/xlink" x="0px" y="0px"
	 viewBox="0 0 46.8 46.8" style="enable-background:new 0 0 46.8 46.8;" xml:space="preserve">
<style type="text/css">
	.st0{fill:#FFFFFF;}
</style>
<circle class="st0" cx="23.4" cy="23.4" r="23.4"/>
<path d="M23.4,46.8C10.5,46.8,0,36.3,0,23.4C0,10.5,10.5,0,23.4,0c12.9,0,23.4,10.5,23.4,23.4C46.8,36.3,36.3,46.8,23.4,46.8z
	 M23.4,0.3C10.7,0.3,0.3,10.7,0.3,23.4s10.4,23.1,23.1,23.1c12.7,0,23.1-10.4,23.1-23.1S36.2,0.3,23.4,0.3z"/>
<path d="M41,30.2V12l-16.4,3.1v2.3h-1.9v2.2h-1.3v-1.1h-1v1.1h-1.3v-7.5H5.8v18.5v1v3.1H41v-4.2h-2.8v-0.9L41,30.2z M25.6,16
	L40,13.3V29l-14.3-2.6v-1.1v-7.9V16z M19.1,30.6V23h1.3v1.1h1V23h1.3v2.3h1.9v2l2.4,0.4v2.9H19.1z M23.7,18.4h0.9v5.8h-0.9V18.4z
	 M22.7,20.1v2.3h-1.3v-2.3H22.7z M20.4,20.1v2.3h-1.3v-2.3H20.4z M6.9,13.2H18v17.4H6.9V13.2z M40,33.7H6.9v-2.1h12.2H40V33.7z
	 M37.7,30.6H27.5v-2.8l10.2,1.9V30.6z"/>
</svg>
