<?xml version="1.0" encoding="utf-8"?>
<!-- Generator: Adobe Illustrator 22.0.1, SVG Export Plug-In . SVG Version: 6.00 Build 0)  -->
<svg version="1.1" id="Layer_2" xmlns="http://www.w3.org/2000/svg" xmlns:xlink="http://www.w3.org/1999/xlink" x="0px" y="0px"
	 viewBox="0 0 11.7 11.7" style="enable-background:new 0 0 11.7 11.7;" xml:space="preserve">
<style type="text/css">
	.st0{fill:#008000;}
</style>
<g>
	<title>HeavyOil</title>
	<path id="Heavy_Oil_1_" class="st0" d="M1.1,5.9c0,1,0.3,2,1,2.9L0,10.8l0.9,0.9L3,9.6c1.7,1.3,4.1,1.3,5.7,0l2.1,2.1l0.9-0.9
		L9.6,8.7c1.3-1.7,1.3-4.1,0-5.7l2.1-2.1L10.8,0L8.7,2.1C7.1,0.8,4.7,0.8,3,2.1L0.9,0L0,0.9L2.1,3C1.5,3.8,1.1,4.8,1.1,5.9z"/>
</g>
</svg>
