<?xml version="1.0" encoding="utf-8"?>
<!-- Generator: Adobe Illustrator 22.0.1, SVG Export Plug-In . SVG Version: 6.00 Build 0)  -->
<svg version="1.1" xmlns="http://www.w3.org/2000/svg" xmlns:xlink="http://www.w3.org/1999/xlink" x="0px" y="0px"
	 viewBox="0 0 105.4 105.4" style="enable-background:new 0 0 105.4 105.4;" xml:space="preserve">
<style type="text/css">
	.st0{fill:#FFFFFF;}
</style>
<g id="Layer_2">
	<circle class="st0" cx="52.7" cy="52.7" r="52.3"/>
</g>
<g id="Layer_1">
	<path d="M52.7,105.4C23.6,105.4,0,81.8,0,52.7C0,23.6,23.6,0,52.7,0c29.1,0,52.7,23.6,52.7,52.7C105.4,81.8,81.8,105.4,52.7,105.4z
		 M52.7,0.7c-28.6,0-52,23.3-52,52s23.3,52,52,52c28.6,0,52-23.3,52-52S81.3,0.7,52.7,0.7z"/>
</g>
<g id="Layer_3">
	<g>
		<path d="M92.8,78l-2.2-55.6h-5.5L83,78h-0.8l0.5-14.7l-17.6,0.2l-0.2,0l0,9l8.8,0l0-1.7l2.6,0c1.3,0,3.3,1.2,3.3,3l0,4.2h-0.7v-4
			c0-1.3-1.1-2.4-2.4-2.4h-2.2V78h-0.5l0-2.8l-8.7,0l0,2.8h-0.9v-2.9h-5.8l0,2.9h-0.6l0-2.8h-3.8l0,2.7h-2.1l0-2.6l-3.8,0V78h-1
			l0-2.8h-3.8l0,2.7h-2.1l0-2.6l-3.8,0l0,2.8h-1.6v-2.9h-4.2v2.8h-1.8v-2.8h-4.2V78H24v-2.7l-3.4,0l-0.1,0c-0.3,0.1-0.4,0.3-0.4,0.6
			l0,2.2h-0.4v-2.8c0-0.2,0.2-0.4,0.4-0.4h53.8v-2H20c-1.3,0-2.4,1.1-2.4,2.4V78h-0.4v-2.8c0-1.4,1-2.8,2.8-2.8l3.9-0.1v-1.9
			l-0.2-0.1c-3.4-1-6.9-1-10.3,0l-0.2,0.1V78h-1.7V80h82.1V78H92.8z M54.3,75.7h2.8l0,2.2h-2.9L54.3,75.7z M48.3,75.7l2.9,0l0,2.1
			h-2.9V75.7z M43.4,75.7h2.8l0,2.2h-2.9L43.4,75.7z M37.4,75.7l2.9,0l0,2.1h-2.9L37.4,75.7z M20.6,75.8
			C20.6,75.7,20.6,75.7,20.6,75.8l2.9,0V78h-2.9L20.6,75.8z M13.8,70.9c3.2-0.9,6.5-1,9.7,0v1l-3.4,0c-2.2,0-3.3,1.6-3.3,3.3V78
			h-2.9V70.9z M90.1,32.9h-4.3l0.1-2.6H90L90.1,32.9z M89.7,23.3l0.1,2.7H86l0.1-2.7H89.7z M85.6,37.2h4.7L91.8,78H84L85.6,37.2z
			 M76.3,70.2l-3.1,0l0,1.7l-7.8,0l0-8l16.8-0.2L81.7,78h-1.6l0-4.2C80.1,71.6,77.8,70.2,76.3,70.2z M65.5,75.7l7.8,0l0,2.3h-7.8
			L65.5,75.7z"/>
		<path d="M65.2,62.7l17.3-0.2l-0.7-0.5c-4.3-2.9-11.1-2.8-15.9,0.1L65.2,62.7z M74.2,60.5c2.4,0,4.7,0.5,6.6,1.6L67,62.2
			C69.2,61.1,71.7,60.5,74.2,60.5z"/>
		<path d="M57.7,70.4l-0.2-0.1c-3.5-1.1-6.1-1.1-9.6,0l-0.2,0.1v2.1h9.9L57.7,70.4z M57.1,71.9h-8.9v-1.2c3.2-0.9,5.7-0.9,8.9,0
			L57.1,71.9z"/>
		<path d="M37.1,70.3l-0.2,0.1v2.1h9.9l0-2l-0.2-0.1C43.2,69.3,40.5,69.3,37.1,70.3z M46.3,70.8l0,1.2h-8.9v-1.2
			C40.6,69.8,43.1,69.8,46.3,70.8z"/>
		<path d="M25.5,70.3l-0.2,0.1v0c0,0-0.1,0-0.1,0v2.1h10.2v-2.1c-0.5-0.1-0.9-0.3-1.4-0.4C31,69.3,28.6,69.4,25.5,70.3z"/>
		<path d="M66.6,55c1,0,1.8,0.8,1.8,1.8v3.8c0.7-0.3,1.4-0.5,2.1-0.6v-3.1c0-2.1-1.7-3.9-3.9-3.9h-2.1l0,2.1H66.6z"/>
		<path d="M49.9,69.4c0.6-0.2,1.1-0.2,1.5-0.2V55h3.3l0-2.1h-9.3V55h4.5V69.4z"/>
		<path d="M21.8,61.2c0-0.6,0.5-1.1,1.1-1.1h6.3v9.1c0.7-0.1,1.4-0.1,2.1,0V49.8c0-1,0.8-1.8,1.8-1.8h4.7v21.4
			c1.2-0.3,2.5-0.5,3.7-0.4h0V55h2.1v-2.1h-2.1V39.4h0.8c0.6,0,1.1-0.5,1.1-1.1v-5.5c0-0.6-0.5-1.1-1.1-1.1h-0.8v-5.5H42
			c0.3,0,0.6-0.3,0.6-0.6c0-0.3-0.3-0.6-0.6-0.6h-0.5v-2c0-1-0.8-1.9-1.9-1.9c-1,0-1.9,0.8-1.9,1.9v2h-0.4c-0.3,0-0.6,0.3-0.6,0.6
			c0,0.3,0.3,0.6,0.6,0.6h0.4v19.8h-4.7c-2.1,0-3.9,1.7-3.9,3.9v8.8h-6.3c-1.4,0-2.5,1.1-2.5,2.5v8.2c0.5,0,0.9,0,1.4,0.1V61.2z"/>
		<path d="M45,51.2c0-0.5,0.4-0.9,0.9-0.9h9.2v19c1,0.1,2.1,0.4,3.1,0.7v2.5h5.9V47.2c0-1.9-1.2-3.5-2.9-4.2v-1.1
			c0-0.4-0.3-0.7-0.7-0.7h-1.8c-0.4,0-0.7,0.3-0.7,0.7V43c-1.7,0.6-2.9,2.3-2.9,4.2v2.1h-9.2c-1,0-1.9,0.9-1.9,1.9v18.2
			c0.3,0.1,0.7,0.1,1,0.2V51.2z"/>
	</g>
</g>
</svg>
