<?xml version="1.0" encoding="utf-8"?>
<!-- Generator: Adobe Illustrator 22.0.1, SVG Export Plug-In . SVG Version: 6.00 Build 0)  -->
<svg version="1.1" xmlns="http://www.w3.org/2000/svg" xmlns:xlink="http://www.w3.org/1999/xlink" x="0px" y="0px"
	 viewBox="0 0 23.4 23.4" style="enable-background:new 0 0 23.4 23.4;" xml:space="preserve">
<style type="text/css">
	.st0{fill:#FFFFFF;}
</style>
<g id="Layer_1">
	<circle class="st0" cx="11.7" cy="11.7" r="11.6"/>
</g>
<g id="Layer_2">
	<path d="M11.7,23.4C5.3,23.4,0,18.2,0,11.7C0,5.3,5.3,0,11.7,0c6.5,0,11.7,5.3,11.7,11.7C23.4,18.2,18.2,23.4,11.7,23.4z M11.7,0.2
		C5.3,0.2,0.2,5.3,0.2,11.7s5.2,11.5,11.5,11.5c6.4,0,11.5-5.2,11.5-11.5S18.1,0.2,11.7,0.2z"/>
</g>
<g id="Layer_3">
	<g>
		<path d="M20.8,15.6h-5.3v-3.5h-3.4v-1.7c2.2-0.2,4-2,4-4.3c0-2.4-1.9-4.3-4.3-4.3c-2.4,0-4.3,1.9-4.3,4.3c0,2.2,1.7,4.1,3.9,4.3
			v1.7H7.9v3.5H2.6c-0.2,0-0.3,0.2-0.3,0.3c0,0.2,0.2,0.3,0.3,0.3h5.4v3.4h7.6v-3.4h5.3c0.2,0,0.3-0.2,0.3-0.3
			C21.2,15.8,21,15.6,20.8,15.6z M8.2,6.1c0-2,1.6-3.6,3.6-3.6s3.6,1.6,3.6,3.6c0,2-1.6,3.6-3.6,3.6S8.2,8.1,8.2,6.1z M15,19.2H8.4
			v-6.6H15V19.2z"/>
		<path d="M10.5,17.4c0,0.7,0.6,1.2,1.2,1.2c0.7,0,1.2-0.6,1.2-1.2c0-0.5-0.6-1.1-0.9-1.5c0.3-0.3,0.8-1,0.8-1.4
			c0-0.7-0.6-1.2-1.2-1.2c-0.7,0-1.2,0.6-1.2,1.2c0,0.5,0.6,1.1,0.9,1.5C11.1,16.2,10.5,16.9,10.5,17.4z M11.8,18.1
			c-0.4,0-0.7-0.3-0.7-0.7c0-0.2,0.4-0.7,0.7-1.1c0.3,0.4,0.7,0.9,0.7,1.1C12.5,17.7,12.1,18.1,11.8,18.1z M11.7,13.7
			c0.4,0,0.7,0.3,0.7,0.7c0,0.2-0.4,0.7-0.7,1.1c-0.3-0.4-0.7-0.9-0.7-1.1C11,14.1,11.4,13.7,11.7,13.7z"/>
	</g>
</g>
</svg>
