<?xml version="1.0" encoding="utf-8"?>
<!-- Generator: Adobe Illustrator 22.0.1, SVG Export Plug-In . SVG Version: 6.00 Build 0)  -->
<svg version="1.1" xmlns="http://www.w3.org/2000/svg" xmlns:xlink="http://www.w3.org/1999/xlink" x="0px" y="0px"
	 viewBox="0 0 23.4 23.4" style="enable-background:new 0 0 23.4 23.4;" xml:space="preserve">
<style type="text/css">
	.st0{fill:#FFFFFF;}
</style>
<g id="Layer_1">
	<circle class="st0" cx="11.7" cy="11.7" r="11.6"/>
</g>
<g id="Layer_2">
	<path d="M11.7,23.4C5.3,23.4,0,18.2,0,11.7C0,5.3,5.3,0,11.7,0c6.5,0,11.7,5.3,11.7,11.7C23.4,18.2,18.2,23.4,11.7,23.4z M11.7,0.2
		C5.3,0.2,0.2,5.3,0.2,11.7s5.2,11.5,11.5,11.5c6.4,0,11.5-5.2,11.5-11.5S18.1,0.2,11.7,0.2z"/>
</g>
<g id="Layer_3">
	<g>
		<path d="M21,15.9h-5.4v-3.5h-3.5v-1.7c2.3-0.2,4.1-2,4.1-4.4c0-2.4-2-4.4-4.4-4.4s-4.4,2-4.4,4.4c0,2.3,1.7,4.1,4,4.3v1.7H7.9v3.5
			H2.4C2.2,15.9,2,16,2,16.2s0.2,0.4,0.4,0.4h5.5v3.5h7.7v-3.5H21c0.2,0,0.4-0.2,0.4-0.4S21.2,15.9,21,15.9z M8.1,6.3
			c0-2,1.6-3.6,3.6-3.6c2,0,3.6,1.6,3.6,3.6c0,2-1.6,3.6-3.6,3.6C9.8,9.9,8.1,8.3,8.1,6.3z M15.1,19.6H8.4v-6.7h6.7V19.6z"/>
		<path d="M10.1,16.4c0.2,0.2,0.4,0.4,0.8,0.4c0.2,0,0.5-0.1,0.8-0.4l-0.3-0.4c-0.5,0.4-0.6,0.3-0.9,0c-0.3-0.3-0.8-0.8-1.6,0
			l0.4,0.4C9.6,16,9.8,16.1,10.1,16.4z"/>
		<path d="M13.1,16.4c0.2,0.2,0.4,0.4,0.8,0.4c0.2,0,0.5-0.1,0.8-0.4l-0.3-0.4c-0.5,0.4-0.6,0.3-0.9,0c-0.3-0.3-0.8-0.8-1.6,0
			l0.4,0.4C12.6,16,12.8,16.1,13.1,16.4z"/>
	</g>
</g>
</svg>
