<?xml version="1.0" encoding="utf-8"?>
<!-- Generator: Adobe Illustrator 22.0.1, SVG Export Plug-In . SVG Version: 6.00 Build 0)  -->
<svg version="1.1" xmlns="http://www.w3.org/2000/svg" xmlns:xlink="http://www.w3.org/1999/xlink" x="0px" y="0px"
	 viewBox="0 0 23.4 23.4" style="enable-background:new 0 0 23.4 23.4;" xml:space="preserve">
<style type="text/css">
	.st0{fill:#FFFFFF;}
</style>
<g id="Layer_1">
	<circle class="st0" cx="11.7" cy="11.7" r="11.6"/>
</g>
<g id="Layer_2">
	<path d="M11.7,23.4C5.3,23.4,0,18.2,0,11.7C0,5.3,5.3,0,11.7,0c6.5,0,11.7,5.3,11.7,11.7C23.4,18.2,18.2,23.4,11.7,23.4z M11.7,0.2
		C5.3,0.2,0.2,5.3,0.2,11.7s5.2,11.5,11.5,11.5c6.4,0,11.5-5.2,11.5-11.5S18.1,0.2,11.7,0.2z"/>
</g>
<g id="Layer_3">
	<g>
		<path d="M20.8,15.7h-5.3v-3.5h-3.4v-1.6c2.2-0.2,4-2,4-4.3C16.1,4,14.1,2,11.8,2C9.4,2,7.5,4,7.5,6.3c0,2.2,1.7,4,3.9,4.2v1.7H8
			v3.5H2.6c-0.2,0-0.3,0.2-0.3,0.3s0.2,0.3,0.3,0.3H8v3.4h7.6v-3.4h5.3c0.2,0,0.3-0.2,0.3-0.3S21,15.7,20.8,15.7z M8.2,6.3
			c0-2,1.6-3.5,3.5-3.5s3.5,1.6,3.5,3.5s-1.6,3.5-3.5,3.5S8.2,8.3,8.2,6.3z M15,19.3H8.5v-6.6H15V19.3z"/>
		<path d="M10.1,13.6v4.9l3.3-2.4L10.1,13.6z M10.6,14.6l2,1.5l-2,1.5V14.6z"/>
	</g>
</g>
</svg>
