<?xml version="1.0" encoding="utf-8"?>
<!-- Generator: Adobe Illustrator 22.0.1, SVG Export Plug-In . SVG Version: 6.00 Build 0)  -->
<svg version="1.1" id="Layer_1" xmlns="http://www.w3.org/2000/svg" xmlns:xlink="http://www.w3.org/1999/xlink" x="0px" y="0px"
	 viewBox="0 0 11.7 11.7" style="enable-background:new 0 0 11.7 11.7;" xml:space="preserve">
<style type="text/css">
	.st0{fill:#3799FD;}
</style>
<g>
	<title>WaterSource_Icon</title>
	<path id="Water_Source_1_" class="st0" d="M11.7,0.6L11.1,0L7.9,3.2c-0.6-0.4-1.3-0.7-2-0.7C4.1,2.5,2.6,4,2.6,5.8
		c0,0.7,0.2,1.4,0.7,2L1.6,9.4l-0.6-1L0.7,9.9l-0.5,1.2l0,0.1l0,0L0,11.7L1.8,11l1.5-0.4l-1-0.5l1.6-1.6c0.6,0.4,1.3,0.7,2,0.7
		c1.8,0,3.3-1.5,3.3-3.3c0-0.7-0.2-1.4-0.7-2L11.7,0.6z M5.9,3.4c0.5,0,1,0.1,1.3,0.4L3.9,7.2C3.6,6.8,3.5,6.3,3.5,5.8
		C3.5,4.5,4.6,3.4,5.9,3.4z M8.3,5.8c0,1.3-1.1,2.4-2.4,2.4c-0.5,0-1-0.1-1.3-0.4l3.3-3.3C8.2,4.9,8.3,5.3,8.3,5.8L8.3,5.8z"/>
</g>
</svg>
