<?xml version="1.0" encoding="utf-8"?>
<!-- Generator: Adobe Illustrator 22.0.1, SVG Export Plug-In . SVG Version: 6.00 Build 0)  -->
<svg version="1.1" xmlns="http://www.w3.org/2000/svg" xmlns:xlink="http://www.w3.org/1999/xlink" x="0px" y="0px"
	 viewBox="0 0 23.4 23.4" style="enable-background:new 0 0 23.4 23.4;" xml:space="preserve">
<style type="text/css">
	.st0{fill:#FFFFFF;}
</style>
<g id="Layer_1">
	<circle class="st0" cx="11.7" cy="11.7" r="11.6"/>
</g>
<g id="Layer_2">
	<path d="M11.7,23.4C5.3,23.4,0,18.2,0,11.7C0,5.3,5.3,0,11.7,0c6.5,0,11.7,5.3,11.7,11.7C23.4,18.2,18.2,23.4,11.7,23.4z M11.7,0.2
		C5.3,0.2,0.2,5.3,0.2,11.7s5.2,11.5,11.5,11.5c6.4,0,11.5-5.2,11.5-11.5S18.1,0.2,11.7,0.2z"/>
</g>
<g id="Layer_3">
	<path d="M21,15.8h-5.3v-3.7h-1.3h-2.4v-1.6c2.3-0.2,4.1-2,4.1-4.3c0-2.4-2-4.4-4.4-4.4s-4.4,2-4.4,4.4c0,2.3,1.7,4.1,3.9,4.3v1.6H9
		H7.8v3.7H2.4c-0.2,0-0.4,0.2-0.4,0.4c0,0.2,0.2,0.4,0.4,0.4h5.3v3.6h8v-3.6H21c0.2,0,0.4-0.2,0.4-0.4C21.3,16,21.2,15.8,21,15.8z
		 M8.1,6.3c0-2,1.6-3.6,3.6-3.6c2,0,3.6,1.6,3.6,3.6c0,2-1.6,3.6-3.6,3.6C9.8,9.9,8.1,8.3,8.1,6.3z M13,12.9l-1.2,1.7l-1.3-1.7H13z
		 M15,19.4H8.5v-6.5h1l2.2,2.9l2.2-2.9H15V19.4z"/>
</g>
</svg>
