<?xml version="1.0" encoding="utf-8"?>
<!-- Generator: Adobe Illustrator 23.0.3, SVG Export Plug-In . SVG Version: 6.00 Build 0)  -->
<svg version="1.1" xmlns="http://www.w3.org/2000/svg" xmlns:xlink="http://www.w3.org/1999/xlink" x="0px" y="0px"
	 viewBox="0 0 21 21" style="enable-background:new 0 0 21 21;" xml:space="preserve">
<style type="text/css">
	.st0{fill:#FFFFFF;}
</style>
<g id="Layer_1">
</g>
<g id="Isolation_Mode">
	<path class="st0" d="M18.1,10.1c-0.1-0.7-0.2-1.4-0.4-2.1l2.1-2.2c-0.6-1.2-1.4-2.2-2.4-3.1l-2.6,1.6c-0.6-0.4-1.3-0.7-2-1
		l-0.4-3.1C11.8,0.1,11.2,0,10.5,0S9.2,0.1,8.6,0.2L8.2,3.3c-0.7,0.2-1.4,0.6-2,1L3.6,2.6c-1,0.9-1.8,1.9-2.4,3.1L3.3,8
		c-0.2,0.7-0.4,1.4-0.5,2.1L0,11.2c0.1,1.4,0.4,2.7,0.9,3.9L4,14.7c0.3,0.6,0.8,1.1,1.3,1.6l-1,3c1,0.8,2.3,1.4,3.5,1.7l1.7-2.6
		c0.3,0,0.7,0.1,1,0.1c0.3,0,0.7,0,1-0.1l1.7,2.6c1.3-0.3,2.5-0.9,3.5-1.7l-1-3c0.5-0.5,0.9-1,1.3-1.6l3.1,0.3
		c0.5-1.2,0.9-2.5,0.9-3.9L18.1,10.1z M10.5,14.1c-2,0-3.6-1.6-3.6-3.6s1.6-3.6,3.6-3.6c2,0,3.6,1.6,3.6,3.6S12.5,14.1,10.5,14.1z"
		/>
</g>
</svg>
