<?xml version="1.0" encoding="utf-8"?>
<!-- Generator: Adobe Illustrator 23.0.1, SVG Export Plug-In . SVG Version: 6.00 Build 0)  -->
<svg version="1.1" id="Layer_95" xmlns="http://www.w3.org/2000/svg" xmlns:xlink="http://www.w3.org/1999/xlink" x="0px" y="0px"
	 viewBox="0 0 21 21" style="enable-background:new 0 0 21 21;" xml:space="preserve">
<style type="text/css">
	.st0{fill:#FFFFFF;}
</style>
<path class="st0" d="M16.72,0.99l3.29,3.29l-1.9,1.91L14.83,2.9L16.72,0.99 M12.62,5.1l3.29,3.29L3.99,20.3H0.7v-3.29L12.62,5.1
	 M16.72,0l-2.89,2.9l4.28,4.28L21,4.28L16.72,0L16.72,0z M12.62,4.11L0,16.72V21h4.28L16.89,8.38L12.62,4.11L12.62,4.11z"/>
</svg>
