<?xml version="1.0" encoding="utf-8"?>
<!-- Generator: Adobe Illustrator 23.0.1, SVG Export Plug-In . SVG Version: 6.00 Build 0)  -->
<svg version="1.1" xmlns="http://www.w3.org/2000/svg" xmlns:xlink="http://www.w3.org/1999/xlink" x="0px" y="0px"
	 viewBox="0 0 21 21" style="enable-background:new 0 0 21 21;" xml:space="preserve">
<style type="text/css">
	.st0{fill:#FFFFFF;}
</style>
<g id="Layer_1">
</g>
<g id="Layer_2">
	<path class="st0" d="M19.6,0h-5.2h-0.7H7.3H6.6H1.4C0.6,0,0,0.6,0,1.4v4.9V7v6.3v0.7v5.5C0,20.4,0.6,21,1.4,21h5.2h0.7h6.3h0.7h5.2
		c0.8,0,1.4-0.6,1.4-1.4v-5.5v-0.7V7V6.3V1.4C21,0.6,20.4,0,19.6,0z M13.7,0.7v5.6H7.3V0.7H13.7z M13.7,7v6.3H7.3V7H13.7z M0.7,1.4
		C0.7,1,1,0.7,1.4,0.7h5.2v5.6H0.7V1.4z M0.7,7h5.9v6.3H0.7V7z M1.4,20.3c-0.4,0-0.7-0.3-0.7-0.7v-5.5h5.9v6.2H1.4z M7.3,20.3v-6.2
		h6.3v6.2H7.3z M20.3,19.6c0,0.4-0.3,0.7-0.7,0.7h-5.2v-6.2h5.9V19.6z M20.3,13.4h-5.9V7h5.9V13.4z M14.4,6.3V0.7h5.2
		c0.4,0,0.7,0.3,0.7,0.7v4.9H14.4z"/>
</g>
</svg>
