<?xml version="1.0" encoding="utf-8"?>
<!-- Generator: Adobe Illustrator 22.1.0, SVG Export Plug-In . SVG Version: 6.00 Build 0)  -->
<svg version="1.1" id="Layer_1" xmlns="http://www.w3.org/2000/svg" xmlns:xlink="http://www.w3.org/1999/xlink" x="0px" y="0px"
	 viewBox="0 0 46.7 45.1" style="enable-background:new 0 0 46.7 45.1;" xml:space="preserve">
<style type="text/css">
	.st0{fill:#0394B5;}
</style>
<g>
	<rect y="41.1" class="st0" width="46.7" height="4.1"/>
	<rect x="1.2" y="32.5" class="st0" width="18.3" height="4.1"/>
	<rect x="27.2" y="32.5" class="st0" width="18.3" height="4.1"/>
	<rect x="3.2" y="24.4" class="st0" width="14.2" height="4.1"/>
	<rect x="29.2" y="24.4" class="st0" width="14.2" height="4.1"/>
	<rect x="5.3" y="16.3" class="st0" width="10.2" height="4.1"/>
	<rect x="31.3" y="16.3" class="st0" width="10.2" height="4.1"/>
	<rect x="5.3" y="8.2" class="st0" width="10.2" height="4.1"/>
	<rect x="31.3" y="8.2" class="st0" width="10.2" height="4.1"/>
	<rect x="5.3" y="0" class="st0" width="10.2" height="4.1"/>
	<rect x="31.3" y="0" class="st0" width="10.2" height="4.1"/>
</g>
</svg>
