<?xml version="1.0" encoding="utf-8"?>
<!-- Generator: Adobe Illustrator 22.1.0, SVG Export Plug-In . SVG Version: 6.00 Build 0)  -->
<svg version="1.1" xmlns="http://www.w3.org/2000/svg" xmlns:xlink="http://www.w3.org/1999/xlink" x="0px" y="0px"
	 viewBox="0 0 21.1 19.7" style="enable-background:new 0 0 21.1 19.7;" xml:space="preserve">
<style type="text/css">
	.st0{display:none;}
	.st1{fill:#FFFFFF;}
	.st2{fill:none;stroke:#FFFFFF;stroke-miterlimit:10;}
</style>
<g id="Layer_1" class="st0">
</g>
<g id="Layer_2">
	<g>
		<path class="st1" d="M2.1,19.7L2.1,19.7c-0.6,0-1-0.4-1-1v-5.9c0-0.6,0.4-1,1-1h0c0.6,0,1,0.4,1,1v5.9C3.1,19.2,2.6,19.7,2.1,19.7
			z"/>
		<path class="st1" d="M7.7,19.7L7.7,19.7c-0.6,0-1-0.4-1-1V7.7c0-0.6,0.4-1,1-1h0c0.6,0,1,0.4,1,1v10.9C8.7,19.2,8.3,19.7,7.7,19.7
			z"/>
		<path class="st1" d="M13.4,19.7L13.4,19.7c-0.6,0-1-0.4-1-1v-5.9c0-0.6,0.4-1,1-1h0c0.6,0,1,0.4,1,1v5.9
			C14.4,19.2,14,19.7,13.4,19.7z"/>
		<path class="st1" d="M19.1,19.7L19.1,19.7c-0.6,0-1-0.4-1-1V9.8c0-0.6,0.4-1,1-1h0c0.6,0,1,0.4,1,1v8.9
			C20.1,19.2,19.6,19.7,19.1,19.7z"/>
		<g>
			<path class="st2" d="M2.1,6.7l5-4.8c0.4-0.4,1-0.4,1.4,0L12.7,6c0.4,0.4,1.1,0.4,1.5,0.1l4.9-4"/>
		</g>
		<circle class="st1" cx="2.1" cy="6.7" r="2.1"/>
		<circle class="st1" cx="19.1" cy="2.1" r="2.1"/>
	</g>
</g>
</svg>
