<?xml version="1.0" encoding="utf-8"?>
<!-- Generator: Adobe Illustrator 22.1.0, SVG Export Plug-In . SVG Version: 6.00 Build 0)  -->
<svg version="1.1" id="Layer_1" xmlns="http://www.w3.org/2000/svg" xmlns:xlink="http://www.w3.org/1999/xlink" x="0px" y="0px"
	 viewBox="0 0 47 41.6" style="enable-background:new 0 0 47 41.6;" xml:space="preserve">
<style type="text/css">
	.st0{fill:#0394B5;}
</style>
<g>
	<polygon class="st0" points="42.4,0 42.4,37.2 32.4,37.2 32.4,0 30.2,0 30.2,37.2 16.8,37.2 16.8,0 14.6,0 14.6,37.2 4.6,37.2 
		4.6,0 0.1,0 0.1,41.6 46.9,41.6 46.9,0 	"/>
	<circle class="st0" cx="23.5" cy="14.1" r="4.1"/>
	<circle class="st0" cx="23.5" cy="28.4" r="2.5"/>
	<circle class="st0" cx="9.4" cy="19.7" r="2.6"/>
	<circle class="st0" cx="9.4" cy="4.3" r="1.6"/>
	<circle class="st0" cx="9.4" cy="32" r="1.6"/>
	<circle class="st0" cx="38.2" cy="28.4" r="1.4"/>
	<circle class="st0" cx="38.2" cy="15.8" r="2.4"/>
</g>
</svg>
