<?xml version="1.0" encoding="utf-8"?>
<!-- Generator: Adobe Illustrator 22.1.0, SVG Export Plug-In . SVG Version: 6.00 Build 0)  -->
<svg version="1.1" id="Layer_1" xmlns="http://www.w3.org/2000/svg" xmlns:xlink="http://www.w3.org/1999/xlink" x="0px" y="0px"
	 viewBox="0 0 47 47" style="enable-background:new 0 0 47 47;" xml:space="preserve">
<style type="text/css">
	.st0{fill:#0394B5;}
</style>
<path class="st0" d="M0,0v47h47V0H0z M30.8,7.5v11.7H2.3V7.5H30.8z M2.3,21.5h28.5V32H2.3V21.5z M33.1,21.5h11.6V32H33.1V21.5z
	 M33.1,19.2V7.5h11.6v11.7H33.1z M2.3,34.3h28.5v10.4H2.3V34.3z M33.1,44.7V34.3h11.6v10.4H33.1z"/>
</svg>
