<?xml version="1.0" encoding="utf-8"?>
<!-- Generator: Adobe Illustrator 22.1.0, SVG Export Plug-In . SVG Version: 6.00 Build 0)  -->
<svg version="1.1" id="Layer_1" xmlns="http://www.w3.org/2000/svg" xmlns:xlink="http://www.w3.org/1999/xlink" x="0px" y="0px"
	 viewBox="0 0 50 37.5" style="enable-background:new 0 0 50 37.5;" xml:space="preserve">
<style type="text/css">
	.st0{fill:#0394B5;}
</style>
<g>
	<path class="st0" d="M25,30.6c-11.4,0-21-3.8-24-9c-0.6,1.1-1,2.3-1,3.5c0,6.9,11.2,12.5,25,12.5S50,31.9,50,25
		c0-1.2-0.4-2.4-1-3.5C46,26.7,36.4,30.6,25,30.6z"/>
	<path class="st0" d="M25.1,12.5l24.8,1.7C48.1,20.4,37.5,25,25.1,25c-13.7,0-25-5.6-25-12.5S11.3,0,25.1,0c7.6,0,14.7,1.7,19.5,4.7
		L25.1,12.5z"/>
</g>
</svg>
