<?xml version="1.0" encoding="utf-8"?>
<!-- Generator: Adobe Illustrator 22.1.0, SVG Export Plug-In . SVG Version: 6.00 Build 0)  -->
<svg version="1.1" id="Layer_1" xmlns="http://www.w3.org/2000/svg" xmlns:xlink="http://www.w3.org/1999/xlink" x="0px" y="0px"
	 viewBox="0 0 45.7 50" style="enable-background:new 0 0 45.7 50;" xml:space="preserve">
<style type="text/css">
	.st0{fill:#0394B5;}
	.st1{fill:none;stroke:#0394B5;stroke-width:3.9048;stroke-miterlimit:10;}
	.st2{fill:none;stroke:#0394B5;stroke-width:3.6342;stroke-miterlimit:10;}
</style>
<g>
	<g>
		<path class="st0" d="M17.6,50H2c-1.1,0-2-0.9-2-2v-9.5c0-1.1,0.9-2,2-2h15.6c1.1,0,2,0.9,2,2V48C19.5,49.1,18.6,50,17.6,50z"/>
		<path class="st0" d="M17.6,31.7H2c-1.1,0-2-0.9-2-2v-9.5c0-1.1,0.9-2,2-2h15.6c1.1,0,2,0.9,2,2v9.5C19.5,30.8,18.6,31.7,17.6,31.7
			z"/>
		<path class="st0" d="M17.6,13.4H2c-1.1,0-2-0.9-2-2V2c0-1.1,0.9-2,2-2h15.6c1.1,0,2,0.9,2,2v9.5C19.5,12.5,18.6,13.4,17.6,13.4z"
			/>
		<line class="st1" x1="9.8" y1="6.7" x2="9.8" y2="43.3"/>
	</g>
	<g>
		<path class="st0" d="M43.9,50H28c-1,0-1.8-0.8-1.8-1.8v-8c0-1,0.8-1.8,1.8-1.8h15.9c1,0,1.8,0.8,1.8,1.8v8
			C45.7,49.2,44.9,50,43.9,50z"/>
		<path class="st0" d="M43.9,34.1H28c-1,0-1.8-0.8-1.8-1.8v-8c0-1,0.8-1.8,1.8-1.8h15.9c1,0,1.8,0.8,1.8,1.8v8
			C45.7,33.3,44.9,34.1,43.9,34.1z"/>
		<path class="st0" d="M43.9,18.3H28c-1,0-1.8-0.8-1.8-1.8v-8c0-1,0.8-1.8,1.8-1.8h15.9c1,0,1.8,0.8,1.8,1.8v8
			C45.7,17.5,44.9,18.3,43.9,18.3z"/>
		<line class="st2" x1="35.9" y1="12.5" x2="35.9" y2="44.2"/>
	</g>
</g>
</svg>
