<?xml version="1.0" encoding="utf-8"?>
<!-- Generator: Adobe Illustrator 22.1.0, SVG Export Plug-In . SVG Version: 6.00 Build 0)  -->
<svg version="1.1" id="Layer_1" xmlns="http://www.w3.org/2000/svg" xmlns:xlink="http://www.w3.org/1999/xlink" x="0px" y="0px"
	 viewBox="0 0 47 47" style="enable-background:new 0 0 47 47;" xml:space="preserve">
<style type="text/css">
	.st0{fill:#0394B5;}
</style>
<g>
	<g>
		<path class="st0" d="M0.6,24.5L0,12.6l2.8,0.5l0,4.8c0,1.4,0,2.9-0.1,4.1l0,0c0.4-1.2,0.9-2.5,1.5-3.9L6,13.7l2.7,0.5l0,5
			c0,1.4,0,2.6-0.1,3.9l0,0c0.4-1.2,0.9-2.5,1.4-3.8l1.8-4.5l2.6,0.5l-5,10.8l-2.8-0.5l-0.1-5.1c0-1.2,0-2.3,0.1-3.6l0,0
			c-0.4,1.2-0.8,2.3-1.3,3.4l-2,4.7L0.6,24.5z"/>
		<path class="st0" d="M18.4,27.9c-3.4-0.6-4.9-3.5-4.3-6.8c0.6-3.4,3.3-5.6,6.6-4.9c3.5,0.6,4.9,3.6,4.3,6.7
			C24.4,26.7,21.8,28.5,18.4,27.9L18.4,27.9z M18.9,25.9c1.7,0.3,3-1.1,3.4-3.4c0.4-2-0.3-4-2-4.3c-1.8-0.3-3.1,1.2-3.5,3.3
			C16.5,23.7,17.2,25.6,18.9,25.9L18.9,25.9z"/>
		<path class="st0" d="M27.8,17.9c0.9,0,2.1,0.1,3.5,0.4c1.7,0.3,2.8,0.8,3.5,1.6c0.6,0.7,0.8,1.5,0.6,2.6c-0.3,1.4-1.5,2.2-2.5,2.4
			l0,0c0.7,0.5,1,1.3,1.1,2.4c0.1,1.4,0.2,2.9,0.3,3.4l-2.6-0.5c-0.1-0.4-0.2-1.3-0.3-2.8c-0.1-1.5-0.5-2-1.5-2.2l-0.8-0.1l-0.8,4.5
			l-2.5-0.5L27.8,17.9z M29.4,23.2l1,0.2c1.3,0.2,2.2-0.3,2.3-1.3c0.2-1-0.4-1.7-1.6-1.9c-0.6-0.1-1-0.1-1.2-0.1L29.4,23.2z"/>
		<path class="st0" d="M37.8,19.7c1,0,2.2,0.1,3.5,0.4c2.2,0.4,3.5,1.1,4.5,2.1c1,1.1,1.5,2.6,1.1,4.6c-0.4,2.2-1.5,3.5-2.7,4.3
			c-1.4,0.8-3.3,0.9-5.5,0.5c-1.3-0.2-2.3-0.5-2.9-0.7L37.8,19.7z M38.6,29.4c0.2,0.1,0.6,0.2,0.9,0.2c2.3,0.4,4.1-0.6,4.6-3.3
			c0.4-2.4-0.7-3.9-2.9-4.3C40.6,22,40.2,22,40,22L38.6,29.4z"/>
	</g>
	<g>
		<path class="st0" d="M17.6,14.1l-2.3-7.5l1-0.1l1.1,3.8c0.3,0.9,0.5,1.9,0.7,2.6h0c0.1-0.8,0.3-1.7,0.5-2.7l0.8-3.9l1-0.1l1.1,3.8
			c0.3,0.9,0.5,1.8,0.7,2.6l0,0c0.1-0.8,0.3-1.7,0.5-2.7l0.8-3.9l1-0.1l-1.8,7.8l-1,0.1l-1.2-3.9c-0.3-1-0.5-1.7-0.6-2.5l0,0
			C19.9,8.2,19.8,9,19.6,10l-0.9,4L17.6,14.1z"/>
		<path class="st0" d="M32.3,9.4c0.1,2.6-1.4,4.1-3.3,4.2c-2,0.1-3.5-1.4-3.6-3.7c-0.1-2.4,1.3-4.1,3.3-4.2
			C30.8,5.6,32.2,7.1,32.3,9.4z M26.4,9.8c0.1,1.6,1,3,2.6,3c1.6-0.1,2.4-1.6,2.3-3.3c-0.1-1.5-1-3.1-2.6-3
			C27,6.6,26.3,8.2,26.4,9.8z"/>
		<path class="st0" d="M33.4,5.7c0.5-0.1,1.2-0.2,1.9-0.3c1.1-0.1,1.7,0.1,2.2,0.5c0.4,0.3,0.6,0.8,0.7,1.4c0.1,1-0.5,1.7-1.3,2l0,0
			c0.6,0.2,1,0.7,1.2,1.5c0.3,1.1,0.5,1.8,0.7,2.1l-1,0.1c-0.1-0.2-0.3-0.9-0.6-1.8c-0.3-1-0.7-1.4-1.6-1.4l-0.9,0l0.2,3.3l-1,0.1
			L33.4,5.7z M34.6,9.1l1-0.1c1.1-0.1,1.7-0.7,1.6-1.5c-0.1-1-0.8-1.4-1.8-1.3c-0.5,0-0.8,0.1-1,0.1L34.6,9.1z"/>
		<path class="st0" d="M39.5,5.4c0.6-0.1,1.3-0.2,2.1-0.3C43,5,44,5.3,44.7,5.9c0.7,0.6,1.2,1.5,1.2,2.7c0.1,1.2-0.3,2.3-0.9,3
			c-0.7,0.7-1.8,1.2-3.3,1.3c-0.7,0-1.3,0-1.8,0L39.5,5.4z M40.8,12.1c0.3,0,0.6,0,1,0C44,12,45,10.7,44.9,8.7
			c-0.1-1.8-1.2-2.9-3.2-2.8c-0.5,0-0.9,0.1-1.2,0.2L40.8,12.1z"/>
	</g>
	<g>
		<path class="st0" d="M3.7,41.3L1,34.5l1-0.1l1.3,3.5c0.3,0.9,0.6,1.7,0.8,2.4l0,0c0-0.7,0.1-1.6,0.3-2.5L4.9,34l1-0.1l1.3,3.5
			c0.3,0.8,0.6,1.6,0.8,2.4l0,0c0.1-0.8,0.2-1.6,0.3-2.5l0.5-3.7l0.9-0.1l-1.1,7.4l-1,0.1l-1.4-3.6c-0.3-0.9-0.6-1.6-0.8-2.3l0,0
			c0,0.7-0.1,1.4-0.3,2.4l-0.5,3.8L3.7,41.3z"/>
		<path class="st0" d="M17.1,36c0.3,2.5-1,3.9-2.8,4.2c-1.9,0.2-3.4-1.1-3.7-3.2c-0.3-2.3,0.9-3.9,2.8-4.2
			C15.4,32.5,16.8,33.9,17.1,36z M11.5,36.8c0.2,1.5,1.2,2.8,2.6,2.6c1.5-0.2,2.1-1.6,1.9-3.2c-0.2-1.4-1.1-2.8-2.6-2.6
			C11.9,33.7,11.4,35.2,11.5,36.8z"/>
		<path class="st0" d="M17.8,32.4c0.5-0.2,1.1-0.3,1.7-0.4c1-0.1,1.6,0,2.1,0.3c0.4,0.3,0.7,0.7,0.7,1.3c0.1,0.9-0.4,1.6-1.1,2l0,0
			c0.6,0.1,1,0.6,1.2,1.3c0.4,1,0.6,1.6,0.8,1.9l-1,0.1c-0.1-0.2-0.4-0.8-0.7-1.6c-0.3-1-0.8-1.3-1.6-1.2l-0.9,0.1l0.4,3.1l-0.9,0.1
			L17.8,32.4z M19.2,35.6l0.9-0.1c1-0.1,1.5-0.7,1.4-1.6c-0.1-0.9-0.8-1.2-1.8-1.1c-0.4,0.1-0.8,0.1-0.9,0.2L19.2,35.6z"/>
		<path class="st0" d="M23.5,31.7c0.5-0.2,1.2-0.3,1.9-0.4c1.3-0.2,2.3,0,3,0.5c0.7,0.5,1.2,1.3,1.3,2.4c0.1,1.2-0.1,2.2-0.7,2.9
			c-0.6,0.7-1.6,1.2-3,1.4c-0.7,0.1-1.2,0.1-1.7,0.1L23.5,31.7z M25.2,37.9c0.2,0,0.6,0,0.9-0.1c2-0.2,2.9-1.5,2.7-3.4
			c-0.2-1.7-1.3-2.6-3.2-2.4c-0.5,0.1-0.8,0.1-1.1,0.2L25.2,37.9z"/>
	</g>
</g>
</svg>
