<?xml version="1.0" encoding="utf-8"?>
<!-- Generator: Adobe Illustrator 22.1.0, SVG Export Plug-In . SVG Version: 6.00 Build 0)  -->
<svg version="1.1" id="Layer_1" xmlns="http://www.w3.org/2000/svg" xmlns:xlink="http://www.w3.org/1999/xlink" x="0px" y="0px"
	 viewBox="0 0 47 47" style="enable-background:new 0 0 47 47;" xml:space="preserve">
<style type="text/css">
	.st0{fill:#FFFFFF;}
</style>
<path class="st0" d="M45.6,0H1.4C0.6,0,0,0.6,0,1.4v44.2C0,46.4,0.6,47,1.4,47h44.2c0.8,0,1.4-0.6,1.4-1.4V1.4C47,0.6,46.4,0,45.6,0
	z M30.5,23.5h-4.6v16.4h-6.8V23.5h-3.2v-5.8h3.2V14c0-2.7,1.3-6.9,6.9-6.9l5.1,0v5.6h-3.7c-0.6,0-1.4,0.3-1.4,1.6v3.4h5.2L30.5,23.5
	z"/>
</svg>
