<?xml version="1.0" encoding="utf-8"?>
<!-- Generator: Adobe Illustrator 22.1.0, SVG Export Plug-In . SVG Version: 6.00 Build 0)  -->
<svg version="1.1" id="Layer_1" xmlns="http://www.w3.org/2000/svg" xmlns:xlink="http://www.w3.org/1999/xlink" x="0px" y="0px"
	 viewBox="0 0 170.5 26.5" style="enable-background:new 0 0 170.5 26.5;" xml:space="preserve">
<style type="text/css">
	.st0{fill:#3872B9;}
	.st1{fill:#FFFFFF;}
</style>
<g>
	<g>
		
			<image style="overflow:visible;opacity:0.16;" width="208" height="63" xlink:href="43AE97FE.png"  transform="matrix(1 0 0 1 -18.9824 -15.2861)">
		</image>
		<g>
			<g>
				<path class="st0" d="M168.3,26.2H2.3c-1.1,0-2-0.9-2-2v-22c0-1.1,0.9-2,2-2h166c1.1,0,2,0.9,2,2v22
					C170.3,25.4,169.4,26.2,168.3,26.2z"/>
				<path d="M168.3,26.5H2.3c-1.2,0-2.3-1-2.3-2.3v-22C0,1,1,0,2.3,0h166c1.2,0,2.3,1,2.3,2.3v22C170.5,25.5,169.5,26.5,168.3,26.5z
					 M2.3,0.5c-1,0-1.8,0.8-1.8,1.8v22c0,1,0.8,1.8,1.8,1.8h166c1,0,1.8-0.8,1.8-1.8v-22c0-1-0.8-1.8-1.8-1.8H2.3z"/>
			</g>
		</g>
	</g>
	<g>
		<path class="st1" d="M43.4,6.6v7.8c0,0.8-0.2,1.4-0.5,2c-0.3,0.6-0.8,1-1.4,1.3c-0.6,0.3-1.3,0.5-2.1,0.5c-1.2,0-2.2-0.3-2.9-1
			c-0.7-0.7-1.1-1.6-1.1-2.7V6.6h1v7.7c0,1,0.3,1.7,0.8,2.2c0.5,0.5,1.3,0.8,2.2,0.8s1.7-0.3,2.2-0.8c0.5-0.5,0.8-1.3,0.8-2.2V6.6
			H43.4z"/>
		<path class="st1" d="M52.6,13.8c0,1.3-0.3,2.4-0.9,3.1c-0.6,0.8-1.4,1.2-2.3,1.2c-1.2,0-2-0.4-2.7-1.2v4.3h-0.9V9.5h0.9l0,1.2
			c0.6-0.9,1.5-1.4,2.6-1.4c1,0,1.8,0.4,2.4,1.1c0.6,0.8,0.9,1.8,0.9,3.2V13.8z M51.7,13.6c0-1.1-0.2-1.9-0.7-2.6
			c-0.4-0.6-1.1-0.9-1.9-0.9c-0.6,0-1.1,0.1-1.5,0.4c-0.4,0.3-0.7,0.7-0.9,1.2v4.1c0.2,0.5,0.5,0.9,1,1.1c0.4,0.3,0.9,0.4,1.5,0.4
			c0.8,0,1.4-0.3,1.8-0.9C51.5,15.7,51.7,14.8,51.7,13.6z"/>
		<path class="st1" d="M54.3,13.6c0-1.3,0.3-2.4,0.9-3.1c0.6-0.8,1.4-1.2,2.4-1.2c1.1,0,2,0.5,2.6,1.4V5.9h0.9v12h-0.9l0-1.1
			c-0.6,0.9-1.5,1.3-2.6,1.3c-1,0-1.8-0.4-2.4-1.2c-0.6-0.8-0.9-1.8-0.9-3.2V13.6z M55.3,13.8c0,1.1,0.2,1.9,0.6,2.6
			c0.4,0.6,1,0.9,1.8,0.9c1.2,0,2-0.5,2.5-1.5v-4c-0.5-1.1-1.3-1.6-2.4-1.6c-0.8,0-1.4,0.3-1.8,0.9S55.3,12.6,55.3,13.8z"/>
		<path class="st1" d="M68.9,17.9c-0.1-0.3-0.2-0.7-0.2-1.2c-0.3,0.4-0.7,0.8-1.3,1s-1,0.3-1.6,0.3c-0.8,0-1.5-0.2-2-0.7
			c-0.5-0.5-0.8-1-0.8-1.7c0-0.8,0.3-1.5,1-2c0.7-0.5,1.6-0.7,2.9-0.7h1.7v-1c0-0.6-0.2-1.1-0.6-1.4c-0.4-0.3-0.9-0.5-1.6-0.5
			c-0.7,0-1.2,0.2-1.6,0.5c-0.4,0.3-0.6,0.7-0.6,1.2l-0.9,0c0-0.7,0.3-1.3,0.9-1.7s1.4-0.7,2.3-0.7c0.9,0,1.7,0.2,2.2,0.7
			c0.5,0.5,0.8,1.1,0.8,2v4c0,0.8,0.1,1.4,0.3,1.8v0.1H68.9z M66,17.3c0.6,0,1.2-0.2,1.7-0.5c0.5-0.3,0.9-0.7,1.1-1.2v-1.9h-1.7
			c-0.9,0-1.7,0.2-2.2,0.5c-0.5,0.3-0.8,0.8-0.8,1.4c0,0.5,0.2,0.9,0.5,1.2S65.4,17.3,66,17.3z"/>
		<path class="st1" d="M73.6,7.3v2.2h1.8v0.8h-1.8v5.6c0,0.5,0.1,0.8,0.3,1c0.2,0.2,0.5,0.3,0.8,0.3c0.2,0,0.4,0,0.8-0.1l0,0.8
			c-0.2,0.1-0.6,0.1-1,0.1c-0.6,0-1.1-0.2-1.4-0.6c-0.3-0.4-0.4-0.9-0.4-1.6v-5.6h-1.6V9.5h1.6V7.3H73.6z"/>
		<path class="st1" d="M80.6,18.1c-0.7,0-1.4-0.2-1.9-0.5c-0.6-0.4-1-0.8-1.4-1.5c-0.3-0.6-0.5-1.3-0.5-2.1v-0.3
			c0-0.8,0.2-1.5,0.5-2.2c0.3-0.7,0.8-1.2,1.3-1.5c0.6-0.4,1.2-0.6,1.8-0.6c1,0,1.8,0.4,2.4,1.1c0.6,0.7,0.9,1.7,0.9,2.9v0.5h-6V14
			c0,1,0.3,1.8,0.8,2.4c0.5,0.6,1.2,1,2.1,1c0.5,0,0.9-0.1,1.3-0.3c0.4-0.2,0.7-0.5,1-0.9l0.6,0.4C82.9,17.6,81.9,18.1,80.6,18.1z
			 M80.4,10.1c-0.7,0-1.3,0.3-1.8,0.8c-0.5,0.5-0.8,1.2-0.9,2.1h5.1v-0.1c0-0.8-0.3-1.5-0.7-2C81.7,10.4,81.1,10.1,80.4,10.1z"/>
		<path class="st1" d="M96.3,13.8c0,1.3-0.3,2.4-0.9,3.1c-0.6,0.8-1.4,1.2-2.3,1.2c-1.2,0-2-0.4-2.7-1.2v4.3h-0.9V9.5h0.9l0,1.2
			C91,9.8,91.9,9.3,93,9.3c1,0,1.8,0.4,2.4,1.1c0.6,0.8,0.9,1.8,0.9,3.2V13.8z M95.3,13.6c0-1.1-0.2-1.9-0.7-2.6
			c-0.4-0.6-1.1-0.9-1.9-0.9c-0.6,0-1.1,0.1-1.5,0.4c-0.4,0.3-0.7,0.7-0.9,1.2v4.1c0.2,0.5,0.5,0.9,1,1.1c0.4,0.3,0.9,0.4,1.5,0.4
			c0.8,0,1.4-0.3,1.8-0.9C95.1,15.7,95.3,14.8,95.3,13.6z"/>
		<path class="st1" d="M98.3,7.1c0-0.2,0.1-0.3,0.2-0.4c0.1-0.1,0.3-0.2,0.5-0.2c0.2,0,0.4,0.1,0.5,0.2s0.2,0.3,0.2,0.4
			s-0.1,0.3-0.2,0.4s-0.3,0.2-0.5,0.2c-0.2,0-0.4-0.1-0.5-0.2C98.3,7.4,98.3,7.2,98.3,7.1z M99.4,17.9h-0.9V9.5h0.9V17.9z"/>
		<path class="st1" d="M105.1,17.3c0.7,0,1.2-0.2,1.6-0.6c0.4-0.4,0.7-0.8,0.7-1.4h0.9c0,0.5-0.2,1-0.5,1.4c-0.3,0.4-0.7,0.8-1.2,1
			s-1,0.4-1.6,0.4c-1.1,0-2-0.4-2.6-1.2c-0.6-0.8-1-1.8-1-3.1v-0.3c0-0.8,0.1-1.6,0.4-2.2c0.3-0.6,0.7-1.1,1.3-1.5
			c0.5-0.3,1.2-0.5,1.9-0.5c0.9,0,1.7,0.3,2.3,0.8c0.6,0.6,0.9,1.3,1,2.2h-0.9c0-0.7-0.3-1.2-0.7-1.6c-0.4-0.4-1-0.6-1.6-0.6
			c-0.8,0-1.5,0.3-2,0.9c-0.5,0.6-0.7,1.5-0.7,2.6v0.3c0,1.1,0.2,1.9,0.7,2.5C103.5,17,104.2,17.3,105.1,17.3z"/>
		<path class="st1" d="M111.6,7.3v2.2h1.8v0.8h-1.8v5.6c0,0.5,0.1,0.8,0.3,1c0.2,0.2,0.5,0.3,0.8,0.3c0.2,0,0.4,0,0.8-0.1l0,0.8
			c-0.2,0.1-0.6,0.1-1,0.1c-0.6,0-1.1-0.2-1.4-0.6c-0.3-0.4-0.4-0.9-0.4-1.6v-5.6h-1.6V9.5h1.6V7.3H111.6z"/>
		<path class="st1" d="M120.8,16.9c-0.6,0.8-1.5,1.2-2.7,1.2c-0.9,0-1.6-0.3-2.1-0.8s-0.7-1.3-0.7-2.3V9.5h0.9v5.4
			c0,1.6,0.7,2.4,2,2.4c1.4,0,2.2-0.6,2.6-1.7V9.5h0.9v8.5h-0.9L120.8,16.9z"/>
		<path class="st1" d="M128,10.3c-0.2,0-0.4-0.1-0.6-0.1c-0.6,0-1.1,0.2-1.5,0.5c-0.4,0.3-0.7,0.8-0.9,1.4v5.8h-0.9V9.5h0.9l0,1.3
			c0.5-1,1.3-1.5,2.4-1.5c0.3,0,0.5,0,0.6,0.1L128,10.3z"/>
		<path class="st1" d="M132.6,18.1c-0.7,0-1.4-0.2-1.9-0.5c-0.6-0.4-1-0.8-1.4-1.5c-0.3-0.6-0.5-1.3-0.5-2.1v-0.3
			c0-0.8,0.2-1.5,0.5-2.2c0.3-0.7,0.8-1.2,1.3-1.5c0.6-0.4,1.2-0.6,1.8-0.6c1,0,1.8,0.4,2.4,1.1c0.6,0.7,0.9,1.7,0.9,2.9v0.5h-6V14
			c0,1,0.3,1.8,0.8,2.4c0.5,0.6,1.2,1,2.1,1c0.5,0,0.9-0.1,1.3-0.3c0.4-0.2,0.7-0.5,1-0.9l0.6,0.4C134.9,17.6,133.9,18.1,132.6,18.1
			z M132.4,10.1c-0.7,0-1.3,0.3-1.8,0.8c-0.5,0.5-0.8,1.2-0.9,2.1h5.1v-0.1c0-0.8-0.3-1.5-0.7-2C133.7,10.4,133.1,10.1,132.4,10.1z"
			/>
	</g>
</g>
</svg>
