<?xml version="1.0" encoding="utf-8"?>
<!-- Generator: Adobe Illustrator 23.0.3, SVG Export Plug-In . SVG Version: 6.00 Build 0)  -->
<svg version="1.1" xmlns="http://www.w3.org/2000/svg" xmlns:xlink="http://www.w3.org/1999/xlink" x="0px" y="0px"
	 viewBox="0 0 100.8 124.6" style="enable-background:new 0 0 100.8 124.6;" xml:space="preserve">
<g id="Layer_1">
</g>
<g id="Isolation_Mode">
	<g>
		<g>
			<g>
				<path d="M50.3,0.7c16.2,0,29.4,13.1,29.4,29.1S66.5,58.9,50.3,58.9S20.9,45.9,20.9,29.8S34.1,0.7,50.3,0.7 M50.3,0
					C33.7,0,20.2,13.3,20.2,29.8s13.5,29.8,30.1,29.8s30.1-13.3,30.1-29.8S66.9,0,50.3,0L50.3,0z"/>
				<path d="M23.5,60.5c8.8,6.6,17.9,10,26.9,10c9,0,18.2-3.3,27.3-10c14,9.9,21.6,24.8,22.4,44.4C88,117,69.7,123.9,49.9,123.9
					c-19.7,0-37.6-7-49.2-19.1C1.2,85.2,8.9,70.3,23.5,60.5 M77.6,59.6c-9.1,6.7-18.2,10.1-27.3,10.1c-9,0-17.9-3.3-26.9-10.1
					C7.9,69.9,0.5,85.3,0,105.1c12.4,13.1,31.1,19.5,49.9,19.5c19,0,38.1-6.6,50.8-19.5C100,84.9,92.3,69.7,77.6,59.6L77.6,59.6z"/>
			</g>
		</g>
	</g>
</g>
</svg>
