<?xml version="1.0" encoding="utf-8"?>
<!-- Generator: Adobe Illustrator 23.0.2, SVG Export Plug-In . SVG Version: 6.00 Build 0)  -->
<svg version="1.1" xmlns="http://www.w3.org/2000/svg" xmlns:xlink="http://www.w3.org/1999/xlink" x="0px" y="0px"
	 viewBox="0 0 21 21" style="enable-background:new 0 0 21 21;" xml:space="preserve">
<style type="text/css">
	.st0{fill:#FFFFFF;}
</style>
<g id="Layer_1">
</g>
<g id="Circled_Ics">
	<polygon class="st0" points="11.7,6.9 11.7,9.3 7.6,9.3 7.6,5 0,5 0,16 7.6,16 7.6,11.8 11.7,11.8 11.7,14.1 21,15.9 21,5.1 	"/>
</g>
</svg>
