<?xml version="1.0" encoding="utf-8"?>
<!-- Generator: Adobe Illustrator 23.0.2, SVG Export Plug-In . SVG Version: 6.00 Build 0)  -->
<svg version="1.1" xmlns="http://www.w3.org/2000/svg" xmlns:xlink="http://www.w3.org/1999/xlink" x="0px" y="0px"
	 viewBox="0 0 21 21" style="enable-background:new 0 0 21 21;" xml:space="preserve">
<style type="text/css">
	.st0{fill:#FFFFFF;}
</style>
<g id="Layer_1">
</g>
<g id="Isolation_Mode">
	<path class="st0" d="M21,20l-8.1-1.2l1.4-1.8l-5.9-4.6H0V8.6h8.4L14.3,4l-1.4-1.8L20.9,1l-3,7.6L16.6,7l-4.5,3.5l4.6,3.5l1.3-1.6
		L21,20z M14.7,18.1l4.9,0.7l-1.8-4.6l-0.9,1.1l-6.3-4.8l6.2-4.8l0.9,1.1l1.8-4.6l-4.9,0.7l1,1.3L8.7,9.6H0.9v1.9h7.8l6.9,5.4
		L14.7,18.1z"/>
</g>
</svg>
