<?xml version="1.0" encoding="utf-8"?>
<!-- Generator: Adobe Illustrator 23.0.2, SVG Export Plug-In . SVG Version: 6.00 Build 0)  -->
<svg version="1.1" xmlns="http://www.w3.org/2000/svg" xmlns:xlink="http://www.w3.org/1999/xlink" x="0px" y="0px"
	 viewBox="0 0 21 21" style="enable-background:new 0 0 21 21;" xml:space="preserve">
<style type="text/css">
	.st0{fill:#FFFFFF;}
</style>
<g id="Layer_1">
	<path class="st0" d="M19.4,19.9L18.4,0h-2.7l-0.5,9.6h-2.9V7.6c-0.6-3.4-5.7-3.4-6.3,0v7.2H4l-0.2-12H2L1.5,19.9H0V21h21v-1.1H19.4
		z M15.1,11.7l-0.4,8.2h-2.4v-8.2H15.1z M4.1,16.8h1.8v3.1H4.1L4.1,16.8z"/>
</g>
<g id="Layer_40">
</g>
<g id="Circled_Ics">
</g>
<g id="Isolation_Mode">
</g>
</svg>
