<?xml version="1.0" encoding="utf-8"?>
<!-- Generator: Adobe Illustrator 22.1.0, SVG Export Plug-In . SVG Version: 6.00 Build 0)  -->
<svg version="1.1" id="Layer_1" xmlns="http://www.w3.org/2000/svg" xmlns:xlink="http://www.w3.org/1999/xlink" x="0px" y="0px"
	 viewBox="0 0 47 47" style="enable-background:new 0 0 47 47;" xml:space="preserve">
<style type="text/css">
	.Steam_Injection_Icon_47x47{fill:#05C4B2;}
</style>
<path class="Steam_Injection_Icon_47x47" d="M34.4,22.6c0-0.2-0.1-0.4-0.1-0.6c0,0,0,0,0,0c0-0.2-0.1-0.4-0.1-0.6c0-0.1-0.1-0.3-0.1-0.4
	c0-0.1,0-0.2-0.1-0.3c0-0.1-0.1-0.3-0.1-0.4c-0.1-0.4-0.3-0.7-0.5-1.1c0-0.1-0.1-0.2-0.1-0.3c-0.1-0.1-0.1-0.2-0.2-0.3
	c-0.1-0.2-0.3-0.5-0.4-0.7c-0.1-0.2-0.3-0.4-0.4-0.6L47,2.5L44.5,0L30.8,13.7l-1.1,1.1c-0.2-0.1-0.4-0.3-0.6-0.4
	c-0.2-0.1-0.4-0.2-0.6-0.4c0,0,0,0-0.1,0c-0.2-0.1-0.3-0.2-0.5-0.3c-0.2-0.1-0.5-0.2-0.8-0.3c-0.2-0.1-0.4-0.2-0.7-0.3c0,0,0,0,0,0
	c-0.2-0.1-0.3-0.1-0.5-0.2c-0.1,0-0.2-0.1-0.3-0.1c-0.2,0-0.4-0.1-0.5-0.1c-0.2,0-0.4-0.1-0.7-0.1c0,0,0,0-0.1,0V4h-3.5v8.6
	c0,0,0,0-0.1,0c-0.2,0-0.4,0.1-0.7,0.1c-0.3,0-0.5,0.1-0.8,0.2c-0.2,0.1-0.4,0.1-0.6,0.2c-0.2,0.1-0.5,0.2-0.7,0.3
	c-0.2,0.1-0.4,0.2-0.7,0.3c-0.7,0.3-1.3,0.7-1.8,1.1l0,0c-0.9,0.7-1.8,1.5-2.5,2.5l0,0c-0.6,0.8-1.1,1.6-1.4,2.5
	c-0.2,0.4-0.3,0.9-0.5,1.4c-0.1,0.5-0.2,1-0.3,1.5h0c-0.1,0.6-0.1,1.2-0.1,1.8c0,0.6,0,1.2,0.1,1.8h0c0.1,0.5,0.2,1,0.3,1.5
	c0,0.2,0.1,0.4,0.2,0.5c0,0.2,0.1,0.3,0.2,0.5c0.4,1.1,0.9,2,1.6,2.9l0,0l-1.1,1.1l-5,5l-2.6-2.6l-1.5,6.6L0,47l5.3-2.8l6.7-1.4
	l-2.6-2.6l6.1-6.1c0.6,0.4,1.2,0.8,1.8,1.1c0.2,0.1,0.4,0.2,0.7,0.3c0.2,0.1,0.5,0.2,0.7,0.3c0.2,0.1,0.5,0.1,0.7,0.2
	c0.2,0.1,0.5,0.1,0.7,0.2c0.2,0,0.4,0.1,0.7,0.1c0,0,0,0,0.1,0v8.6h3.5v-8.6c0,0,0,0,0.1,0c0.2,0,0.5-0.1,0.7-0.1
	c0.2,0,0.5-0.1,0.7-0.2c0.2-0.1,0.5-0.1,0.7-0.2c0,0,0,0,0,0c0.2-0.1,0.4-0.2,0.7-0.3c0.3-0.1,0.5-0.2,0.8-0.3
	c0.2-0.1,0.3-0.2,0.5-0.3c0,0,0,0,0.1,0c0.2-0.1,0.4-0.2,0.6-0.4c0.2-0.1,0.4-0.3,0.6-0.4c0.9-0.7,1.8-1.5,2.5-2.5
	c0.1-0.2,0.3-0.4,0.4-0.6c0.1-0.2,0.2-0.4,0.3-0.6c0,0,0-0.1,0.1-0.1c0.1-0.1,0.1-0.3,0.2-0.4c0.2-0.4,0.4-0.9,0.6-1.4
	c0-0.1,0.1-0.2,0.1-0.3c0-0.1,0.1-0.3,0.1-0.4c0.1-0.5,0.3-1,0.3-1.5c0.1-0.6,0.1-1.2,0.1-1.8C34.5,23.9,34.5,23.3,34.4,22.6
	C34.4,22.7,34.4,22.7,34.4,22.6z M15.3,29.2c-2.2-3.4-1.9-8,1.1-10.9c3-3,7.5-3.3,10.9-1.1L15.3,29.2z M28.7,30.6
	c-3,3-7.5,3.3-10.9,1.1l12-12C32,23,31.7,27.6,28.7,30.6z"/>
</svg>
