<?xml version="1.0" encoding="utf-8"?>
<!-- Generator: Adobe Illustrator 23.0.2, SVG Export Plug-In . SVG Version: 6.00 Build 0)  -->
<svg version="1.1" xmlns="http://www.w3.org/2000/svg" xmlns:xlink="http://www.w3.org/1999/xlink" x="0px" y="0px"
	 viewBox="0 0 21 21" style="enable-background:new 0 0 21 21;" xml:space="preserve">
<style type="text/css">
	.st0{fill:#FFFFFF;}
</style>
<g id="Layer_1">
</g>
<g id="Isolation_Mode">
	<g>
		<path class="st0" d="M20.4,15.7h-5.3v-2.9v-1h-1h-2.9v-2c2.4-0.4,4.3-2.4,4.3-4.9c0-2.8-2.2-5-5-5s-5,2.2-5,5
			c0,2.5,1.9,4.6,4.3,4.9v2H6.9h-1v1v1.5v1.4H0.6v1.4h5.3V20v1h1h7.2h1v-1v-2.9h5.3V15.7z M7,5C7,3,8.6,1.4,10.5,1.4S14,3,14,5
			s-1.6,3.5-3.5,3.5S7,6.9,7,5z M14.1,20H6.9v-5.8v-1.5h7.2V20z"/>
		<path class="st0" d="M8.6,17.8c0,1,0.8,1.9,1.9,1.9s1.9-0.8,1.9-1.9c0-0.6-0.3-1.1-0.6-1.4c0.4-0.3,0.6-0.8,0.6-1.4
			c0-1-0.8-1.9-1.9-1.9S8.6,14,8.6,15c0,0.6,0.3,1.1,0.6,1.4C8.9,16.8,8.6,17.3,8.6,17.8z M9.6,15c0-0.5,0.4-0.9,0.9-0.9
			s0.9,0.4,0.9,0.9s-0.4,0.9-0.9,0.9S9.6,15.5,9.6,15z M11.4,17.8c0,0.5-0.4,0.9-0.9,0.9s-0.9-0.4-0.9-0.9c0-0.5,0.4-0.9,0.9-0.9
			S11.4,17.3,11.4,17.8z"/>
	</g>
</g>
</svg>
